prog_norm/mipse.vcd
$date
	Tue Aug  2 14:40:57 2016
$end
$version
	Icarus Verilog
$end
$timescale
	1ps
$end
$scope module test_mipse $end
$scope module mipse_1 $end
$var wire 1 ! addi_opD $end
$var wire 1 " alu_opD $end
$var wire 6 # alucomD [5:0] $end
$var wire 32 $ aluout [31:0] $end
$var wire 32 % aluoutE [31:0] $end
$var wire 1 & beq_opD $end
$var wire 1 ' bne_opD $end
$var wire 1 ( branchD $end
$var wire 1 ) branchstall $end
$var wire 1 * btakenD $end
$var wire 1 + clk $end
$var wire 6 , funcD [5:0] $end
$var wire 1 - grade_opD $end
$var wire 3 . gradeoutE [2:0] $end
$var wire 16 / immD [15:0] $end
$var wire 32 0 instr [31:0] $end
$var wire 1 1 lui_opD $end
$var wire 1 2 lw_opD $end
$var wire 1 3 lwstall $end
$var wire 1 4 memtoregD $end
$var wire 1 5 memwrite $end
$var wire 1 6 memwriteD $end
$var wire 1 7 mult_opD $end
$var wire 32 8 multoutE [31:0] $end
$var wire 6 9 opcodeD [5:0] $end
$var wire 1 : ori_opD $end
$var wire 32 ; pcbranchD [31:0] $end
$var wire 32 < pcplus4F [31:0] $end
$var wire 32 = rd1D [31:0] $end
$var wire 32 > rd1fD [31:0] $end
$var wire 32 ? rd2D [31:0] $end
$var wire 32 @ rd2fD [31:0] $end
$var wire 5 A rdD [4:0] $end
$var wire 32 B readdata [31:0] $end
$var wire 1 C regwriteD $end
$var wire 32 D resultW [31:0] $end
$var wire 5 E rsD [4:0] $end
$var wire 1 F rst_n $end
$var wire 5 G rtD [4:0] $end
$var wire 5 H shamtD [4:0] $end
$var wire 32 I signimmD [31:0] $end
$var wire 1 J slti_opD $end
$var wire 32 K srcaE [31:0] $end
$var wire 32 L srcbE [31:0] $end
$var wire 1 M stall $end
$var wire 1 N sw_opD $end
$var wire 32 O writedata [31:0] $end
$var wire 32 P writedataE [31:0] $end
$var wire 5 Q writeregE [4:0] $end
$var reg 6 R alucomE [5:0] $end
$var reg 32 S aluoutM [31:0] $end
$var reg 32 T aluoutW [31:0] $end
$var reg 1 U alusrcE $end
$var reg 1 V grade_opE $end
$var reg 32 W instrD [31:0] $end
$var reg 1 X memtoregE $end
$var reg 1 Y memtoregM $end
$var reg 1 Z memtoregW $end
$var reg 1 [ memwriteE $end
$var reg 1 \ memwriteM $end
$var reg 1 ] mult_opE $end
$var reg 32 ^ pc [31:0] $end
$var reg 32 _ pcplus4D [31:0] $end
$var reg 32 ` rd1E [31:0] $end
$var reg 32 a rd2E [31:0] $end
$var reg 5 b rdE [4:0] $end
$var reg 32 c readdataW [31:0] $end
$var reg 1 d regdstE $end
$var reg 1 e regwriteE $end
$var reg 1 f regwriteM $end
$var reg 1 g regwriteW $end
$var reg 5 h rsE [4:0] $end
$var reg 5 i rtE [4:0] $end
$var reg 32 j signimmE [31:0] $end
$var reg 1 k slti_opE $end
$var reg 32 l writedataM [31:0] $end
$var reg 5 m writeregM [4:0] $end
$var reg 5 n writeregW [4:0] $end
$scope module rfile_1 $end
$var wire 5 o a1 [4:0] $end
$var wire 5 p a2 [4:0] $end
$var wire 5 q a3 [4:0] $end
$var wire 1 + clk $end
$var wire 32 r rd1 [31:0] $end
$var wire 32 s rd2 [31:0] $end
$var wire 32 t wd3 [31:0] $end
$var wire 1 u we3 $end
$upscope $end
$scope module alu_1 $end
$var wire 32 v a [31:0] $end
$var wire 32 w b [31:0] $end
$var wire 6 x s [5:0] $end
$var wire 32 y y [31:0] $end
$var wire 1 z zero $end
$upscope $end
$upscope $end
$upscope $end
$enddefinitions $end
#0
$dumpvars
xz
bx y
bx x
bx w
bx v
0u
bx t
b0 s
b0 r
bx q
b0 p
b0 o
bx n
bx m
bx l
xk
bx j
b0 i
b0 h
0g
0f
0e
xd
bx c
b0 b
bx a
bx `
b0 _
b0 ^
x]
0\
0[
xZ
xY
0X
b0 W
xV
xU
bx T
bx S
bx R
b0 Q
bx P
bx O
0N
0M
bx L
bx K
0J
b0 I
b0 H
b0 G
0F
b0 E
bx D
0C
bx B
b0 A
b0 @
b0 ?
b0 >
b0 =
b100 <
b0 ;
0:
b0 9
bx 8
07
06
05
04
03
02
01
b10001100000001000000000000000000 0
b0 /
bx .
0-
b0 ,
0+
0*
0)
0(
0'
0&
bx %
bx $
b0 #
0"
0!
$end
#5000
b1 .
b0 P
b0 8
b0 K
b0 v
1z
b0 %
b0 y
b0 L
b0 w
0d
1U
b0 R
b0 x
b0 j
b0 a
b0 `
0]
0V
0k
b0 m
0Y
1+
#10000
0+
#12000
1F
#15000
1C
b100000 #
bx @
bx ?
bx s
b1100111 B
12
14
b100011 9
b100 G
b100 p
b1000 <
b1100000100000 0
b0 n
b0 q
0Z
b0 l
b0 O
b0 S
b0 $
b10001100000001000000000000000000 W
b100 _
b100 ;
b100 ^
1+
#20000
0+
#25000
1C
b0 @
1"
bx .
b1100000100000 I
b0 ?
b0 s
bx P
b0 D
b0 t
b100 Q
b1100 <
b100001000001000000011000 0
b1100000100000 /
02
04
b0 9
b0 G
b0 p
b11 A
b100000 ,
b100000 R
b100000 x
bx a
b0 T
b1100111 c
1e
1X
b100 i
b1000 ^
b1000 _
b110000010001000 ;
b1100000100000 W
1+
#30000
0+
#35000
b1 .
b11000 #
b1000000011000 I
bx =
bx r
bx ?
bx s
1z
b0 %
b0 y
b0 P
17
b0 8
b0 L
b0 w
b1000000011000 /
b100 E
b100 o
b100 G
b100 p
b10 A
b11000 ,
b10000 <
b10001100000001000000000000000100 0
b11 Q
b100 m
bx l
bx O
1Y
1d
0U
b1100000100000 j
b0 a
b100001000001000000011000 W
b1100 _
b100000001101100 ;
b1100 ^
0X
b11 b
b0 i
1f
1+
#40000
0+
#45000
0z
b1100111 %
b1100111 y
b10100101110001 8
b1100111 L
b1100111 w
b101 .
b100000 #
b1100111 P
b1100111 K
b1100111 v
bx @
b100 I
b0 =
b0 r
0"
07
b1100111 D
b1100111 t
b10 Q
b10100 <
b11000100001100000100000 0
b100 /
12
14
b100011 9
b0 E
b0 o
b0 A
b100 ,
b11000 R
b11000 x
b1000000011000 j
1]
b11 m
b0 l
b0 O
0Y
b100 n
b100 q
1Z
1g
1u
b10 b
b100 i
b100 h
b10000 ^
b10000 _
b100000 ;
b10001100000001000000000000000100 W
1+
#50000
b1100111 @
b1100111 ?
b1100111 s
0+
#55000
1C
bx >
1"
b1100000100000 I
bx =
bx r
b10100101110001 @
b0 K
b0 v
bx ?
bx s
0M
b0 D
b0 t
bx B
b0 8
b100 L
b100 w
b100 %
b100 y
b1100000100000 /
02
04
b0 9
b11 E
b11 o
b10 G
b10 p
b11 A
b100000 ,
b11000 <
b100001000001000000011000 0
03
b100 Q
b11 n
b11 q
0Z
b10 m
b1100111 l
b1100111 O
b10100101110001 S
b10100101110001 $
0d
1U
b100000 R
b100000 x
b100 j
b1100111 a
0]
b11000100001100000100000 W
b10100 _
b110000010010100 ;
b10100 ^
1X
b0 b
b0 h
1+
#60000
b0 >
b0 =
b0 r
0+
#65000
b11000 #
b1000000011000 I
b100 >
b10100101110001 %
b10100101110001 y
b10100101110001 P
b1100111 =
b1100111 r
b1100111 ?
b1100111 s
17
b10100101110001 L
b10100101110001 w
b100 @
b11000110 B
b10100101110001 D
b10100101110001 t
b11 Q
b11100 <
b10001100000001000000000000001000 0
b1000000011000 /
b100 E
b100 o
b100 G
b100 p
b10 A
b11000 ,
1d
0U
b1100000100000 j
b10100101110001 a
b100 m
1Y
b100 S
b100 $
b10 n
b10 q
b10100101110001 T
bx c
0X
b11 b
b10 i
b11 h
b11000 ^
b11000 _
b100000001111000 ;
b100001000001000000011000 W
1+
#70000
0+
#75000
b11000110 %
b11000110 y
b100000 #
b11000110 L
b11000110 w
b11000110 P
b1000 I
b1001100100100100 8
b11000110 K
b11000110 v
0"
b0 =
b0 r
07
b11000110 D
b11000110 t
b0 >
b1100111 @
bx B
b1000 /
12
14
b100011 9
b0 E
b0 o
b0 A
b1000 ,
b100000 <
b11000100001100000100000 0
b10 Q
b100 n
b100 q
1Z
b100 T
b11000110 c
b11 m
b10100101110001 l
b10100101110001 O
0Y
b10100101110001 S
b10100101110001 $
b11000 R
b11000 x
b1000000011000 j
b100 a
b100 `
1]
b10001100000001000000000000001000 W
b11100 _
b111100 ;
b11100 ^
b10 b
b100 i
b100 h
1+
#80000
b11000110 @
b11000110 ?
b11000110 s
0+
#85000
1C
1"
b0 K
b0 v
b1100000100000 I
b1001100100100100 @
0M
b10100101110001 ?
b10100101110001 s
b0 8
b1000 L
b1000 w
b1000 %
b1000 y
b10100101110001 D
b10100101110001 t
03
b100 Q
b100100 <
b100001000001000000011000 0
b1100000100000 /
02
04
b0 9
b11 E
b11 o
b10 G
b10 p
b11 A
b100000 ,
0d
1U
b100000 R
b100000 x
b1000 j
b11000110 a
b0 `
0]
b10 m
b11000110 l
b11000110 O
b1001100100100100 S
b1001100100100100 $
b11 n
b11 q
0Z
b10100101110001 T
bx c
1X
b0 b
b0 h
b100000 ^
b100000 _
b110000010100000 ;
b11000100001100000100000 W
1+
#90000
b10100101110001 >
b10100101110001 =
b10100101110001 r
0+
#95000
b11000 #
b1000000011000 I
b1000 >
b1100001010010101 %
b1100001010010101 y
b1001100100100100 P
b11000110010100101110011100100 8
b10100101110001 K
b10100101110001 v
b11000110 =
b11000110 r
b11000110 ?
b11000110 s
17
b1001100100100100 D
b1001100100100100 t
b1000 @
b1101001 B
b1001100100100100 L
b1001100100100100 w
b1000000011000 /
b100 E
b100 o
b100 G
b100 p
b10 A
b11000 ,
b101000 <
b10001100000001000000000000001100 0
b11 Q
b10 n
b10 q
b1001100100100100 T
b100 m
1Y
b1000 S
b1000 $
1d
0U
b1100000100000 j
b1001100100100100 a
b10100101110001 `
b100001000001000000011000 W
b100100 _
b100000010000100 ;
b100100 ^
0X
b11 b
b10 i
b11 h
1+
#100000
0+
#105000
b100000 #
b1101001 L
b1101001 w
b1101001 P
b1100 I
b10101100010001 8
b1101001 K
b1101001 v
0"
b0 =
b0 r
07
b1101001 %
b1101001 y
b0 >
b11000110 @
bx B
b1101001 D
b1101001 t
b10 Q
b101100 <
b11000100001100000100000 0
b1100 /
12
14
b100011 9
b0 E
b0 o
b0 A
b1100 ,
b11000 R
b11000 x
b1000000011000 j
b1000 a
b1000 `
1]
b11 m
b1001100100100100 l
b1001100100100100 O
0Y
b1100001010010101 S
b1100001010010101 $
b100 n
b100 q
1Z
b1000 T
b1101001 c
b10 b
b100 i
b100 h
b101000 ^
b101000 _
b1011000 ;
b10001100000001000000000000001100 W
1+
#110000
b1101001 @
b1101001 ?
b1101001 s
0+
#115000
1C
b10100101110001 >
1"
b1100000100000 I
b10100101110001 =
b10100101110001 r
b10101100010001 @
b0 K
b0 v
b1001100100100100 ?
b1001100100100100 s
0M
b1100001010010101 D
b1100001010010101 t
b0 8
b1100 L
b1100 w
b1100 %
b1100 y
b1100000100000 /
02
04
b0 9
b11 E
b11 o
b10 G
b10 p
b11 A
b100000 ,
b110000 <
b100001000001000000011000 0
03
b100 Q
b11 n
b11 q
0Z
b1100001010010101 T
bx c
b10 m
b1101001 l
b1101001 O
b10101100010001 S
b10101100010001 $
0d
1U
b100000 R
b100000 x
b1100 j
b1101001 a
b0 `
0]
b11000100001100000100000 W
b101100 _
b110000010101100 ;
b101100 ^
1X
b0 b
b0 h
1+
#120000
b1100001010010101 >
b1100001010010101 =
b1100001010010101 r
0+
#125000
b11000 #
b1000000011000 I
b1100 >
b1110110110100110 %
b1110110110100110 y
b10101100010001 P
b100000101110111111001011100101 8
b1100001010010101 K
b1100001010010101 v
b1101001 =
b1101001 r
b1101001 ?
b1101001 s
17
b10101100010001 L
b10101100010001 w
b1100 @
b1110011 B
b10101100010001 D
b10101100010001 t
b11 Q
b110100 <
b10001100000001000000000000010000 0
b1000000011000 /
b100 E
b100 o
b100 G
b100 p
b10 A
b11000 ,
1d
0U
b1100000100000 j
b10101100010001 a
b1100001010010101 `
b100 m
1Y
b1100 S
b1100 $
b10 n
b10 q
b10101100010001 T
0X
b11 b
b10 i
b11 h
b110000 ^
b110000 _
b100000010010000 ;
b100001000001000000011000 W
1+
#130000
0+
#135000
b100000 #
b1110011 L
b1110011 w
b1110011 P
b10000 I
b11001110101001 8
b1110011 K
b1110011 v
0"
b0 =
b0 r
07
b1110011 D
b1110011 t
b0 >
b1101001 @
bx B
b1110011 %
b1110011 y
b10000 /
12
14
b100011 9
b0 E
b0 o
b0 A
b10000 ,
b111000 <
b11000100001100000100000 0
b10 Q
b100 n
b100 q
1Z
b1100 T
b1110011 c
b11 m
b10101100010001 l
b10101100010001 O
0Y
b1110110110100110 S
b1110110110100110 $
b11000 R
b11000 x
b1000000011000 j
b1100 a
b1100 `
1]
b10001100000001000000000000010000 W
b110100 _
b1110100 ;
b110100 ^
b10 b
b100 i
b100 h
1+
#140000
b1110011 @
b1110011 ?
b1110011 s
0+
#145000
1C
b1100001010010101 >
1"
b0 K
b0 v
b1100000100000 I
b1100001010010101 =
b1100001010010101 r
b11001110101001 @
0M
b10101100010001 ?
b10101100010001 s
b0 8
b10000 L
b10000 w
b10000 %
b10000 y
b1110110110100110 D
b1110110110100110 t
03
b100 Q
b111100 <
b100001000001000000011000 0
b1100000100000 /
02
04
b0 9
b11 E
b11 o
b10 G
b10 p
b11 A
b100000 ,
0d
1U
b100000 R
b100000 x
b10000 j
b1110011 a
b0 `
0]
b10 m
b1110011 l
b1110011 O
b11001110101001 S
b11001110101001 $
b11 n
b11 q
0Z
b1110110110100110 T
bx c
1X
b0 b
b0 h
b111000 ^
b111000 _
b110000010111000 ;
b11000100001100000100000 W
1+
#150000
b1110110110100110 >
b1110110110100110 =
b1110110110100110 r
0+
#155000
b11000 #
b1000000011000 I
b10000 >
b10010000101001111 %
b10010000101001111 y
b11001110101001 P
b101111111101001111010010010110 8
b1110110110100110 K
b1110110110100110 v
b1110011 =
b1110011 r
b1110011 ?
b1110011 s
17
b11001110101001 D
b11001110101001 t
b10000 @
b1010001 B
b11001110101001 L
b11001110101001 w
b1000000011000 /
b100 E
b100 o
b100 G
b100 p
b10 A
b11000 ,
b1000000 <
b10001100000001000000000000010100 0
b11 Q
b10 n
b10 q
b11001110101001 T
b100 m
1Y
b10000 S
b10000 $
1d
0U
b1100000100000 j
b11001110101001 a
b1110110110100110 `
b100001000001000000011000 W
b111100 _
b100000010011100 ;
b111100 ^
0X
b11 b
b10 i
b11 h
1+
#160000
0+
#165000
b100000 #
b1010001 L
b1010001 w
b100 .
b1010001 P
b10100 I
b1100110100001 8
b1010001 K
b1010001 v
0"
b0 =
b0 r
07
b1010001 %
b1010001 y
b0 >
b1110011 @
bx B
b1010001 D
b1010001 t
b10 Q
b1000100 <
b11000100001100000100000 0
b10100 /
12
14
b100011 9
b0 E
b0 o
b0 A
b10100 ,
b11000 R
b11000 x
b1000000011000 j
b10000 a
b10000 `
1]
b11 m
b11001110101001 l
b11001110101001 O
0Y
b10010000101001111 S
b10010000101001111 $
b100 n
b100 q
1Z
b10000 T
b1010001 c
b10 b
b100 i
b100 h
b1000000 ^
b1000000 _
b10010000 ;
b10001100000001000000000000010100 W
1+
#170000
b1010001 @
b1010001 ?
b1010001 s
0+
#175000
1C
b1110110110100110 >
1"
b1100000100000 I
b1110110110100110 =
b1110110110100110 r
b1100110100001 @
b0 K
b0 v
b11001110101001 ?
b11001110101001 s
0M
b10010000101001111 D
b10010000101001111 t
b0 8
b10100 L
b10100 w
b10100 %
b10100 y
b1100000100000 /
02
04
b0 9
b11 E
b11 o
b10 G
b10 p
b11 A
b100000 ,
b1001000 <
b100001000001000000011000 0
03
b100 Q
b11 n
b11 q
0Z
b10010000101001111 T
bx c
b10 m
b1010001 l
b1010001 O
b1100110100001 S
b1100110100001 $
0d
1U
b100000 R
b100000 x
b10100 j
b1010001 a
b0 `
0]
b11000100001100000100000 W
b1000100 _
b110000011000100 ;
b1000100 ^
1X
b0 b
b0 h
1+
#180000
b10010000101001111 >
b10010000101001111 =
b10010000101001111 r
0+
#185000
b11000 #
b101 .
b1000000011000 I
b10100 >
b10011101011110000 %
b10011101011110000 y
b1100110100001 P
b11100111101101010100110101111 8
b10010000101001111 K
b10010000101001111 v
b1010001 =
b1010001 r
b1010001 ?
b1010001 s
17
b1100110100001 L
b1100110100001 w
b10100 @
b11111111 B
b1100110100001 D
b1100110100001 t
b11 Q
b1001100 <
b10001100000001000000000000011000 0
b1000000011000 /
b100 E
b100 o
b100 G
b100 p
b10 A
b11000 ,
1d
0U
b1100000100000 j
b1100110100001 a
b10010000101001111 `
b100 m
1Y
b10100 S
b10100 $
b10 n
b10 q
b1100110100001 T
0X
b11 b
b10 i
b11 h
b1001000 ^
b1001000 _
b100000010101000 ;
b100001000001000000011000 W
1+
#190000
0+
#195000
b100000 #
b11111111 L
b11111111 w
b11111111 P
b11000 I
b1111111000000001 8
b11111111 K
b11111111 v
0"
07
b0 =
b0 r
b11111111 D
b11111111 t
b0 >
b1010001 @
bx B
b11111111 %
b11111111 y
b11000 /
12
14
b100011 9
b0 E
b0 o
b0 A
b1010000 <
b11000100001100000100000 0
b10 Q
b100 n
b100 q
1Z
b10100 T
b11111111 c
b11 m
b1100110100001 l
b1100110100001 O
0Y
b10011101011110000 S
b10011101011110000 $
b11000 R
b11000 x
b1000000011000 j
b10100 a
b10100 `
1]
b10001100000001000000000000011000 W
b1001100 _
b10101100 ;
b1001100 ^
b10 b
b100 i
b100 h
1+
#200000
b11111111 @
b11111111 ?
b11111111 s
0+
#205000
1C
b10010000101001111 >
1"
b0 K
b0 v
b1100000100000 I
b10010000101001111 =
b10010000101001111 r
b1111111000000001 @
0M
b1100110100001 ?
b1100110100001 s
b0 8
b11000 L
b11000 w
b11000 %
b11000 y
b10011101011110000 D
b10011101011110000 t
03
b100 Q
b1010100 <
b100001000001000000011000 0
b1100000100000 /
02
04
b0 9
b11 E
b11 o
b10 G
b10 p
b11 A
b100000 ,
0d
1U
b100000 R
b100000 x
b11000 j
b11111111 a
b0 `
0]
b10 m
b11111111 l
b11111111 O
b1111111000000001 S
b1111111000000001 $
b11 n
b11 q
0Z
b10011101011110000 T
bx c
1X
b0 b
b0 h
b1010000 ^
b1010000 _
b110000011010000 ;
b11000100001100000100000 W
1+
#210000
b10011101011110000 >
b10011101011110000 =
b10011101011110000 r
0+
#215000
b11000 #
b1000000011000 I
b11000 >
b100011100011110001 %
b100011100011110001 y
b1111111000000001 P
b111000011110110101101011110000 8
b10011101011110000 K
b10011101011110000 v
b11111111 =
b11111111 r
b11111111 ?
b11111111 s
17
b1111111000000001 D
b1111111000000001 t
b11000 @
b1001010 B
b1111111000000001 L
b1111111000000001 w
b1000000011000 /
b100 E
b100 o
b100 G
b100 p
b10 A
b11000 ,
b1011000 <
b10001100000001000000000000011100 0
b11 Q
b10 n
b10 q
b1111111000000001 T
b100 m
1Y
b11000 S
b11000 $
1d
0U
b1100000100000 j
b1111111000000001 a
b10011101011110000 `
b100001000001000000011000 W
b1010100 _
b100000010110100 ;
b1010100 ^
0X
b11 b
b10 i
b11 h
1+
#220000
0+
#225000
b100000 #
b1001010 L
b1001010 w
b100 .
b1001010 P
b11100 I
b1010101100100 8
b1001010 K
b1001010 v
0"
b0 =
b0 r
07
b1001010 %
b1001010 y
b0 >
b11111111 @
bx B
b1001010 D
b1001010 t
b10 Q
b1011100 <
b11000100001100000100000 0
b11100 /
12
14
b100011 9
b0 E
b0 o
b0 A
b11100 ,
b11000 R
b11000 x
b1000000011000 j
b11000 a
b11000 `
1]
b11 m
b1111111000000001 l
b1111111000000001 O
0Y
b100011100011110001 S
b100011100011110001 $
b100 n
b100 q
1Z
b11000 T
b1001010 c
b10 b
b100 i
b100 h
b1011000 ^
b1011000 _
b11001000 ;
b10001100000001000000000000011100 W
1+
#230000
b1001010 @
b1001010 ?
b1001010 s
0+
#235000
1C
b10011101011110000 >
1"
b1100000100000 I
b10011101011110000 =
b10011101011110000 r
b1010101100100 @
b0 K
b0 v
b1111111000000001 ?
b1111111000000001 s
0M
b100011100011110001 D
b100011100011110001 t
b0 8
b11100 L
b11100 w
b11100 %
b11100 y
b1100000100000 /
02
04
b0 9
b11 E
b11 o
b10 G
b10 p
b11 A
b100000 ,
b1100000 <
b100001000001000000011000 0
03
b100 Q
b11 n
b11 q
0Z
b100011100011110001 T
bx c
b10 m
b1001010 l
b1001010 O
b1010101100100 S
b1010101100100 $
0d
1U
b100000 R
b100000 x
b11100 j
b1001010 a
b0 `
0]
b11000100001100000100000 W
b1011100 _
b110000011011100 ;
b1011100 ^
1X
b0 b
b0 h
1+
#240000
b100011100011110001 >
b100011100011110001 =
b100011100011110001 r
0+
#245000
b11000 #
b101 .
b1000000011000 I
b11100 >
b100100111001010101 %
b100100111001010101 y
b1010101100100 P
b101111100010100000001100100100 8
b100011100011110001 K
b100011100011110001 v
b1001010 =
b1001010 r
b1001010 ?
b1001010 s
17
b1010101100100 L
b1010101100100 w
b11100 @
b11101100 B
b1010101100100 D
b1010101100100 t
b11 Q
b1100100 <
b10001100000001000000000000100000 0
b1000000011000 /
b100 E
b100 o
b100 G
b100 p
b10 A
b11000 ,
1d
0U
b1100000100000 j
b1010101100100 a
b100011100011110001 `
b100 m
1Y
b11100 S
b11100 $
b10 n
b10 q
b1010101100100 T
0X
b11 b
b10 i
b11 h
b1100000 ^
b1100000 _
b100000011000000 ;
b100001000001000000011000 W
1+
#250000
0+
#255000
b100000 #
b11101100 L
b11101100 w
b11101100 P
b100000 I
b1101100110010000 8
b11101100 K
b11101100 v
0"
b0 =
b0 r
07
b11101100 D
b11101100 t
b0 >
b1001010 @
bx B
b11101100 %
b11101100 y
b100000 /
12
14
b100011 9
b0 E
b0 o
b0 A
b100000 ,
b1101000 <
b11000100001100000100000 0
b10 Q
b100 n
b100 q
1Z
b11100 T
b11101100 c
b11 m
b1010101100100 l
b1010101100100 O
0Y
b100100111001010101 S
b100100111001010101 $
b11000 R
b11000 x
b1000000011000 j
b11100 a
b11100 `
1]
b10001100000001000000000000100000 W
b1100100 _
b11100100 ;
b1100100 ^
b10 b
b100 i
b100 h
1+
#260000
b11101100 @
b11101100 ?
b11101100 s
0+
#265000
b100011100011110001 >
b0 K
b0 v
b1100000100000 I
b100011100011110001 =
b100011100011110001 r
b1101100110010000 @
0M
1"
b1010101100100 ?
b1010101100100 s
b0 8
b100000 L
b100000 w
b100000 %
b100000 y
b100100111001010101 D
b100100111001010101 t
03
b100 Q
b1101100 <
b100001000001000000011000 0
b1100000100000 /
02
04
b0 9
b11 E
b11 o
b10 G
b10 p
b11 A
0d
1U
b100000 R
b100000 x
b100000 j
b11101100 a
b0 `
0]
b10 m
b11101100 l
b11101100 O
b1101100110010000 S
b1101100110010000 $
b11 n
b11 q
0Z
b100100111001010101 T
bx c
1X
b0 b
b0 h
b1101000 ^
b1101000 _
b110000011101000 ;
b11000100001100000100000 W
1+
#270000
b100100111001010101 >
b100100111001010101 =
b100100111001010101 r
0+
#275000
b11000 #
b1000000011000 I
b100000 >
b110010011111100101 %
b110010011111100101 y
b1101100110010000 P
b11110101101100100001110011010000 8
b100100111001010101 K
b100100111001010101 v
b11101100 =
b11101100 r
b11101100 ?
b11101100 s
17
b1101100110010000 D
b1101100110010000 t
b100000 @
b101001 B
b1101100110010000 L
b1101100110010000 w
b1000000011000 /
b100 E
b100 o
b100 G
b100 p
b10 A
b11000 ,
b1110000 <
b10001100000001000000000000100100 0
b11 Q
b10 n
b10 q
b1101100110010000 T
b100 m
1Y
b100000 S
b100000 $
1d
0U
b1100000100000 j
b1101100110010000 a
b100100111001010101 `
b100001000001000000011000 W
b1101100 _
b100000011001100 ;
b1101100 ^
0X
b11 b
b10 i
b11 h
1+
#280000
0+
#285000
b100000 #
b101001 L
b101001 w
b11 .
b101001 P
b100100 I
b11010010001 8
b101001 K
b101001 v
0"
b0 =
b0 r
07
b101001 %
b101001 y
b0 >
b11101100 @
bx B
b101001 D
b101001 t
b10 Q
b1110100 <
b11000100001100000100000 0
b100100 /
12
14
b100011 9
b0 E
b0 o
b0 A
b100100 ,
b11000 R
b11000 x
b1000000011000 j
b100000 a
b100000 `
1]
b11 m
b1101100110010000 l
b1101100110010000 O
0Y
b110010011111100101 S
b110010011111100101 $
b100 n
b100 q
1Z
b100000 T
b101001 c
b10 b
b100 i
b100 h
b1110000 ^
b1110000 _
b100000000 ;
b10001100000001000000000000100100 W
1+
#290000
b101001 @
b101001 ?
b101001 s
0+
#295000
b100100111001010101 >
b1100000100000 I
b100100111001010101 =
b100100111001010101 r
b11010010001 @
b0 K
b0 v
1"
b1101100110010000 ?
b1101100110010000 s
0M
b110010011111100101 D
b110010011111100101 t
b0 8
b100100 L
b100100 w
b100100 %
b100100 y
b1100000100000 /
02
04
b0 9
b11 E
b11 o
b10 G
b10 p
b11 A
b100000 ,
b1111000 <
b100001000001000000011000 0
03
b100 Q
b11 n
b11 q
0Z
b110010011111100101 T
bx c
b10 m
b101001 l
b101001 O
b11010010001 S
b11010010001 $
0d
1U
b100000 R
b100000 x
b100100 j
b101001 a
b0 `
0]
b11000100001100000100000 W
b1110100 _
b110000011110100 ;
b1110100 ^
1X
b0 b
b0 h
1+
#300000
b110010011111100101 >
b110010011111100101 =
b110010011111100101 r
0+
#305000
b11000 #
b101 .
b1000000011000 I
b100100 >
b110010111001110110 %
b110010111001110110 y
b11010010001 P
b10100101110001111011010110101 8
b110010011111100101 K
b110010011111100101 v
b101001 =
b101001 r
b101001 ?
b101001 s
17
b11010010001 L
b11010010001 w
b100100 @
b11001101 B
b11010010001 D
b11010010001 t
b11 Q
b1111100 <
b10001100000001000000000000101000 0
b1000000011000 /
b100 E
b100 o
b100 G
b100 p
b10 A
b11000 ,
1d
0U
b1100000100000 j
b11010010001 a
b110010011111100101 `
b100 m
1Y
b100100 S
b100100 $
b10 n
b10 q
b11010010001 T
0X
b11 b
b10 i
b11 h
b1111000 ^
b1111000 _
b100000011011000 ;
b100001000001000000011000 W
1+
#310000
0+
#315000
b100000 #
b11001101 L
b11001101 w
b11001101 P
b101000 I
b1010010000101001 8
b11001101 K
b11001101 v
0"
b0 =
b0 r
07
b11001101 D
b11001101 t
b0 >
b101001 @
bx B
b11001101 %
b11001101 y
b101000 /
12
14
b100011 9
b0 E
b0 o
b0 A
b101000 ,
b10000000 <
b11000100001100000100000 0
b10 Q
b100 n
b100 q
1Z
b100100 T
b11001101 c
b11 m
b11010010001 l
b11010010001 O
0Y
b110010111001110110 S
b110010111001110110 $
b11000 R
b11000 x
b1000000011000 j
b100100 a
b100100 `
1]
b10001100000001000000000000101000 W
b1111100 _
b100011100 ;
b1111100 ^
b10 b
b100 i
b100 h
1+
#320000
b11001101 @
b11001101 ?
b11001101 s
0+
#325000
1C
b110010011111100101 >
1"
b0 K
b0 v
b1100000100000 I
b110010011111100101 =
b110010011111100101 r
b1010010000101001 @
0M
b11010010001 ?
b11010010001 s
b0 8
b101000 L
b101000 w
b101000 %
b101000 y
b110010111001110110 D
b110010111001110110 t
03
b100 Q
b10000100 <
b100001000001000000011000 0
b1100000100000 /
02
04
b0 9
b11 E
b11 o
b10 G
b10 p
b11 A
b100000 ,
0d
1U
b100000 R
b100000 x
b101000 j
b11001101 a
b0 `
0]
b10 m
b11001101 l
b11001101 O
b1010010000101001 S
b1010010000101001 $
b11 n
b11 q
0Z
b110010111001110110 T
bx c
1X
b0 b
b0 h
b10000000 ^
b10000000 _
b110000100000000 ;
b11000100001100000100000 W
1+
#330000
b110010111001110110 >
b110010111001110110 =
b110010111001110110 r
0+
#335000
b11000 #
b1000000011000 I
b101000 >
b111101001010011111 %
b111101001010011111 y
b1010010000101001 P
b1010010001100000100011100110 8
b110010111001110110 K
b110010111001110110 v
b11001101 =
b11001101 r
b11001101 ?
b11001101 s
17
b1010010000101001 D
b1010010000101001 t
b101000 @
b10111010 B
b1010010000101001 L
b1010010000101001 w
b1000000011000 /
b100 E
b100 o
b100 G
b100 p
b10 A
b11000 ,
b10001000 <
b10001100000001000000000000101100 0
b11 Q
b10 n
b10 q
b1010010000101001 T
b100 m
1Y
b101000 S
b101000 $
1d
0U
b1100000100000 j
b1010010000101001 a
b110010111001110110 `
b100001000001000000011000 W
b10000100 _
b100000011100100 ;
b10000100 ^
0X
b11 b
b10 i
b11 h
1+
#340000
0+
#345000
b100000 #
b10111010 L
b10111010 w
b10111010 P
b101100 I
b1000011100100100 8
b10111010 K
b10111010 v
0"
b0 =
b0 r
07
b10111010 %
b10111010 y
b0 >
b11001101 @
bx B
b10111010 D
b10111010 t
b10 Q
b10001100 <
b11000100001100000100000 0
b101100 /
12
14
b100011 9
b0 E
b0 o
b0 A
b101100 ,
b11000 R
b11000 x
b1000000011000 j
b101000 a
b101000 `
1]
b11 m
b1010010000101001 l
b1010010000101001 O
0Y
b111101001010011111 S
b111101001010011111 $
b100 n
b100 q
1Z
b101000 T
b10111010 c
b10 b
b100 i
b100 h
b10001000 ^
b10001000 _
b100111000 ;
b10001100000001000000000000101100 W
1+
#350000
b10111010 @
b10111010 ?
b10111010 s
0+
