prog_norm/mipse.vcd
$date
	Tue Aug  2 02:32:59 2016
$end
$version
	Icarus Verilog
$end
$timescale
	1ps
$end
$scope module test_mipse $end
$scope module mipse_1 $end
$var wire 1 ! addi_opD $end
$var wire 1 " alu_opD $end
$var wire 6 # alucomD [5:0] $end
$var wire 32 $ aluout [31:0] $end
$var wire 32 % aluoutE [31:0] $end
$var wire 1 & beq_opD $end
$var wire 1 ' bne_opD $end
$var wire 1 ( branchD $end
$var wire 1 ) branchstall $end
$var wire 1 * btakenD $end
$var wire 1 + clk $end
$var wire 6 , funcD [5:0] $end
$var wire 1 - grade_opD $end
$var wire 3 . gradeoutE [2:0] $end
$var wire 16 / immD [15:0] $end
$var wire 32 0 instr [31:0] $end
$var wire 1 1 lui_opD $end
$var wire 1 2 lw_opD $end
$var wire 1 3 lwstall $end
$var wire 1 4 memtoregD $end
$var wire 1 5 memwrite $end
$var wire 1 6 memwriteD $end
$var wire 1 7 mult_opD $end
$var wire 16 8 multoutE [15:0] $end
$var wire 6 9 opcodeD [5:0] $end
$var wire 1 : ori_opD $end
$var wire 32 ; pcbranchD [31:0] $end
$var wire 32 < pcplus4F [31:0] $end
$var wire 32 = rd1D [31:0] $end
$var wire 32 > rd1fD [31:0] $end
$var wire 32 ? rd2D [31:0] $end
$var wire 32 @ rd2fD [31:0] $end
$var wire 5 A rdD [4:0] $end
$var wire 32 B readdata [31:0] $end
$var wire 1 C regwriteD $end
$var wire 32 D resultW [31:0] $end
$var wire 5 E rsD [4:0] $end
$var wire 1 F rst_n $end
$var wire 5 G rtD [4:0] $end
$var wire 5 H shamtD [4:0] $end
$var wire 32 I signimmD [31:0] $end
$var wire 1 J slti_opD $end
$var wire 32 K srcaE [31:0] $end
$var wire 32 L srcbE [31:0] $end
$var wire 1 M stall $end
$var wire 1 N sw_opD $end
$var wire 32 O writedata [31:0] $end
$var wire 32 P writedataE [31:0] $end
$var wire 5 Q writeregE [4:0] $end
$var reg 6 R alucomE [5:0] $end
$var reg 32 S aluoutM [31:0] $end
$var reg 32 T aluoutW [31:0] $end
$var reg 1 U alusrcE $end
$var reg 1 V grade_opE $end
$var reg 32 W instrD [31:0] $end
$var reg 1 X memtoregE $end
$var reg 1 Y memtoregM $end
$var reg 1 Z memtoregW $end
$var reg 1 [ memwriteE $end
$var reg 1 \ memwriteM $end
$var reg 1 ] mult_opE $end
$var reg 32 ^ pc [31:0] $end
$var reg 32 _ pcplus4D [31:0] $end
$var reg 32 ` rd1E [31:0] $end
$var reg 32 a rd2E [31:0] $end
$var reg 5 b rdE [4:0] $end
$var reg 32 c readdataW [31:0] $end
$var reg 1 d regdstE $end
$var reg 1 e regwriteE $end
$var reg 1 f regwriteM $end
$var reg 1 g regwriteW $end
$var reg 5 h rsE [4:0] $end
$var reg 5 i rtE [4:0] $end
$var reg 32 j signimmE [31:0] $end
$var reg 1 k slti_opE $end
$var reg 32 l writedataM [31:0] $end
$var reg 5 m writeregM [4:0] $end
$var reg 5 n writeregW [4:0] $end
$scope module rfile_1 $end
$var wire 5 o a1 [4:0] $end
$var wire 5 p a2 [4:0] $end
$var wire 5 q a3 [4:0] $end
$var wire 1 + clk $end
$var wire 32 r rd1 [31:0] $end
$var wire 32 s rd2 [31:0] $end
$var wire 32 t wd3 [31:0] $end
$var wire 1 u we3 $end
$upscope $end
$scope module alu_1 $end
$var wire 32 v a [31:0] $end
$var wire 32 w b [31:0] $end
$var wire 6 x s [5:0] $end
$var wire 32 y y [31:0] $end
$var wire 1 z zero $end
$upscope $end
$upscope $end
$upscope $end
$enddefinitions $end
#0
$dumpvars
xz
bx y
bx x
bx w
bx v
0u
bx t
b0 s
b0 r
bx q
b0 p
b0 o
bx n
bx m
bx l
xk
bx j
b0 i
b0 h
0g
0f
0e
xd
bx c
b0 b
bx a
bx `
b0 _
b0 ^
x]
0\
0[
xZ
xY
0X
b0 W
xV
xU
bx T
bx S
bx R
b0 Q
bx P
bx O
0N
0M
bx L
bx K
0J
b0 I
b0 H
b0 G
0F
b0 E
bx D
0C
bx B
b0 A
b0 @
b0 ?
b0 >
b0 =
b100 <
b0 ;
0:
b0 9
bx 8
07
06
05
04
03
02
01
b100000000000010000000110001100 0
b0 /
bx .
0-
b0 ,
0+
0*
0)
0(
0'
0&
bx %
bx $
b0 #
0"
0!
$end
#5000
b1 .
b0 8
b0 P
b0 K
b0 v
1z
b0 %
b0 y
b0 L
b0 w
0d
1U
b0 R
b0 x
b0 j
b0 a
b0 `
0]
0V
0k
b0 m
0Y
1+
#10000
0+
#12000
1F
#15000
b100000 #
1C
bx @
b110001100 I
bx ?
bx s
b1100111 B
b110001100 /
1!
b1000 9
b1 G
b1 p
b110 H
b1100 ,
b1000 <
b1100000100000 0
b0 n
b0 q
0Z
b0 l
b0 O
b0 S
b0 $
b100000000000010000000110001100 W
b100 _
b11000110100 ;
b100 ^
1+
#20000
0+
#25000
1C
b0 @
1"
b1100000100000 I
b0 ?
b0 s
bx P
0z
b110001100 %
b110001100 y
b110001100 L
b110001100 w
b0 D
b0 t
b1 Q
b1100 <
b10001100001001000000000000000000 0
b1100000100000 /
0!
b0 9
b0 G
b0 p
b11 A
b0 H
b100000 ,
b100000 R
b100000 x
b110001100 j
bx a
b0 T
b1100111 c
1e
b1 i
b1000 ^
b1000 _
b110000010001000 ;
b1100000100000 W
1+
#30000
0+
#35000
bx @
b110001100 >
b0 I
bx =
bx r
bx ?
bx s
b0 8
1z
b0 %
b0 y
b0 P
0"
b1000011 B
b0 L
b0 w
b0 /
12
14
b100011 9
b1 E
b1 o
b100 G
b100 p
b0 A
b0 ,
b10000 <
b100000001000011111111111111100 0
b11 Q
b1 m
bx l
bx O
b110001100 S
b110001100 $
1d
0U
b1100000100000 j
b0 a
b10001100001001000000000000000000 W
b1100 _
b1100 ;
b1100 ^
b11 b
b0 i
1f
1+
#40000
0+
#45000
b101 .
0z
b110001100 %
b110001100 y
b11111111111111111111111111111100 I
bx P
b110001100 K
b110001100 v
bx >
b1100111 B
b110001100 D
b110001100 t
b100 Q
b10100 <
b100001000010000000011000 0
b1111111111111100 /
02
04
1!
b1000 9
b1 G
b1 p
b11111 A
b11111 H
b111100 ,
0d
1U
b0 j
bx a
b110001100 `
b11 m
b0 l
b0 O
b0 S
b0 $
b1 n
b1 q
b110001100 T
b1000011 c
1g
1u
1X
b0 b
b100 i
b1 h
b10000 ^
b10000 _
b0 ;
b100000001000011111111111111100 W
1+
#50000
b110001100 >
b110001100 @
b110001100 =
b110001100 r
b110001100 ?
b110001100 s
0+
#55000
b11000 #
1C
b10000000011000 I
b110001100 >
b110001100 @
b1111100111010000 8
b110001000 %
b110001000 y
b110001100 P
1"
bx =
bx r
bx ?
bx s
17
b0 D
b0 t
b1000011 B
b11111111111111111111111111111100 L
b11111111111111111111111111111100 w
b10000000011000 /
0!
b0 9
b100 E
b100 o
b100 G
b100 p
b100 A
b0 H
b11000 ,
b11000 <
b10100001000001111111111111100 0
b1 Q
b11 n
b11 q
b0 T
b1100111 c
b100 m
bx l
bx O
1Y
b110001100 S
b110001100 $
b11111111111111111111111111111100 j
b110001100 a
b100001000010000000011000 W
b10100 _
b1000000001110100 ;
b10100 ^
0X
b11111 b
b1 i
1+
#60000
0+
#65000
0C
1*
b111100 #
b100 .
b1000011 K
b1000011 v
b1000011 P
b11111111111111111111111111111100 I
b0 ?
b0 s
b1000110001001 8
0"
1(
b110001100 =
b110001100 r
07
b1000011 %
b1000011 y
b1000011 L
b1000011 w
b110001000 >
b0 @
b11111110 B
b1000011 D
b1000011 t
b100 Q
b11100 <
b11001000001100000100000 0
b1111111111111100 /
1'
b101 9
b1 E
b1 o
b0 G
b0 p
b11111 A
b11111 H
b111100 ,
1d
0U
b11000 R
b11000 x
b10000000011000 j
1]
b1 m
b110001100 l
b110001100 O
0Y
b110001000 S
b110001000 $
b100 n
b100 q
1Z
b110001100 T
b1000011 c
b100 b
b100 i
b100 h
b11000 ^
b11000 _
b1000 ;
b10100001000001111111111111100 W
1+
#70000
0+
#75000
1C
b11111111111111111111111111111100 %
b11111111111111111111111111111100 y
b100000 #
b101 .
b1000110001001 @
1"
b110001000 K
b110001000 v
b1100000100000 I
0*
b1000011 ?
b1000011 s
b0 P
b1111100111100000 8
0(
b0 =
b0 r
b110001000 D
b110001000 t
b0 >
bx B
b11111111111111111111111111111100 L
b11111111111111111111111111111100 w
b1100000100000 /
0'
b0 9
b11 E
b11 o
b100 G
b100 p
b11 A
b0 H
b100000 ,
b1100 <
b10001100001001000000000000000000 0
b0 Q
b1 n
b1 q
0Z
b110001000 T
b11111110 c
b100 m
b1000011 l
b1000011 O
b1000110001001 S
b1000110001001 $
0d
1U
b111100 R
b111100 x
b11111111111111111111111111111100 j
b0 a
b110001000 `
0]
b11001000001100000100000 W
b11100 _
b110000010011100 ;
b1000 ^
0e
b11111 b
b0 i
b1 h
1+
#80000
0+
#85000
b1 .
b0 K
b0 v
b0 I
b110001000 >
b0 8
b1000110001001 P
0"
b110001000 =
b110001000 r
b1000110001001 %
b1000110001001 y
b1000110001001 L
b1000110001001 w
b1000011 @
b1000110001001 D
b1000110001001 t
b11 Q
b10000 <
b100000001000011111111111111100 0
b0 /
12
14
b100011 9
b1 E
b1 o
b0 A
b0 ,
1d
0U
b100000 R
b100000 x
b1100000100000 j
b1000110001001 a
b0 `
b0 m
b0 l
b0 O
b11111111111111111111111111111100 S
b11111111111111111111111111111100 $
b100 n
b100 q
b1000110001001 T
bx c
0f
1e
b11 b
b100 i
b11 h
b1100 ^
b1100 _
b1100 ;
b10001100001001000000000000000000 W
1+
#90000
b1000110001001 @
b1000110001001 ?
b1000110001001 s
0+
#95000
b101 .
b11111111111111111111111111111100 I
b110001000 @
b110001000 %
b110001000 y
b110001000 K
b110001000 v
b110001000 ?
b110001000 s
0M
b11111111111111111111111111111100 D
b11111111111111111111111111111100 t
b0 L
b0 w
b1111111111111100 /
02
04
1!
b1000 9
b1 G
b1 p
b11111 A
b11111 H
b111100 ,
b10100 <
b100001000010000000011000 0
03
b100 Q
b0 n
b0 q
b11111111111111111111111111111100 T
b11 m
b1000110001001 l
b1000110001001 O
b1000110001001 S
b1000110001001 $
0d
1U
b0 j
b110001000 `
b100000001000011111111111111100 W
b10000 _
b0 ;
b10000 ^
1X
b0 b
b1 h
1f
0g
0u
1+
#100000
0+
#105000
b11000 #
1C
b10000000011000 I
b110001000 >
b110001000 @
b1111100111100000 8
b110000100 %
b110000100 y
b110001000 P
1"
b1000110001001 =
b1000110001001 r
b1000110001001 ?
b1000110001001 s
17
b11111111111111111111111111111100 L
b11111111111111111111111111111100 w
b11111110 B
b1000110001001 D
b1000110001001 t
b1 Q
b11000 <
b10100001000001111111111111100 0
b10000000011000 /
0!
b0 9
b100 E
b100 o
b100 G
b100 p
b100 A
b0 H
b11000 ,
b11111111111111111111111111111100 j
b110001000 a
b100 m
1Y
b110001000 S
b110001000 $
b11 n
b11 q
b1000110001001 T
1g
1u
0X
b11111 b
b1 i
b10100 ^
b10100 _
b1000000001110100 ;
b100001000010000000011000 W
1+
#110000
0+
#115000
0C
1*
b111100 #
b11111110 K
b11111110 v
b11111110 P
b11111111111111111111111111111100 I
b1111110000000100 8
0"
1(
b110001000 =
b110001000 r
b0 ?
b0 s
07
b11111110 D
b11111110 t
b110000100 >
b0 @
b11010 B
b11111110 %
b11111110 y
b11111110 L
b11111110 w
b1111111111111100 /
1'
b101 9
b1 E
b1 o
b0 G
b0 p
b11111 A
b11111 H
b111100 ,
b11100 <
b11001000001100000100000 0
b100 Q
b100 n
b100 q
1Z
b110001000 T
b11111110 c
b1 m
b110001000 l
b110001000 O
0Y
b110000100 S
b110000100 $
1d
0U
b11000 R
b11000 x
b10000000011000 j
1]
b10100001000001111111111111100 W
b11000 _
b1000 ;
b11000 ^
b100 b
b100 i
b100 h
1+
#120000
0+
#125000
1C
b11111111111111111111111111111100 %
b11111111111111111111111111111100 y
b100000 #
b1111110000000100 @
1"
b110000100 K
b110000100 v
b0 P
b1100000100000 I
0*
b11111110 ?
b11111110 s
b1111100111110000 8
0(
b1000110001001 =
b1000110001001 r
b11111111111111111111111111111100 L
b11111111111111111111111111111100 w
b1000110001001 >
bx B
b110000100 D
b110000100 t
b0 Q
b1100 <
b10001100001001000000000000000000 0
b1100000100000 /
0'
b0 9
b11 E
b11 o
b100 G
b100 p
b11 A
b0 H
b100000 ,
0d
1U
b111100 R
b111100 x
b11111111111111111111111111111100 j
b0 a
b110000100 `
0]
b100 m
b11111110 l
b11111110 O
b1111110000000100 S
b1111110000000100 $
b1 n
b1 q
0Z
b110000100 T
b11010 c
0e
b11111 b
b0 i
b1 h
b1000 ^
b11100 _
b110000010011100 ;
b11001000001100000100000 W
1+
#130000
0+
#135000
b0 I
b110000100 >
b1000110001001 K
b1000110001001 v
b10001000100100 8
b1111110000000100 P
0"
b110000100 =
b110000100 r
b1111110000000100 D
b1111110000000100 t
b11111110 @
b10000110110001101 %
b10000110110001101 y
b1111110000000100 L
b1111110000000100 w
b0 /
12
14
b100011 9
b1 E
b1 o
b0 A
b0 ,
b10000 <
b100000001000011111111111111100 0
b11 Q
b100 n
b100 q
b1111110000000100 T
bx c
b0 m
b0 l
b0 O
b11111111111111111111111111111100 S
b11111111111111111111111111111100 $
1d
0U
b100000 R
b100000 x
b1100000100000 j
b1111110000000100 a
b1000110001001 `
b10001100001001000000000000000000 W
b1100 _
b1100 ;
b1100 ^
1e
b11 b
b100 i
b11 h
0f
1+
#140000
b1111110000000100 @
b1111110000000100 ?
b1111110000000100 s
0+
#145000
b11111111111111111111111111111100 I
b110000100 @
b0 8
b110000100 %
b110000100 y
b110000100 K
b110000100 v
0M
b110000100 ?
b110000100 s
b0 L
b0 w
b11111111111111111111111111111100 D
b11111111111111111111111111111100 t
03
b100 Q
b10100 <
b100001000010000000011000 0
b1111111111111100 /
02
04
1!
b1000 9
b1 G
b1 p
b11111 A
b11111 H
b111100 ,
0d
1U
b0 j
b110000100 `
b11 m
b1111110000000100 l
b1111110000000100 O
b10000110110001101 S
b10000110110001101 $
b0 n
b0 q
b11111111111111111111111111111100 T
0g
0u
1f
1X
b0 b
b1 h
b10000 ^
b10000 _
b0 ;
b100000001000011111111111111100 W
1+
#150000
0+
#155000
b11000 #
1C
b10000000011000 I
b110000100 >
b110000100 @
b1111100111110000 8
b110000000 %
b110000000 y
b110000100 P
1"
b1111110000000100 =
b1111110000000100 r
b1111110000000100 ?
b1111110000000100 s
17
b10000110110001101 D
b10000110110001101 t
b11010 B
b11111111111111111111111111111100 L
b11111111111111111111111111111100 w
b10000000011000 /
0!
b0 9
b100 E
b100 o
b100 G
b100 p
b100 A
b0 H
b11000 ,
b11000 <
b10100001000001111111111111100 0
b1 Q
b11 n
b11 q
b10000110110001101 T
b100 m
1Y
b110000100 S
b110000100 $
b11111111111111111111111111111100 j
b110000100 a
b100001000010000000011000 W
b10100 _
b1000000001110100 ;
b10100 ^
0X
b11111 b
b1 i
1g
1u
1+
#160000
0+
#165000
0C
1*
b111100 #
b10 .
b11010 K
b11010 v
b11010 P
b11111111111111111111111111111100 I
b1010100100 8
0"
1(
b110000100 =
b110000100 r
b0 ?
b0 s
07
b11010 %
b11010 y
b11010 L
b11010 w
b110000000 >
b0 @
b10 B
b11010 D
b11010 t
b100 Q
b11100 <
b11001000001100000100000 0
b1111111111111100 /
1'
b101 9
b1 E
b1 o
b0 G
b0 p
b11111 A
b11111 H
b111100 ,
1d
0U
b11000 R
b11000 x
b10000000011000 j
1]
b1 m
b110000100 l
b110000100 O
0Y
b110000000 S
b110000000 $
b100 n
b100 q
1Z
b110000100 T
b11010 c
b100 b
b100 i
b100 h
b11000 ^
b11000 _
b1000 ;
b10100001000001111111111111100 W
1+
#170000
0+
#175000
1C
b11111111111111111111111111111100 %
b11111111111111111111111111111100 y
b100000 #
b101 .
b1010100100 @
1"
b110000000 K
b110000000 v
b1100000100000 I
0*
b11010 ?
b11010 s
b0 P
b1111101000000000 8
0(
b10000110110001101 =
b10000110110001101 r
b110000000 D
b110000000 t
b10000110110001101 >
bx B
b11111111111111111111111111111100 L
b11111111111111111111111111111100 w
b1100000100000 /
0'
b0 9
b11 E
b11 o
b100 G
b100 p
b11 A
b0 H
b100000 ,
b1100 <
b10001100001001000000000000000000 0
b0 Q
b1 n
b1 q
0Z
b110000000 T
b10 c
b100 m
b11010 l
b11010 O
b1010100100 S
b1010100100 $
0d
1U
b111100 R
b111100 x
b11111111111111111111111111111100 j
b0 a
b110000000 `
0]
b11001000001100000100000 W
b11100 _
b110000010011100 ;
b1000 ^
0e
b11111 b
b0 i
b1 h
1+
#180000
0+
#185000
b10000110110001101 K
b10000110110001101 v
b0 I
b110000000 >
b1100100001010100 8
b1010100100 P
0"
b110000000 =
b110000000 r
b10001000000110001 %
b10001000000110001 y
b1010100100 L
b1010100100 w
b11010 @
b1010100100 D
b1010100100 t
b11 Q
b10000 <
b100000001000011111111111111100 0
b0 /
12
14
b100011 9
b1 E
b1 o
b0 A
b0 ,
1d
0U
b100000 R
b100000 x
b1100000100000 j
b1010100100 a
b10000110110001101 `
b0 m
b0 l
b0 O
b11111111111111111111111111111100 S
b11111111111111111111111111111100 $
b100 n
b100 q
b1010100100 T
bx c
0f
1e
b11 b
b100 i
b11 h
b1100 ^
b1100 _
b1100 ;
b10001100001001000000000000000000 W
1+
#190000
b1010100100 @
b1010100100 ?
b1010100100 s
0+
#195000
b11111111111111111111111111111100 I
b110000000 @
b0 8
b110000000 %
b110000000 y
b110000000 K
b110000000 v
b110000000 ?
b110000000 s
0M
b11111111111111111111111111111100 D
b11111111111111111111111111111100 t
b0 L
b0 w
b1111111111111100 /
02
04
1!
b1000 9
b1 G
b1 p
b11111 A
b11111 H
b111100 ,
b10100 <
b100001000010000000011000 0
03
b100 Q
b0 n
b0 q
b11111111111111111111111111111100 T
b11 m
b1010100100 l
b1010100100 O
b10001000000110001 S
b10001000000110001 $
0d
1U
b0 j
b110000000 `
b100000001000011111111111111100 W
b10000 _
b0 ;
b10000 ^
1X
b0 b
b1 h
1f
0g
0u
1+
#200000
0+
#205000
b11000 #
1C
b10000000011000 I
b110000000 >
b110000000 @
b1111101000000000 8
b101111100 %
b101111100 y
b110000000 P
1"
b1010100100 =
b1010100100 r
b1010100100 ?
b1010100100 s
17
b11111111111111111111111111111100 L
b11111111111111111111111111111100 w
b10 B
b10001000000110001 D
b10001000000110001 t
b1 Q
b11000 <
b10100001000001111111111111100 0
b10000000011000 /
0!
b0 9
b100 E
b100 o
b100 G
b100 p
b100 A
b0 H
b11000 ,
b11111111111111111111111111111100 j
b110000000 a
b100 m
1Y
b110000000 S
b110000000 $
b11 n
b11 q
b10001000000110001 T
1g
1u
0X
b11111 b
b1 i
b10100 ^
b10100 _
b1000000001110100 ;
b100001000010000000011000 W
1+
#210000
0+
#215000
0C
1*
b111100 #
b1 .
b10 K
b10 v
b10 P
b11111111111111111111111111111100 I
b100 8
0"
1(
b110000000 =
b110000000 r
b0 ?
b0 s
07
b10 D
b10 t
b101111100 >
b0 @
b1011100 B
b10 %
b10 y
b10 L
b10 w
b1111111111111100 /
1'
b101 9
b1 E
b1 o
b0 G
b0 p
b11111 A
b11111 H
b111100 ,
b11100 <
b11001000001100000100000 0
b100 Q
b100 n
b100 q
1Z
b110000000 T
b10 c
b1 m
b110000000 l
b110000000 O
0Y
b101111100 S
b101111100 $
1d
0U
b11000 R
b11000 x
b10000000011000 j
1]
b10100001000001111111111111100 W
b11000 _
b1000 ;
b11000 ^
b100 b
b100 i
b100 h
1+
#220000
0+
#225000
1C
b11111111111111111111111111111100 %
b11111111111111111111111111111100 y
b100000 #
b101 .
b100 @
1"
b101111100 K
b101111100 v
b0 P
b1100000100000 I
0*
b10 ?
b10 s
b1111101000010000 8
0(
b10001000000110001 =
b10001000000110001 r
b11111111111111111111111111111100 L
b11111111111111111111111111111100 w
b10001000000110001 >
b11000110 B
b101111100 D
b101111100 t
b0 Q
b1100 <
b10001100001001000000000000000000 0
b1100000100000 /
0'
b0 9
b11 E
b11 o
b100 G
b100 p
b11 A
b0 H
b100000 ,
0d
1U
b111100 R
b111100 x
b11111111111111111111111111111100 j
b0 a
b101111100 `
0]
b100 m
b10 l
b10 O
b100 S
b100 $
b1 n
b1 q
0Z
b101111100 T
b1011100 c
0e
b11111 b
b0 i
b1 h
b1000 ^
b11100 _
b110000010011100 ;
b11001000001100000100000 W
1+
#230000
0+
#235000
b0 I
b101111100 >
b10001000000110001 K
b10001000000110001 v
b100000011000100 8
b100 P
0"
b101111100 =
b101111100 r
b100 D
b100 t
b10 @
bx B
b10001000000110101 %
b10001000000110101 y
b100 L
b100 w
b0 /
12
14
b100011 9
b1 E
b1 o
b0 A
b0 ,
b10000 <
b100000001000011111111111111100 0
b11 Q
b100 n
b100 q
b100 T
b11000110 c
b0 m
b0 l
b0 O
b11111111111111111111111111111100 S
b11111111111111111111111111111100 $
1d
0U
b100000 R
b100000 x
b1100000100000 j
b100 a
b10001000000110001 `
b10001100001001000000000000000000 W
b1100 _
b1100 ;
b1100 ^
1e
b11 b
b100 i
b11 h
0f
1+
#240000
b100 @
b100 ?
b100 s
0+
#245000
b11111111111111111111111111111100 I
b101111100 @
b0 8
b101111100 %
b101111100 y
b101111100 K
b101111100 v
0M
b101111100 ?
b101111100 s
b0 L
b0 w
b11111111111111111111111111111100 D
b11111111111111111111111111111100 t
03
b100 Q
b10100 <
b100001000010000000011000 0
b1111111111111100 /
02
04
1!
b1000 9
b1 G
b1 p
b11111 A
b11111 H
b111100 ,
0d
1U
b0 j
b101111100 `
b11 m
b100 l
b100 O
b10001000000110101 S
b10001000000110101 $
b0 n
b0 q
b11111111111111111111111111111100 T
bx c
0g
0u
1f
1X
b0 b
b1 h
b10000 ^
b10000 _
b0 ;
b100000001000011111111111111100 W
1+
#250000
0+
#255000
b11000 #
1C
b10000000011000 I
b101111100 >
b101111100 @
b1111101000010000 8
b101111000 %
b101111000 y
b101111100 P
1"
b100 =
b100 r
b100 ?
b100 s
17
b10001000000110101 D
b10001000000110101 t
b1011100 B
b11111111111111111111111111111100 L
b11111111111111111111111111111100 w
b10000000011000 /
0!
b0 9
b100 E
b100 o
b100 G
b100 p
b100 A
b0 H
b11000 ,
b11000 <
b10100001000001111111111111100 0
b1 Q
b11 n
b11 q
b10001000000110101 T
b100 m
1Y
b101111100 S
b101111100 $
b11111111111111111111111111111100 j
b101111100 a
b100001000010000000011000 W
b10100 _
b1000000001110100 ;
b10100 ^
0X
b11111 b
b1 i
1g
1u
1+
#260000
0+
#265000
0C
1*
b111100 #
b1011100 K
b1011100 v
b1011100 P
b11111111111111111111111111111100 I
b10000100010000 8
0"
1(
b101111100 =
b101111100 r
b0 ?
b0 s
07
b1011100 %
b1011100 y
b1011100 L
b1011100 w
b101111000 >
b0 @
b11011011 B
b1011100 D
b1011100 t
b100 Q
b11100 <
b11001000001100000100000 0
b1111111111111100 /
1'
b101 9
b1 E
b1 o
b0 G
b0 p
b11111 A
b11111 H
b111100 ,
1d
0U
b11000 R
b11000 x
b10000000011000 j
1]
b1 m
b101111100 l
b101111100 O
0Y
b101111000 S
b101111000 $
b100 n
b100 q
1Z
b101111100 T
b1011100 c
b100 b
b100 i
b100 h
b11000 ^
b11000 _
b1000 ;
b10100001000001111111111111100 W
1+
#270000
0+
#275000
1C
b11111111111111111111111111111100 %
b11111111111111111111111111111100 y
b100000 #
b10000100010000 @
1"
b101111000 K
b101111000 v
b1100000100000 I
0*
b1011100 ?
b1011100 s
b0 P
b1111101000100000 8
0(
b10001000000110101 =
b10001000000110101 r
b101111000 D
b101111000 t
b10001000000110101 >
bx B
b11111111111111111111111111111100 L
b11111111111111111111111111111100 w
b1100000100000 /
0'
b0 9
b11 E
b11 o
b100 G
b100 p
b11 A
b0 H
b100000 ,
b1100 <
b10001100001001000000000000000000 0
b0 Q
b1 n
b1 q
0Z
b101111000 T
b11011011 c
b100 m
b1011100 l
b1011100 O
b10000100010000 S
b10000100010000 $
0d
1U
b111100 R
b111100 x
b11111111111111111111111111111100 j
b0 a
b101111000 `
0]
b11001000001100000100000 W
b11100 _
b110000010011100 ;
b1000 ^
0e
b11111 b
b0 i
b1 h
1+
#280000
0+
#285000
b10001000000110101 K
b10001000000110101 v
b0 I
b101111000 >
b1101100001010000 8
b10000100010000 P
0"
b101111000 =
b101111000 r
b10011000101000101 %
b10011000101000101 y
b10000100010000 L
b10000100010000 w
b1011100 @
b10000100010000 D
b10000100010000 t
b11 Q
b10000 <
b100000001000011111111111111100 0
b0 /
12
14
b100011 9
b1 E
b1 o
b0 A
b0 ,
1d
0U
b100000 R
b100000 x
b1100000100000 j
b10000100010000 a
b10001000000110101 `
b0 m
b0 l
b0 O
b11111111111111111111111111111100 S
b11111111111111111111111111111100 $
b100 n
b100 q
b10000100010000 T
bx c
0f
1e
b11 b
b100 i
b11 h
b1100 ^
b1100 _
b1100 ;
b10001100001001000000000000000000 W
1+
#290000
b10000100010000 @
b10000100010000 ?
b10000100010000 s
0+
#295000
b11111111111111111111111111111100 I
b101111000 @
b0 8
b101111000 %
b101111000 y
b101111000 K
b101111000 v
b101111000 ?
b101111000 s
0M
b11111111111111111111111111111100 D
b11111111111111111111111111111100 t
b0 L
b0 w
b1111111111111100 /
02
04
1!
b1000 9
b1 G
b1 p
b11111 A
b11111 H
b111100 ,
b10100 <
b100001000010000000011000 0
03
b100 Q
b0 n
b0 q
b11111111111111111111111111111100 T
b11 m
b10000100010000 l
b10000100010000 O
b10011000101000101 S
b10011000101000101 $
0d
1U
b0 j
b101111000 `
b100000001000011111111111111100 W
b10000 _
b0 ;
b10000 ^
1X
b0 b
b1 h
1f
0g
0u
1+
#300000
0+
#305000
b11000 #
1C
b10000000011000 I
b101111000 >
b101111000 @
b1111101000100000 8
b101110100 %
b101110100 y
b101111000 P
1"
b10000100010000 =
b10000100010000 r
b10000100010000 ?
b10000100010000 s
17
b11111111111111111111111111111100 L
b11111111111111111111111111111100 w
b11011011 B
b10011000101000101 D
b10011000101000101 t
b1 Q
b11000 <
b10100001000001111111111111100 0
b10000000011000 /
0!
b0 9
b100 E
b100 o
b100 G
b100 p
b100 A
b0 H
b11000 ,
b11111111111111111111111111111100 j
b101111000 a
b100 m
1Y
b101111000 S
b101111000 $
b11 n
b11 q
b10011000101000101 T
1g
1u
0X
b11111 b
b1 i
b10100 ^
b10100 _
b1000000001110100 ;
b100001000010000000011000 W
1+
#310000
0+
#315000
0C
1*
b111100 #
b11011011 K
b11011011 v
b11011011 P
b11111111111111111111111111111100 I
b1011101101011001 8
0"
1(
b101111000 =
b101111000 r
b0 ?
b0 s
07
b11011011 D
b11011011 t
b101110100 >
b0 @
b11000 B
b11011011 %
b11011011 y
b11011011 L
b11011011 w
b1111111111111100 /
1'
b101 9
b1 E
b1 o
b0 G
b0 p
b11111 A
b11111 H
b111100 ,
b11100 <
b11001000001100000100000 0
b100 Q
b100 n
b100 q
1Z
b101111000 T
b11011011 c
b1 m
b101111000 l
b101111000 O
0Y
b101110100 S
b101110100 $
1d
0U
b11000 R
b11000 x
b10000000011000 j
1]
b10100001000001111111111111100 W
b11000 _
b1000 ;
b11000 ^
b100 b
b100 i
b100 h
1+
#320000
0+
#325000
1C
b11111111111111111111111111111100 %
b11111111111111111111111111111100 y
b100000 #
b1011101101011001 @
1"
b101110100 K
b101110100 v
b0 P
b1100000100000 I
0*
b11011011 ?
b11011011 s
b1111101000110000 8
0(
b10011000101000101 =
b10011000101000101 r
b11111111111111111111111111111100 L
b11111111111111111111111111111100 w
b10011000101000101 >
bx B
b101110100 D
b101110100 t
b0 Q
b1100 <
b10001100001001000000000000000000 0
b1100000100000 /
0'
b0 9
b11 E
b11 o
b100 G
b100 p
b11 A
b0 H
b100000 ,
0d
1U
b111100 R
b111100 x
b11111111111111111111111111111100 j
b0 a
b101110100 `
0]
b100 m
b11011011 l
b11011011 O
b1011101101011001 S
b1011101101011001 $
b1 n
b1 q
0Z
b101110100 T
b11000 c
0e
b11111 b
b0 i
b1 h
b1000 ^
b11100 _
b110000010011100 ;
b11001000001100000100000 W
1+
#330000
0+
#335000
b0 I
b101110100 >
b10011000101000101 K
b10011000101000101 v
b1000011111111101 8
b1011101101011001 P
0"
b101110100 =
b101110100 r
b1011101101011001 D
b1011101101011001 t
b11011011 @
b11110110010011110 %
b11110110010011110 y
b1011101101011001 L
b1011101101011001 w
b0 /
12
14
b100011 9
b1 E
b1 o
b0 A
b0 ,
b10000 <
b100000001000011111111111111100 0
b11 Q
b100 n
b100 q
b1011101101011001 T
bx c
b0 m
b0 l
b0 O
b11111111111111111111111111111100 S
b11111111111111111111111111111100 $
1d
0U
b100000 R
b100000 x
b1100000100000 j
b1011101101011001 a
b10011000101000101 `
b10001100001001000000000000000000 W
b1100 _
b1100 ;
b1100 ^
1e
b11 b
b100 i
b11 h
0f
1+
#340000
b1011101101011001 @
b1011101101011001 ?
b1011101101011001 s
0+
#345000
b11111111111111111111111111111100 I
b101110100 @
b0 8
b101110100 %
b101110100 y
b101110100 K
b101110100 v
0M
b101110100 ?
b101110100 s
b0 L
b0 w
b11111111111111111111111111111100 D
b11111111111111111111111111111100 t
03
b100 Q
b10100 <
b100001000010000000011000 0
b1111111111111100 /
02
04
1!
b1000 9
b1 G
b1 p
b11111 A
b11111 H
b111100 ,
0d
1U
b0 j
b101110100 `
b11 m
b1011101101011001 l
b1011101101011001 O
b11110110010011110 S
b11110110010011110 $
b0 n
b0 q
b11111111111111111111111111111100 T
0g
0u
1f
1X
b0 b
b1 h
b10000 ^
b10000 _
b0 ;
b100000001000011111111111111100 W
1+
#350000
0+
