prog_norm/mipse.vcd
$date
	Mon Aug  1 22:19:21 2016
$end
$version
	Icarus Verilog
$end
$timescale
	1ps
$end
$scope module test_mipse $end
$scope module mipse_1 $end
$var wire 1 ! addi_opD $end
$var wire 1 " alu_opD $end
$var wire 6 # alucomD [5:0] $end
$var wire 32 $ aluout [31:0] $end
$var wire 32 % aluoutE [31:0] $end
$var wire 1 & beq_opD $end
$var wire 1 ' bne_opD $end
$var wire 1 ( branchD $end
$var wire 1 ) branchstall $end
$var wire 1 * btakenD $end
$var wire 1 + clk $end
$var wire 6 , funcD [5:0] $end
$var wire 16 - immD [15:0] $end
$var wire 32 . instr [31:0] $end
$var wire 1 / lui_opD $end
$var wire 1 0 lw_opD $end
$var wire 1 1 lwstall $end
$var wire 1 2 memtoregD $end
$var wire 1 3 memwrite $end
$var wire 1 4 memwriteD $end
$var wire 6 5 opcodeD [5:0] $end
$var wire 1 6 ori_opD $end
$var wire 32 7 pcbranchD [31:0] $end
$var wire 32 8 pcplus4F [31:0] $end
$var wire 32 9 rd1D [31:0] $end
$var wire 32 : rd1fD [31:0] $end
$var wire 32 ; rd2D [31:0] $end
$var wire 32 < rd2fD [31:0] $end
$var wire 5 = rdD [4:0] $end
$var wire 32 > readdata [31:0] $end
$var wire 1 ? regwriteD $end
$var wire 32 @ resultW [31:0] $end
$var wire 5 A rsD [4:0] $end
$var wire 1 B rst_n $end
$var wire 5 C rtD [4:0] $end
$var wire 5 D shamtD [4:0] $end
$var wire 32 E signimmD [31:0] $end
$var wire 1 F slti_opD $end
$var wire 32 G srcaE [31:0] $end
$var wire 32 H srcbE [31:0] $end
$var wire 1 I stall $end
$var wire 1 J sw_opD $end
$var wire 32 K writedata [31:0] $end
$var wire 32 L writedataE [31:0] $end
$var wire 5 M writeregE [4:0] $end
$var reg 6 N alucomE [5:0] $end
$var reg 32 O aluoutM [31:0] $end
$var reg 32 P aluoutW [31:0] $end
$var reg 1 Q alusrcE $end
$var reg 32 R instrD [31:0] $end
$var reg 1 S memtoregE $end
$var reg 1 T memtoregM $end
$var reg 1 U memtoregW $end
$var reg 1 V memwriteE $end
$var reg 1 W memwriteM $end
$var reg 32 X pc [31:0] $end
$var reg 32 Y pcplus4D [31:0] $end
$var reg 32 Z rd1E [31:0] $end
$var reg 32 [ rd2E [31:0] $end
$var reg 5 \ rdE [4:0] $end
$var reg 32 ] readdataW [31:0] $end
$var reg 1 ^ regdstE $end
$var reg 1 _ regwriteE $end
$var reg 1 ` regwriteM $end
$var reg 1 a regwriteW $end
$var reg 5 b rsE [4:0] $end
$var reg 5 c rtE [4:0] $end
$var reg 32 d signimmE [31:0] $end
$var reg 1 e slti_opE $end
$var reg 32 f writedataM [31:0] $end
$var reg 5 g writeregM [4:0] $end
$var reg 5 h writeregW [4:0] $end
$scope module rfile_1 $end
$var wire 5 i a1 [4:0] $end
$var wire 5 j a2 [4:0] $end
$var wire 5 k a3 [4:0] $end
$var wire 1 + clk $end
$var wire 32 l rd1 [31:0] $end
$var wire 32 m rd2 [31:0] $end
$var wire 32 n wd3 [31:0] $end
$var wire 1 o we3 $end
$upscope $end
$scope module alu_1 $end
$var wire 32 p a [31:0] $end
$var wire 32 q b [31:0] $end
$var wire 6 r s [5:0] $end
$var wire 32 s y [31:0] $end
$var wire 1 t zero $end
$upscope $end
$upscope $end
$upscope $end
$enddefinitions $end
#0
$dumpvars
xt
bx s
bx r
bx q
bx p
0o
bx n
b0 m
b0 l
bx k
b0 j
b0 i
bx h
bx g
bx f
xe
bx d
b0 c
b0 b
0a
0`
0_
x^
bx ]
b0 \
bx [
bx Z
b0 Y
b0 X
0W
0V
xU
xT
0S
b0 R
xQ
bx P
bx O
bx N
b0 M
bx L
bx K
0J
0I
bx H
bx G
0F
b0 E
b0 D
b0 C
0B
b0 A
bx @
0?
bx >
b0 =
b0 <
b0 ;
b0 :
b0 9
b100 8
b0 7
06
b0 5
04
03
02
01
00
0/
b100000100000 .
b0 -
b0 ,
0+
0*
0)
0(
0'
0&
bx %
bx $
b0 #
0"
0!
$end
#5000
b0 L
b0 G
b0 p
1t
b0 %
b0 s
b0 H
b0 q
0^
1Q
b0 N
b0 r
b0 d
b0 [
b0 Z
0e
b0 g
0T
1+
#10000
0+
#12000
1B
#15000
1?
b100000 #
1"
b100000100000 E
b1100111 >
b100000100000 -
b1 =
b100000 ,
b1000 8
b100000000000100000000001100100 .
b0 h
b0 k
0U
b0 f
b0 K
b0 O
b0 $
b100000100000 R
b100 Y
b10000010000100 7
b100 X
1+
#20000
0+
#25000
bx <
b1100100 E
bx ;
bx m
0"
b1 M
b0 @
b0 n
b1100 8
b1100000100000 .
b1100100 -
1!
b1000 5
b10 C
b10 j
b0 =
b1 D
b100100 ,
1^
0Q
b100000 N
b100000 r
b100000100000 d
b0 P
b1100111 ]
1_
b1 \
b1000 X
b1000 Y
b110011000 7
b100000000000100000000001100100 R
1+
#30000
0+
#35000
1?
b0 <
b1100000100000 E
b0 ;
b0 m
0t
b1100100 %
b1100100 s
bx L
1"
b1100100 H
b1100100 q
b1100000100000 -
0!
b0 5
b0 C
b0 j
b11 =
b0 D
b100000 ,
b10000 8
b10001100001001000000000000000000 .
b10 M
b1 g
0^
1Q
b1100100 d
bx [
b1100000100000 R
b1100 Y
b110000010001100 7
b1100 X
b0 \
b10 c
1`
1+
#40000
0+
#45000
bx :
bx <
b0 E
bx 9
bx l
bx ;
bx m
1t
b0 %
b0 s
b0 L
0"
b0 H
b0 q
b1011010 >
b11 M
b10100 8
b100000010000101111111111111111 .
b0 -
10
12
b100011 5
b1 A
b1 i
b100 C
b100 j
b0 =
b0 ,
1^
0Q
b1100000100000 d
b0 [
b10 g
bx f
bx K
b1100100 O
b1100100 $
b1 h
b1 k
1a
1o
b11 \
b0 c
b10000 X
b10000 Y
b10000 7
b10001100001001000000000000000000 R
1+
#50000
b0 :
b0 9
b0 l
0+
#55000
b11111111111111111111111111111111 E
bx :
bx L
bx 9
bx l
0I
b1100100 @
b1100100 n
b1100111 >
b1111111111111111 -
00
02
1!
b1000 5
b10 A
b10 i
b10 C
b10 j
b11111 =
b11111 D
b111111 ,
b11000 8
b100001000010000000011000 .
01
b100 M
b10 h
b10 k
b1100100 P
b1011010 ]
b11 g
b0 f
b0 K
b0 O
b0 $
0^
1Q
b0 d
bx [
b100000010000101111111111111111 R
b10100 Y
b10000 7
b10100 X
1S
b0 \
b100 c
b1 b
1+
#60000
b1100100 :
b1100100 <
b1100100 9
b1100100 l
b1100100 ;
b1100100 m
0+
#65000
1?
b11000 #
b10000000011000 E
b0 :
b0 <
0t
b1100011 %
b1100011 s
b1100100 L
b1100100 G
b1100100 p
1"
bx 9
bx l
bx ;
bx m
b11111111111111111111111111111111 H
b11111111111111111111111111111111 q
b0 @
b0 n
b10 M
b11100 8
b100000001000010000000000000100 .
b10000000011000 -
0!
b0 5
b100 A
b100 i
b100 C
b100 j
b100 =
b0 D
b11000 ,
b11111111111111111111111111111111 d
b1100100 [
b1100100 Z
b100 g
bx f
bx K
1T
b11 h
b11 k
b0 P
b1100111 ]
0S
b11111 \
b10 c
b10 b
b11000 X
b11000 Y
b1000000001111000 7
b100001000010000000011000 R
1+
#70000
0+
#75000
0t
b100000 #
b100 E
b1100111 L
b1100111 G
b1100111 p
0"
b0 9
b0 l
b0 ;
b0 m
b1100111 @
b1100111 n
b0 :
b0 <
b1110110 >
b10100101110001 %
b10100101110001 s
b1100111 H
b1100111 q
b100 -
1!
b1000 5
b1 A
b1 i
b1 C
b1 j
b0 =
b100 ,
b100000 8
b10100010000001111111111111011 .
b100 M
b100 h
b100 k
1U
b10 g
b1100100 f
b1100100 K
0T
b1100011 O
b1100011 $
1^
0Q
b11000 N
b11000 r
b10000000011000 d
b0 [
b0 Z
b100000001000010000000000000100 R
b11100 Y
b101100 7
b11100 X
b100 \
b100 c
b100 b
1+
#80000
0+
#85000
1*
0?
b111011 #
b0 L
b0 G
b0 p
b11111111111111111111111111111011 E
b1100100 :
b0 <
1(
b1100100 9
b1100100 l
b0 ;
b0 m
b100 H
b100 q
b100 %
b100 s
bx >
b1100011 @
b1100011 n
b1 M
b100100 8
b11001000001100000100000 .
b1111111111111011 -
0!
1'
b101 5
b10 A
b10 i
b0 C
b0 j
b11111 =
b11111 D
b111011 ,
0^
1Q
b100000 N
b100000 r
b100 d
b100 g
b1100111 f
b1100111 K
b10100101110001 O
b10100101110001 $
b10 h
b10 k
0U
b1100011 P
b1110110 ]
b0 \
b1 c
b1 b
b100000 X
b100000 Y
b1100 7
b10100010000001111111111111011 R
1+
#90000
b1100011 :
b1100011 9
b1100011 l
0+
#95000
1?
b11111111111111111111111111111011 %
b11111111111111111111111111111011 s
b100000 #
b1100111 <
1"
b1100000100000 E
0*
b0 :
b1100111 ;
b1100111 m
b1100011 G
b1100011 p
0(
b0 9
b0 l
b10100101110001 @
b10100101110001 n
b11000110 >
b11111111111111111111111111111011 H
b11111111111111111111111111111011 q
b1100000100000 -
0'
b0 5
b11 A
b11 i
b100 C
b100 j
b11 =
b0 D
b100000 ,
b10000 8
b10001100001001000000000000000000 .
b0 M
b100 h
b100 k
b10100101110001 P
bx ]
b1 g
b0 f
b0 K
b100 O
b100 $
b111011 N
b111011 r
b11111111111111111111111111111011 d
b1100011 Z
b11001000001100000100000 R
b100100 Y
b110000010100100 7
b1100 X
0_
b11111 \
b0 c
b10 b
1+
#100000
b10100101110001 <
b10100101110001 ;
b10100101110001 m
0+
#105000
0t
b0 E
b10100101110001 L
b0 G
b0 p
0"
b10100101110001 %
b10100101110001 s
b10100101110001 H
b10100101110001 q
bx >
b100 @
b100 n
b11 M
b10100 8
b100000010000101111111111111111 .
b0 -
10
12
b100011 5
b1 A
b1 i
b0 =
b0 ,
1^
0Q
b100000 N
b100000 r
b1100000100000 d
b10100101110001 [
b0 Z
b0 g
b11111111111111111111111111111011 O
b11111111111111111111111111111011 $
b1 h
b1 k
b100 P
b11000110 ]
0`
1_
b11 \
b100 c
b11 b
b10000 X
b10000 Y
b10000 7
b10001100001001000000000000000000 R
1+
#110000
b100 :
b100 9
b100 l
0+
#115000
b11111111111111111111111111111111 E
b1100011 :
b1100011 <
b100 %
b100 s
b100 G
b100 p
b1100011 9
b1100011 l
b1100011 ;
b1100011 m
0I
b11111111111111111111111111111011 @
b11111111111111111111111111111011 n
b0 H
b0 q
b1111111111111111 -
00
02
1!
b1000 5
b10 A
b10 i
b10 C
b10 j
b11111 =
b11111 D
b111111 ,
b11000 8
b100001000010000000011000 .
01
b100 M
b0 h
b0 k
b11111111111111111111111111111011 P
bx ]
b11 g
b10100101110001 f
b10100101110001 K
b10100101110001 O
b10100101110001 $
0^
1Q
b0 d
b100 Z
b100000010000101111111111111111 R
b10100 Y
b10000 7
b10100 X
1S
b0 \
b1 b
1`
0a
0o
1+
#120000
0+
#125000
1?
b11000 #
b10000000011000 E
b100 :
b100 <
b1100010 %
b1100010 s
b1100011 L
b1100011 G
b1100011 p
1"
b10100101110001 9
b10100101110001 l
b10100101110001 ;
b10100101110001 m
b11111111111111111111111111111111 H
b11111111111111111111111111111111 q
b11000110 >
b10100101110001 @
b10100101110001 n
b10 M
b11100 8
b100000001000010000000000000100 .
b10000000011000 -
0!
b0 5
b100 A
b100 i
b100 C
b100 j
b100 =
b0 D
b11000 ,
b11111111111111111111111111111111 d
b1100011 [
b1100011 Z
b100 g
1T
b100 O
b100 $
b11 h
b11 k
b10100101110001 P
1a
1o
0S
b11111 \
b10 c
b10 b
b11000 X
b11000 Y
b1000000001111000 7
b100001000010000000011000 R
1+
#130000
0+
#135000
b100000 #
b100 E
b11000110 L
b11000110 G
b11000110 p
0"
b100 9
b100 l
b100 ;
b100 m
b11000110 @
b11000110 n
b100 :
b100 <
b1110110 >
b1001100100100100 %
b1001100100100100 s
b11000110 H
b11000110 q
b100 -
1!
b1000 5
b1 A
b1 i
b1 C
b1 j
b0 =
b100 ,
b100000 8
b10100010000001111111111111011 .
b100 M
b100 h
b100 k
1U
b100 P
b11000110 ]
b10 g
b1100011 f
b1100011 K
0T
b1100010 O
b1100010 $
1^
0Q
b11000 N
b11000 r
b10000000011000 d
b100 [
b100 Z
b100000001000010000000000000100 R
b11100 Y
b101100 7
b11100 X
b100 \
b100 c
b100 b
1+
#140000
0+
#145000
1*
0?
b111011 #
b100 L
b100 G
b100 p
b11111111111111111111111111111011 E
b1100011 :
b0 <
1(
b1100011 9
b1100011 l
b0 ;
b0 m
b100 H
b100 q
b1000 %
b1000 s
bx >
b1100010 @
b1100010 n
b1 M
b100100 8
b11001000001100000100000 .
b1111111111111011 -
0!
1'
b101 5
b10 A
b10 i
b0 C
b0 j
b11111 =
b11111 D
b111011 ,
0^
1Q
b100000 N
b100000 r
b100 d
b100 g
b11000110 f
b11000110 K
b1001100100100100 O
b1001100100100100 $
b10 h
b10 k
0U
b1100010 P
b1110110 ]
b0 \
b1 c
b1 b
b100000 X
b100000 Y
b1100 7
b10100010000001111111111111011 R
1+
#150000
b1100010 :
b1100010 9
b1100010 l
0+
#155000
1?
b100000 #
b11000110 <
1"
b1100000100000 E
0*
b10100101110001 :
b11000110 ;
b11000110 m
b0 L
b1100010 G
b1100010 p
0(
b10100101110001 9
b10100101110001 l
b1001100100100100 @
b1001100100100100 n
b1101001 >
b11111111111111111111111111111011 %
b11111111111111111111111111111011 s
b11111111111111111111111111111011 H
b11111111111111111111111111111011 q
b1100000100000 -
0'
b0 5
b11 A
b11 i
b100 C
b100 j
b11 =
b0 D
b100000 ,
b10000 8
b10001100001001000000000000000000 .
b0 M
b100 h
b100 k
b1001100100100100 P
bx ]
b1 g
b100 f
b100 K
b1000 O
b1000 $
b111011 N
b111011 r
b11111111111111111111111111111011 d
b0 [
b1100010 Z
b11001000001100000100000 R
b100100 Y
b110000010100100 7
b1100 X
0_
b11111 \
b0 c
b10 b
1+
#160000
b1001100100100100 <
b1001100100100100 ;
b1001100100100100 m
0+
#165000
b0 E
b100 :
b1001100100100100 L
b10100101110001 G
b10100101110001 p
0"
b100 9
b100 l
b1100001010010101 %
b1100001010010101 s
b1001100100100100 H
b1001100100100100 q
bx >
b1000 @
b1000 n
b11 M
b10100 8
b100000010000101111111111111111 .
b0 -
10
12
b100011 5
b1 A
b1 i
b0 =
b0 ,
1^
0Q
b100000 N
b100000 r
b1100000100000 d
b1001100100100100 [
b10100101110001 Z
b0 g
b0 f
b0 K
b11111111111111111111111111111011 O
b11111111111111111111111111111011 $
b1 h
b1 k
b1000 P
b1101001 ]
0`
1_
b11 \
b100 c
b11 b
b10000 X
b10000 Y
b10000 7
b10001100001001000000000000000000 R
1+
#170000
b1000 :
b1000 9
b1000 l
0+
#175000
b11111111111111111111111111111111 E
b1100010 :
b1100010 <
b1000 %
b1000 s
b1000 G
b1000 p
b1100010 9
b1100010 l
b1100010 ;
b1100010 m
0I
b11111111111111111111111111111011 @
b11111111111111111111111111111011 n
b0 H
b0 q
b1111111111111111 -
00
02
1!
b1000 5
b10 A
b10 i
b10 C
b10 j
b11111 =
b11111 D
b111111 ,
b11000 8
b100001000010000000011000 .
01
b100 M
b0 h
b0 k
b11111111111111111111111111111011 P
bx ]
b11 g
b1001100100100100 f
b1001100100100100 K
b1100001010010101 O
b1100001010010101 $
0^
1Q
b0 d
b1000 Z
b100000010000101111111111111111 R
b10100 Y
b10000 7
b10100 X
1S
b0 \
b1 b
1`
0a
0o
1+
#180000
0+
#185000
1?
b11000 #
b10000000011000 E
b1000 :
b1000 <
b1100001 %
b1100001 s
b1100010 L
b1100010 G
b1100010 p
1"
b1001100100100100 9
b1001100100100100 l
b1001100100100100 ;
b1001100100100100 m
b11111111111111111111111111111111 H
b11111111111111111111111111111111 q
b1101001 >
b1100001010010101 @
b1100001010010101 n
b10 M
b11100 8
b100000001000010000000000000100 .
b10000000011000 -
0!
b0 5
b100 A
b100 i
b100 C
b100 j
b100 =
b0 D
b11000 ,
b11111111111111111111111111111111 d
b1100010 [
b1100010 Z
b100 g
1T
b1000 O
b1000 $
b11 h
b11 k
b1100001010010101 P
1a
1o
0S
b11111 \
b10 c
b10 b
b11000 X
b11000 Y
b1000000001111000 7
b100001000010000000011000 R
1+
#190000
0+
#195000
b100000 #
b100 E
b1101001 L
b1101001 G
b1101001 p
0"
b1000 9
b1000 l
b1000 ;
b1000 m
b1101001 @
b1101001 n
b1000 :
b1000 <
b1110110 >
b10101100010001 %
b10101100010001 s
b1101001 H
b1101001 q
b100 -
1!
b1000 5
b1 A
b1 i
b1 C
b1 j
b0 =
b100 ,
b100000 8
b10100010000001111111111111011 .
b100 M
b100 h
b100 k
1U
b1000 P
b1101001 ]
b10 g
b1100010 f
b1100010 K
0T
b1100001 O
b1100001 $
1^
0Q
b11000 N
b11000 r
b10000000011000 d
b1000 [
b1000 Z
b100000001000010000000000000100 R
b11100 Y
b101100 7
b11100 X
b100 \
b100 c
b100 b
1+
#200000
0+
#205000
1*
0?
b111011 #
b1000 L
b1000 G
b1000 p
b11111111111111111111111111111011 E
b1100010 :
b0 <
1(
b1100010 9
b1100010 l
b0 ;
b0 m
b100 H
b100 q
b1100 %
b1100 s
bx >
b1100001 @
b1100001 n
b1 M
b100100 8
b11001000001100000100000 .
b1111111111111011 -
0!
1'
b101 5
b10 A
b10 i
b0 C
b0 j
b11111 =
b11111 D
b111011 ,
0^
1Q
b100000 N
b100000 r
b100 d
b100 g
b1101001 f
b1101001 K
b10101100010001 O
b10101100010001 $
b10 h
b10 k
0U
b1100001 P
b1110110 ]
b0 \
b1 c
b1 b
b100000 X
b100000 Y
b1100 7
b10100010000001111111111111011 R
1+
#210000
b1100001 :
b1100001 9
b1100001 l
0+
#215000
1?
b100000 #
b1101001 <
1"
b1100000100000 E
0*
b1100001010010101 :
b1101001 ;
b1101001 m
b0 L
b1100001 G
b1100001 p
0(
b1100001010010101 9
b1100001010010101 l
b10101100010001 @
b10101100010001 n
b1110011 >
b11111111111111111111111111111011 %
b11111111111111111111111111111011 s
b11111111111111111111111111111011 H
b11111111111111111111111111111011 q
b1100000100000 -
0'
b0 5
b11 A
b11 i
b100 C
b100 j
b11 =
b0 D
b100000 ,
b10000 8
b10001100001001000000000000000000 .
b0 M
b100 h
b100 k
b10101100010001 P
bx ]
b1 g
b1000 f
b1000 K
b1100 O
b1100 $
b111011 N
b111011 r
b11111111111111111111111111111011 d
b0 [
b1100001 Z
b11001000001100000100000 R
b100100 Y
b110000010100100 7
b1100 X
0_
b11111 \
b0 c
b10 b
1+
#220000
b10101100010001 <
b10101100010001 ;
b10101100010001 m
0+
#225000
b0 E
b1000 :
b10101100010001 L
b1100001010010101 G
b1100001010010101 p
0"
b1000 9
b1000 l
b1110110110100110 %
b1110110110100110 s
b10101100010001 H
b10101100010001 q
bx >
b1100 @
b1100 n
b11 M
b10100 8
b100000010000101111111111111111 .
b0 -
10
12
b100011 5
b1 A
b1 i
b0 =
b0 ,
1^
0Q
b100000 N
b100000 r
b1100000100000 d
b10101100010001 [
b1100001010010101 Z
b0 g
b0 f
b0 K
b11111111111111111111111111111011 O
b11111111111111111111111111111011 $
b1 h
b1 k
b1100 P
b1110011 ]
0`
1_
b11 \
b100 c
b11 b
b10000 X
b10000 Y
b10000 7
b10001100001001000000000000000000 R
1+
#230000
b1100 :
b1100 9
b1100 l
0+
#235000
b11111111111111111111111111111111 E
b1100001 :
b1100001 <
b1100 %
b1100 s
b1100 G
b1100 p
b1100001 9
b1100001 l
b1100001 ;
b1100001 m
0I
b11111111111111111111111111111011 @
b11111111111111111111111111111011 n
b0 H
b0 q
b1111111111111111 -
00
02
1!
b1000 5
b10 A
b10 i
b10 C
b10 j
b11111 =
b11111 D
b111111 ,
b11000 8
b100001000010000000011000 .
01
b100 M
b0 h
b0 k
b11111111111111111111111111111011 P
bx ]
b11 g
b10101100010001 f
b10101100010001 K
b1110110110100110 O
b1110110110100110 $
0^
1Q
b0 d
b1100 Z
b100000010000101111111111111111 R
b10100 Y
b10000 7
b10100 X
1S
b0 \
b1 b
1`
0a
0o
1+
#240000
0+
#245000
1?
b11000 #
b10000000011000 E
b1100 :
b1100 <
b1100000 %
b1100000 s
b1100001 L
b1100001 G
b1100001 p
1"
b10101100010001 9
b10101100010001 l
b10101100010001 ;
b10101100010001 m
b11111111111111111111111111111111 H
b11111111111111111111111111111111 q
b1110011 >
b1110110110100110 @
b1110110110100110 n
b10 M
b11100 8
b100000001000010000000000000100 .
b10000000011000 -
0!
b0 5
b100 A
b100 i
b100 C
b100 j
b100 =
b0 D
b11000 ,
b11111111111111111111111111111111 d
b1100001 [
b1100001 Z
b100 g
1T
b1100 O
b1100 $
b11 h
b11 k
b1110110110100110 P
1a
1o
0S
b11111 \
b10 c
b10 b
b11000 X
b11000 Y
b1000000001111000 7
b100001000010000000011000 R
1+
#250000
0+
#255000
b100000 #
b100 E
b1110011 L
b1110011 G
b1110011 p
0"
b1100 9
b1100 l
b1100 ;
b1100 m
b1110011 @
b1110011 n
b1100 :
b1100 <
b1110110 >
b11001110101001 %
b11001110101001 s
b1110011 H
b1110011 q
b100 -
1!
b1000 5
b1 A
b1 i
b1 C
b1 j
b0 =
b100 ,
b100000 8
b10100010000001111111111111011 .
b100 M
b100 h
b100 k
1U
b1100 P
b1110011 ]
b10 g
b1100001 f
b1100001 K
0T
b1100000 O
b1100000 $
1^
0Q
b11000 N
b11000 r
b10000000011000 d
b1100 [
b1100 Z
b100000001000010000000000000100 R
b11100 Y
b101100 7
b11100 X
b100 \
b100 c
b100 b
1+
#260000
0+
#265000
1*
0?
b111011 #
b1100 L
b1100 G
b1100 p
b11111111111111111111111111111011 E
b1100001 :
b0 <
1(
b1100001 9
b1100001 l
b0 ;
b0 m
b100 H
b100 q
b10000 %
b10000 s
bx >
b1100000 @
b1100000 n
b1 M
b100100 8
b11001000001100000100000 .
b1111111111111011 -
0!
1'
b101 5
b10 A
b10 i
b0 C
b0 j
b11111 =
b11111 D
b111011 ,
0^
1Q
b100000 N
b100000 r
b100 d
b100 g
b1110011 f
b1110011 K
b11001110101001 O
b11001110101001 $
b10 h
b10 k
0U
b1100000 P
b1110110 ]
b0 \
b1 c
b1 b
b100000 X
b100000 Y
b1100 7
b10100010000001111111111111011 R
1+
#270000
b1100000 :
b1100000 9
b1100000 l
0+
#275000
1?
b100000 #
b1110011 <
1"
b1100000100000 E
0*
b1110110110100110 :
b1110011 ;
b1110011 m
b0 L
b1100000 G
b1100000 p
0(
b1110110110100110 9
b1110110110100110 l
b11001110101001 @
b11001110101001 n
b1010001 >
b11111111111111111111111111111011 %
b11111111111111111111111111111011 s
b11111111111111111111111111111011 H
b11111111111111111111111111111011 q
b1100000100000 -
0'
b0 5
b11 A
b11 i
b100 C
b100 j
b11 =
b0 D
b100000 ,
b10000 8
b10001100001001000000000000000000 .
b0 M
b100 h
b100 k
b11001110101001 P
bx ]
b1 g
b1100 f
b1100 K
b10000 O
b10000 $
b111011 N
b111011 r
b11111111111111111111111111111011 d
b0 [
b1100000 Z
b11001000001100000100000 R
b100100 Y
b110000010100100 7
b1100 X
0_
b11111 \
b0 c
b10 b
1+
#280000
b11001110101001 <
b11001110101001 ;
b11001110101001 m
0+
#285000
b0 E
b1100 :
b11001110101001 L
b1110110110100110 G
b1110110110100110 p
0"
b1100 9
b1100 l
b10010000101001111 %
b10010000101001111 s
b11001110101001 H
b11001110101001 q
bx >
b10000 @
b10000 n
b11 M
b10100 8
b100000010000101111111111111111 .
b0 -
10
12
b100011 5
b1 A
b1 i
b0 =
b0 ,
1^
0Q
b100000 N
b100000 r
b1100000100000 d
b11001110101001 [
b1110110110100110 Z
b0 g
b0 f
b0 K
b11111111111111111111111111111011 O
b11111111111111111111111111111011 $
b1 h
b1 k
b10000 P
b1010001 ]
0`
1_
b11 \
b100 c
b11 b
b10000 X
b10000 Y
b10000 7
b10001100001001000000000000000000 R
1+
#290000
b10000 :
b10000 9
b10000 l
0+
#295000
b11111111111111111111111111111111 E
b1100000 :
b1100000 <
b10000 %
b10000 s
b10000 G
b10000 p
b1100000 9
b1100000 l
b1100000 ;
b1100000 m
0I
b11111111111111111111111111111011 @
b11111111111111111111111111111011 n
b0 H
b0 q
b1111111111111111 -
00
02
1!
b1000 5
b10 A
b10 i
b10 C
b10 j
b11111 =
b11111 D
b111111 ,
b11000 8
b100001000010000000011000 .
01
b100 M
b0 h
b0 k
b11111111111111111111111111111011 P
bx ]
b11 g
b11001110101001 f
b11001110101001 K
b10010000101001111 O
b10010000101001111 $
0^
1Q
b0 d
b10000 Z
b100000010000101111111111111111 R
b10100 Y
b10000 7
b10100 X
1S
b0 \
b1 b
1`
0a
0o
1+
#300000
0+
#305000
1?
b11000 #
b10000000011000 E
b10000 :
b10000 <
b1011111 %
b1011111 s
b1100000 L
b1100000 G
b1100000 p
1"
b11001110101001 9
b11001110101001 l
b11001110101001 ;
b11001110101001 m
b11111111111111111111111111111111 H
b11111111111111111111111111111111 q
b1010001 >
b10010000101001111 @
b10010000101001111 n
b10 M
b11100 8
b100000001000010000000000000100 .
b10000000011000 -
0!
b0 5
b100 A
b100 i
b100 C
b100 j
b100 =
b0 D
b11000 ,
b11111111111111111111111111111111 d
b1100000 [
b1100000 Z
b100 g
1T
b10000 O
b10000 $
b11 h
b11 k
b10010000101001111 P
1a
1o
0S
b11111 \
b10 c
b10 b
b11000 X
b11000 Y
b1000000001111000 7
b100001000010000000011000 R
1+
#310000
0+
#315000
b100000 #
b100 E
b1010001 L
b1010001 G
b1010001 p
0"
b10000 9
b10000 l
b10000 ;
b10000 m
b1010001 @
b1010001 n
b10000 :
b10000 <
b10001101 >
b1100110100001 %
b1100110100001 s
b1010001 H
b1010001 q
b100 -
1!
b1000 5
b1 A
b1 i
b1 C
b1 j
b0 =
b100 ,
b100000 8
b10100010000001111111111111011 .
b100 M
b100 h
b100 k
1U
b10000 P
b1010001 ]
b10 g
b1100000 f
b1100000 K
0T
b1011111 O
b1011111 $
1^
0Q
b11000 N
b11000 r
b10000000011000 d
b10000 [
b10000 Z
b100000001000010000000000000100 R
b11100 Y
b101100 7
b11100 X
b100 \
b100 c
b100 b
1+
#320000
0+
#325000
1*
0?
b111011 #
b10000 L
b10000 G
b10000 p
b11111111111111111111111111111011 E
b1100000 :
b0 <
1(
b1100000 9
b1100000 l
b0 ;
b0 m
b100 H
b100 q
b10100 %
b10100 s
bx >
b1011111 @
b1011111 n
b1 M
b100100 8
b11001000001100000100000 .
b1111111111111011 -
0!
1'
b101 5
b10 A
b10 i
b0 C
b0 j
b11111 =
b11111 D
b111011 ,
0^
1Q
b100000 N
b100000 r
b100 d
b100 g
b1010001 f
b1010001 K
b1100110100001 O
b1100110100001 $
b10 h
b10 k
0U
b1011111 P
b10001101 ]
b0 \
b1 c
b1 b
b100000 X
b100000 Y
b1100 7
b10100010000001111111111111011 R
1+
#330000
b1011111 :
b1011111 9
b1011111 l
0+
#335000
1?
b100000 #
b1010001 <
1"
b1100000100000 E
0*
b10010000101001111 :
b1010001 ;
b1010001 m
b0 L
b1011111 G
b1011111 p
0(
b10010000101001111 9
b10010000101001111 l
b1100110100001 @
b1100110100001 n
b11111111 >
b11111111111111111111111111111011 %
b11111111111111111111111111111011 s
b11111111111111111111111111111011 H
b11111111111111111111111111111011 q
b1100000100000 -
0'
b0 5
b11 A
b11 i
b100 C
b100 j
b11 =
b0 D
b100000 ,
b10000 8
b10001100001001000000000000000000 .
b0 M
b100 h
b100 k
b1100110100001 P
bx ]
b1 g
b10000 f
b10000 K
b10100 O
b10100 $
b111011 N
b111011 r
b11111111111111111111111111111011 d
b0 [
b1011111 Z
b11001000001100000100000 R
b100100 Y
b110000010100100 7
b1100 X
0_
b11111 \
b0 c
b10 b
1+
#340000
b1100110100001 <
b1100110100001 ;
b1100110100001 m
0+
#345000
b0 E
b10000 :
b1100110100001 L
b10010000101001111 G
b10010000101001111 p
0"
b10000 9
b10000 l
b10011101011110000 %
b10011101011110000 s
b1100110100001 H
b1100110100001 q
bx >
b10100 @
b10100 n
b11 M
b10100 8
b100000010000101111111111111111 .
b0 -
10
12
b100011 5
b1 A
b1 i
b0 =
b0 ,
1^
0Q
b100000 N
b100000 r
b1100000100000 d
b1100110100001 [
b10010000101001111 Z
b0 g
b0 f
b0 K
b11111111111111111111111111111011 O
b11111111111111111111111111111011 $
b1 h
b1 k
b10100 P
b11111111 ]
0`
1_
b11 \
b100 c
b11 b
b10000 X
b10000 Y
b10000 7
b10001100001001000000000000000000 R
1+
#350000
b10100 :
b10100 9
b10100 l
0+
#355000
b11111111111111111111111111111111 E
b1011111 :
b1011111 <
b10100 %
b10100 s
b10100 G
b10100 p
b1011111 9
b1011111 l
b1011111 ;
b1011111 m
0I
b11111111111111111111111111111011 @
b11111111111111111111111111111011 n
b0 H
b0 q
b1111111111111111 -
00
02
1!
b1000 5
b10 A
b10 i
b10 C
b10 j
b11111 =
b11111 D
b111111 ,
b11000 8
b100001000010000000011000 .
01
b100 M
b0 h
b0 k
b11111111111111111111111111111011 P
bx ]
b11 g
b1100110100001 f
b1100110100001 K
b10011101011110000 O
b10011101011110000 $
0^
1Q
b0 d
b10100 Z
b100000010000101111111111111111 R
b10100 Y
b10000 7
b10100 X
1S
b0 \
b1 b
1`
0a
0o
1+
#360000
0+
