prog_norm/mipse.vcd
$date
	Tue Aug  2 00:09:12 2016
$end
$version
	Icarus Verilog
$end
$timescale
	1ps
$end
$scope module test_mipse $end
$scope module mipse_1 $end
$var wire 1 ! addi_opD $end
$var wire 1 " alu_opD $end
$var wire 6 # alucomD [5:0] $end
$var wire 32 $ aluout [31:0] $end
$var wire 32 % aluoutE [31:0] $end
$var wire 1 & beq_opD $end
$var wire 1 ' bne_opD $end
$var wire 1 ( branchD $end
$var wire 1 ) branchstall $end
$var wire 1 * btakenD $end
$var wire 1 + clk $end
$var wire 6 , funcD [5:0] $end
$var wire 16 - immD [15:0] $end
$var wire 32 . instr [31:0] $end
$var wire 1 / lui_opD $end
$var wire 1 0 lw_opD $end
$var wire 1 1 lwstall $end
$var wire 1 2 memtoregD $end
$var wire 1 3 memwrite $end
$var wire 1 4 memwriteD $end
$var wire 1 5 mult_opD $end
$var wire 16 6 multoutE [15:0] $end
$var wire 6 7 opcodeD [5:0] $end
$var wire 1 8 ori_opD $end
$var wire 32 9 pcbranchD [31:0] $end
$var wire 32 : pcplus4F [31:0] $end
$var wire 32 ; rd1D [31:0] $end
$var wire 32 < rd1fD [31:0] $end
$var wire 32 = rd2D [31:0] $end
$var wire 32 > rd2fD [31:0] $end
$var wire 5 ? rdD [4:0] $end
$var wire 32 @ readdata [31:0] $end
$var wire 1 A regwriteD $end
$var wire 32 B resultW [31:0] $end
$var wire 5 C rsD [4:0] $end
$var wire 1 D rst_n $end
$var wire 5 E rtD [4:0] $end
$var wire 5 F shamtD [4:0] $end
$var wire 32 G signimmD [31:0] $end
$var wire 1 H slti_opD $end
$var wire 32 I srcaE [31:0] $end
$var wire 32 J srcbE [31:0] $end
$var wire 1 K stall $end
$var wire 1 L sw_opD $end
$var wire 32 M writedata [31:0] $end
$var wire 32 N writedataE [31:0] $end
$var wire 5 O writeregE [4:0] $end
$var reg 6 P alucomE [5:0] $end
$var reg 32 Q aluoutM [31:0] $end
$var reg 32 R aluoutW [31:0] $end
$var reg 1 S alusrcE $end
$var reg 32 T instrD [31:0] $end
$var reg 1 U memtoregE $end
$var reg 1 V memtoregM $end
$var reg 1 W memtoregW $end
$var reg 1 X memwriteE $end
$var reg 1 Y memwriteM $end
$var reg 1 Z mult_opE $end
$var reg 32 [ pc [31:0] $end
$var reg 32 \ pcplus4D [31:0] $end
$var reg 32 ] rd1E [31:0] $end
$var reg 32 ^ rd2E [31:0] $end
$var reg 5 _ rdE [4:0] $end
$var reg 32 ` readdataW [31:0] $end
$var reg 1 a regdstE $end
$var reg 1 b regwriteE $end
$var reg 1 c regwriteM $end
$var reg 1 d regwriteW $end
$var reg 5 e rsE [4:0] $end
$var reg 5 f rtE [4:0] $end
$var reg 32 g signimmE [31:0] $end
$var reg 1 h slti_opE $end
$var reg 32 i writedataM [31:0] $end
$var reg 5 j writeregM [4:0] $end
$var reg 5 k writeregW [4:0] $end
$scope module rfile_1 $end
$var wire 5 l a1 [4:0] $end
$var wire 5 m a2 [4:0] $end
$var wire 5 n a3 [4:0] $end
$var wire 1 + clk $end
$var wire 32 o rd1 [31:0] $end
$var wire 32 p rd2 [31:0] $end
$var wire 32 q wd3 [31:0] $end
$var wire 1 r we3 $end
$upscope $end
$scope module alu_1 $end
$var wire 32 s a [31:0] $end
$var wire 32 t b [31:0] $end
$var wire 6 u s [5:0] $end
$var wire 32 v y [31:0] $end
$var wire 1 w zero $end
$upscope $end
$upscope $end
$upscope $end
$enddefinitions $end
#0
$dumpvars
xw
bx v
bx u
bx t
bx s
0r
bx q
b0 p
b0 o
bx n
b0 m
b0 l
bx k
bx j
bx i
xh
bx g
b0 f
b0 e
0d
0c
0b
xa
bx `
b0 _
bx ^
bx ]
b0 \
b0 [
xZ
0Y
0X
xW
xV
0U
b0 T
xS
bx R
bx Q
bx P
b0 O
bx N
bx M
0L
0K
bx J
bx I
0H
b0 G
b0 F
b0 E
0D
b0 C
bx B
0A
bx @
b0 ?
b0 >
b0 =
b0 <
b0 ;
b100 :
b0 9
08
b0 7
bx 6
05
04
03
02
01
00
0/
b100000100000 .
b0 -
b0 ,
0+
0*
0)
0(
0'
0&
bx %
bx $
b0 #
0"
0!
$end
#5000
b0 6
b0 N
b0 I
b0 s
1w
b0 %
b0 v
b0 J
b0 t
0a
1S
b0 P
b0 u
b0 g
b0 ^
b0 ]
0Z
0h
b0 j
0V
1+
#10000
0+
#12000
1D
#15000
1A
b100000 #
1"
b100000100000 G
b1100111 @
b100000100000 -
b1 ?
b100000 ,
b1000 :
b100000000000100000000001100100 .
b0 k
b0 n
0W
b0 i
b0 M
b0 Q
b0 $
b100000100000 T
b100 \
b10000010000100 9
b100 [
1+
#20000
0+
#25000
bx >
b1100100 G
bx =
bx p
0"
b1 O
b0 B
b0 q
b1100 :
b1100000100000 .
b1100100 -
1!
b1000 7
b10 E
b10 m
b0 ?
b1 F
b100100 ,
1a
0S
b100000 P
b100000 u
b100000100000 g
b0 R
b1100111 `
1b
b1 _
b1000 [
b1000 \
b110011000 9
b100000000000100000000001100100 T
1+
#30000
0+
#35000
1A
b0 >
b1100000100000 G
b0 =
b0 p
0w
b1100100 %
b1100100 v
bx N
1"
b1100100 J
b1100100 t
b1100000100000 -
0!
b0 7
b0 E
b0 m
b11 ?
b0 F
b100000 ,
b10000 :
b10001100001001000000000000000000 .
b10 O
b1 j
0a
1S
b1100100 g
bx ^
b1100000100000 T
b1100 \
b110000010001100 9
b1100 [
b0 _
b10 f
1c
1+
#40000
0+
#45000
bx <
bx >
b0 G
bx ;
bx o
bx =
bx p
b0 6
1w
b0 %
b0 v
b0 N
0"
b0 J
b0 t
b1011010 @
b11 O
b10100 :
b100000010000101111111111111111 .
b0 -
10
12
b100011 7
b1 C
b1 l
b100 E
b100 m
b0 ?
b0 ,
1a
0S
b1100000100000 g
b0 ^
b10 j
bx i
bx M
b1100100 Q
b1100100 $
b1 k
b1 n
1d
1r
b11 _
b0 f
b10000 [
b10000 \
b10000 9
b10001100001001000000000000000000 T
1+
#50000
b0 <
b0 ;
b0 o
0+
#55000
b11111111111111111111111111111111 G
bx <
bx N
bx ;
bx o
0K
b1100100 B
b1100100 q
b1100111 @
b1111111111111111 -
00
02
1!
b1000 7
b10 C
b10 l
b10 E
b10 m
b11111 ?
b11111 F
b111111 ,
b11000 :
b100001000010000000011000 .
01
b100 O
b10 k
b10 n
b1100100 R
b1011010 `
b11 j
b0 i
b0 M
b0 Q
b0 $
0a
1S
b0 g
bx ^
b100000010000101111111111111111 T
b10100 \
b10000 9
b10100 [
1U
b0 _
b100 f
b1 e
1+
#60000
b1100100 <
b1100100 >
b1100100 ;
b1100100 o
b1100100 =
b1100100 p
0+
#65000
1A
b11000 #
b1111111110011100 6
b10000000011000 G
b0 <
b0 >
0w
b1100011 %
b1100011 v
b1100100 N
b1100100 I
b1100100 s
1"
bx ;
bx o
bx =
bx p
15
b11111111111111111111111111111111 J
b11111111111111111111111111111111 t
b0 B
b0 q
b10 O
b11100 :
b100000001000010000000000000100 .
b10000000011000 -
0!
b0 7
b100 C
b100 l
b100 E
b100 m
b100 ?
b0 F
b11000 ,
b11111111111111111111111111111111 g
b1100100 ^
b1100100 ]
b100 j
bx i
bx M
1V
b11 k
b11 n
b0 R
b1100111 `
0U
b11111 _
b10 f
b10 e
b11000 [
b11000 \
b1000000001111000 9
b100001000010000000011000 T
1+
#70000
0+
#75000
0w
b100000 #
b100 G
b10100101110001 6
b1100111 N
b1100111 I
b1100111 s
0"
b0 ;
b0 o
b0 =
b0 p
05
b1100111 B
b1100111 q
b0 <
b0 >
b1110110 @
b1100111 %
b1100111 v
b1100111 J
b1100111 t
b100 -
1!
b1000 7
b1 C
b1 l
b1 E
b1 m
b0 ?
b100 ,
b100000 :
b10100010000001111111111111011 .
b100 O
b100 k
b100 n
1W
b10 j
b1100100 i
b1100100 M
0V
b1100011 Q
b1100011 $
1a
0S
b11000 P
b11000 u
b10000000011000 g
b0 ^
b0 ]
1Z
b100000001000010000000000000100 T
b11100 \
b101100 9
b11100 [
b100 _
b100 f
b100 e
1+
#80000
0+
#85000
1*
0A
b111011 #
b0 N
b0 I
b0 s
b11111111111111111111111111111011 G
b1100100 <
b0 >
b0 6
1(
b1100100 ;
b1100100 o
b0 =
b0 p
b100 J
b100 t
b100 %
b100 v
bx @
b1100011 B
b1100011 q
b1 O
b100100 :
b11001000001100000100000 .
b1111111111111011 -
0!
1'
b101 7
b10 C
b10 l
b0 E
b0 m
b11111 ?
b11111 F
b111011 ,
0a
1S
b100000 P
b100000 u
b100 g
0Z
b100 j
b1100111 i
b1100111 M
b10100101110001 Q
b10100101110001 $
b10 k
b10 n
0W
b1100011 R
b1110110 `
b0 _
b1 f
b1 e
b100000 [
b100000 \
b1100 9
b10100010000001111111111111011 T
1+
#90000
b1100011 <
b1100011 ;
b1100011 o
0+
#95000
1A
b11111111111111111111111111111011 %
b11111111111111111111111111111011 v
b100000 #
b1100111 >
1"
b1111111000010001 6
b1100000100000 G
0*
b0 <
b1100111 =
b1100111 p
b1100011 I
b1100011 s
0(
b0 ;
b0 o
b10100101110001 B
b10100101110001 q
b11000110 @
b11111111111111111111111111111011 J
b11111111111111111111111111111011 t
b1100000100000 -
0'
b0 7
b11 C
b11 l
b100 E
b100 m
b11 ?
b0 F
b100000 ,
b10000 :
b10001100001001000000000000000000 .
b0 O
b100 k
b100 n
b10100101110001 R
bx `
b1 j
b0 i
b0 M
b100 Q
b100 $
b111011 P
b111011 u
b11111111111111111111111111111011 g
b1100011 ]
b11001000001100000100000 T
b100100 \
b110000010100100 9
b1100 [
0b
b11111 _
b0 f
b10 e
1+
#100000
b10100101110001 >
b10100101110001 =
b10100101110001 p
0+
#105000
0w
b0 G
b0 6
b10100101110001 N
b0 I
b0 s
0"
b10100101110001 %
b10100101110001 v
b10100101110001 J
b10100101110001 t
bx @
b100 B
b100 q
b11 O
b10100 :
b100000010000101111111111111111 .
b0 -
10
12
b100011 7
b1 C
b1 l
b0 ?
b0 ,
1a
0S
b100000 P
b100000 u
b1100000100000 g
b10100101110001 ^
b0 ]
b0 j
b11111111111111111111111111111011 Q
b11111111111111111111111111111011 $
b1 k
b1 n
b100 R
b11000110 `
0c
1b
b11 _
b100 f
b11 e
b10000 [
b10000 \
b10000 9
b10001100001001000000000000000000 T
1+
#110000
b100 <
b100 ;
b100 o
0+
#115000
b11111111111111111111111111111111 G
b1100011 <
b1100011 >
b100 %
b100 v
b100 I
b100 s
b1100011 ;
b1100011 o
b1100011 =
b1100011 p
0K
b11111111111111111111111111111011 B
b11111111111111111111111111111011 q
b0 J
b0 t
b1111111111111111 -
00
02
1!
b1000 7
b10 C
b10 l
b10 E
b10 m
b11111 ?
b11111 F
b111111 ,
b11000 :
b100001000010000000011000 .
01
b100 O
b0 k
b0 n
b11111111111111111111111111111011 R
bx `
b11 j
b10100101110001 i
b10100101110001 M
b10100101110001 Q
b10100101110001 $
0a
1S
b0 g
b100 ]
b100000010000101111111111111111 T
b10100 \
b10000 9
b10100 [
1U
b0 _
b1 e
1c
0d
0r
1+
#120000
0+
#125000
1A
b11000 #
b10000000011000 G
b100 <
b100 >
b1111111110011101 6
b1100010 %
b1100010 v
b1100011 N
b1100011 I
b1100011 s
1"
b10100101110001 ;
b10100101110001 o
b10100101110001 =
b10100101110001 p
15
b11111111111111111111111111111111 J
b11111111111111111111111111111111 t
b11000110 @
b10100101110001 B
b10100101110001 q
b10 O
b11100 :
b100000001000010000000000000100 .
b10000000011000 -
0!
b0 7
b100 C
b100 l
b100 E
b100 m
b100 ?
b0 F
b11000 ,
b11111111111111111111111111111111 g
b1100011 ^
b1100011 ]
b100 j
1V
b100 Q
b100 $
b11 k
b11 n
b10100101110001 R
1d
1r
0U
b11111 _
b10 f
b10 e
b11000 [
b11000 \
b1000000001111000 9
b100001000010000000011000 T
1+
#130000
0+
#135000
b100000 #
b100 G
b1001100100100100 6
b11000110 N
b11000110 I
b11000110 s
0"
b100 ;
b100 o
b100 =
b100 p
05
b11000110 B
b11000110 q
b100 <
b100 >
b1110110 @
b11000110 %
b11000110 v
b11000110 J
b11000110 t
b100 -
1!
b1000 7
b1 C
b1 l
b1 E
b1 m
b0 ?
b100 ,
b100000 :
b10100010000001111111111111011 .
b100 O
b100 k
b100 n
1W
b100 R
b11000110 `
b10 j
b1100011 i
b1100011 M
0V
b1100010 Q
b1100010 $
1a
0S
b11000 P
b11000 u
b10000000011000 g
b100 ^
b100 ]
1Z
b100000001000010000000000000100 T
b11100 \
b101100 9
b11100 [
b100 _
b100 f
b100 e
1+
#140000
0+
#145000
1*
0A
b111011 #
b100 N
b100 I
b100 s
b11111111111111111111111111111011 G
b1100011 <
b0 >
b10000 6
1(
b1100011 ;
b1100011 o
b0 =
b0 p
b100 J
b100 t
b1000 %
b1000 v
bx @
b1100010 B
b1100010 q
b1 O
b100100 :
b11001000001100000100000 .
b1111111111111011 -
0!
1'
b101 7
b10 C
b10 l
b0 E
b0 m
b11111 ?
b11111 F
b111011 ,
0a
1S
b100000 P
b100000 u
b100 g
0Z
b100 j
b11000110 i
b11000110 M
b1001100100100100 Q
b1001100100100100 $
b10 k
b10 n
0W
b1100010 R
b1110110 `
b0 _
b1 f
b1 e
b100000 [
b100000 \
b1100 9
b10100010000001111111111111011 T
1+
#150000
b1100010 <
b1100010 ;
b1100010 o
0+
#155000
1A
b100000 #
b11000110 >
1"
b1100000100000 G
0*
b10100101110001 <
b11000110 =
b11000110 p
b1111111000010110 6
b0 N
b1100010 I
b1100010 s
0(
b10100101110001 ;
b10100101110001 o
b1001100100100100 B
b1001100100100100 q
b1101001 @
b11111111111111111111111111111011 %
b11111111111111111111111111111011 v
b11111111111111111111111111111011 J
b11111111111111111111111111111011 t
b1100000100000 -
0'
b0 7
b11 C
b11 l
b100 E
b100 m
b11 ?
b0 F
b100000 ,
b10000 :
b10001100001001000000000000000000 .
b0 O
b100 k
b100 n
b1001100100100100 R
bx `
b1 j
b100 i
b100 M
b1000 Q
b1000 $
b111011 P
b111011 u
b11111111111111111111111111111011 g
b0 ^
b1100010 ]
b11001000001100000100000 T
b100100 \
b110000010100100 9
b1100 [
0b
b11111 _
b0 f
b10 e
1+
#160000
b1001100100100100 >
b1001100100100100 =
b1001100100100100 p
0+
#165000
b0 G
b100 <
b101110011100100 6
b1001100100100100 N
b10100101110001 I
b10100101110001 s
0"
b100 ;
b100 o
b1100001010010101 %
b1100001010010101 v
b1001100100100100 J
b1001100100100100 t
bx @
b1000 B
b1000 q
b11 O
b10100 :
b100000010000101111111111111111 .
b0 -
10
12
b100011 7
b1 C
b1 l
b0 ?
b0 ,
1a
0S
b100000 P
b100000 u
b1100000100000 g
b1001100100100100 ^
b10100101110001 ]
b0 j
b0 i
b0 M
b11111111111111111111111111111011 Q
b11111111111111111111111111111011 $
b1 k
b1 n
b1000 R
b1101001 `
0c
1b
b11 _
b100 f
b11 e
b10000 [
b10000 \
b10000 9
b10001100001001000000000000000000 T
1+
#170000
b1000 <
b1000 ;
b1000 o
0+
#175000
b11111111111111111111111111111111 G
b1100010 <
b1100010 >
b0 6
b1000 %
b1000 v
b1000 I
b1000 s
b1100010 ;
b1100010 o
b1100010 =
b1100010 p
0K
b11111111111111111111111111111011 B
b11111111111111111111111111111011 q
b0 J
b0 t
b1111111111111111 -
00
02
1!
b1000 7
b10 C
b10 l
b10 E
b10 m
b11111 ?
b11111 F
b111111 ,
b11000 :
b100001000010000000011000 .
01
b100 O
b0 k
b0 n
b11111111111111111111111111111011 R
bx `
b11 j
b1001100100100100 i
b1001100100100100 M
b1100001010010101 Q
b1100001010010101 $
0a
1S
b0 g
b1000 ]
b100000010000101111111111111111 T
b10100 \
b10000 9
b10100 [
1U
b0 _
b1 e
1c
0d
0r
1+
#180000
0+
#185000
1A
b11000 #
b10000000011000 G
b1000 <
b1000 >
b1111111110011110 6
b1100001 %
b1100001 v
b1100010 N
b1100010 I
b1100010 s
1"
b1001100100100100 ;
b1001100100100100 o
b1001100100100100 =
b1001100100100100 p
15
b11111111111111111111111111111111 J
b11111111111111111111111111111111 t
b1101001 @
b1100001010010101 B
b1100001010010101 q
b10 O
b11100 :
b100000001000010000000000000100 .
b10000000011000 -
0!
b0 7
b100 C
b100 l
b100 E
b100 m
b100 ?
b0 F
b11000 ,
b11111111111111111111111111111111 g
b1100010 ^
b1100010 ]
b100 j
1V
b1000 Q
b1000 $
b11 k
b11 n
b1100001010010101 R
1d
1r
0U
b11111 _
b10 f
b10 e
b11000 [
b11000 \
b1000000001111000 9
b100001000010000000011000 T
1+
#190000
0+
#195000
b100000 #
b100 G
b10101100010001 6
b1101001 N
b1101001 I
b1101001 s
0"
b1000 ;
b1000 o
b1000 =
b1000 p
05
b1101001 B
b1101001 q
b1000 <
b1000 >
b1110110 @
b1101001 %
b1101001 v
b1101001 J
b1101001 t
b100 -
1!
b1000 7
b1 C
b1 l
b1 E
b1 m
b0 ?
b100 ,
b100000 :
b10100010000001111111111111011 .
b100 O
b100 k
b100 n
1W
b1000 R
b1101001 `
b10 j
b1100010 i
b1100010 M
0V
b1100001 Q
b1100001 $
1a
0S
b11000 P
b11000 u
b10000000011000 g
b1000 ^
b1000 ]
1Z
b100000001000010000000000000100 T
b11100 \
b101100 9
b11100 [
b100 _
b100 f
b100 e
1+
#200000
0+
#205000
1*
0A
b111011 #
b1000 N
b1000 I
b1000 s
b11111111111111111111111111111011 G
b1100010 <
b0 >
b100000 6
1(
b1100010 ;
b1100010 o
b0 =
b0 p
b100 J
b100 t
b1100 %
b1100 v
bx @
b1100001 B
b1100001 q
b1 O
b100100 :
b11001000001100000100000 .
b1111111111111011 -
0!
1'
b101 7
b10 C
b10 l
b0 E
b0 m
b11111 ?
b11111 F
b111011 ,
0a
1S
b100000 P
b100000 u
b100 g
0Z
b100 j
b1101001 i
b1101001 M
b10101100010001 Q
b10101100010001 $
b10 k
b10 n
0W
b1100001 R
b1110110 `
b0 _
b1 f
b1 e
b100000 [
b100000 \
b1100 9
b10100010000001111111111111011 T
1+
#210000
b1100001 <
b1100001 ;
b1100001 o
0+
#215000
1A
b100000 #
b1101001 >
1"
b1100000100000 G
0*
b1100001010010101 <
b1101001 =
b1101001 p
b1111111000011011 6
b0 N
b1100001 I
b1100001 s
0(
b1100001010010101 ;
b1100001010010101 o
b10101100010001 B
b10101100010001 q
b1110011 @
b11111111111111111111111111111011 %
b11111111111111111111111111111011 v
b11111111111111111111111111111011 J
b11111111111111111111111111111011 t
b1100000100000 -
0'
b0 7
b11 C
b11 l
b100 E
b100 m
b11 ?
b0 F
b100000 ,
b10000 :
b10001100001001000000000000000000 .
b0 O
b100 k
b100 n
b10101100010001 R
bx `
b1 j
b1000 i
b1000 M
b1100 Q
b1100 $
b111011 P
b111011 u
b11111111111111111111111111111011 g
b0 ^
b1100001 ]
b11001000001100000100000 T
b100100 \
b110000010100100 9
b1100 [
0b
b11111 _
b0 f
b10 e
1+
#220000
b10101100010001 >
b10101100010001 =
b10101100010001 p
0+
#225000
b0 G
b1000 <
b1111001011100101 6
b10101100010001 N
b1100001010010101 I
b1100001010010101 s
0"
b1000 ;
b1000 o
b1110110110100110 %
b1110110110100110 v
b10101100010001 J
b10101100010001 t
bx @
b1100 B
b1100 q
b11 O
b10100 :
b100000010000101111111111111111 .
b0 -
10
12
b100011 7
b1 C
b1 l
b0 ?
b0 ,
1a
0S
b100000 P
b100000 u
b1100000100000 g
b10101100010001 ^
b1100001010010101 ]
b0 j
b0 i
b0 M
b11111111111111111111111111111011 Q
b11111111111111111111111111111011 $
b1 k
b1 n
b1100 R
b1110011 `
0c
1b
b11 _
b100 f
b11 e
b10000 [
b10000 \
b10000 9
b10001100001001000000000000000000 T
1+
#230000
b1100 <
b1100 ;
b1100 o
0+
#235000
b11111111111111111111111111111111 G
b1100001 <
b1100001 >
b0 6
b1100 %
b1100 v
b1100 I
b1100 s
b1100001 ;
b1100001 o
b1100001 =
b1100001 p
0K
b11111111111111111111111111111011 B
b11111111111111111111111111111011 q
b0 J
b0 t
b1111111111111111 -
00
02
1!
b1000 7
b10 C
b10 l
b10 E
b10 m
b11111 ?
b11111 F
b111111 ,
b11000 :
b100001000010000000011000 .
01
b100 O
b0 k
b0 n
b11111111111111111111111111111011 R
bx `
b11 j
b10101100010001 i
b10101100010001 M
b1110110110100110 Q
b1110110110100110 $
0a
1S
b0 g
b1100 ]
b100000010000101111111111111111 T
b10100 \
b10000 9
b10100 [
1U
b0 _
b1 e
1c
0d
0r
1+
#240000
0+
#245000
1A
b11000 #
b10000000011000 G
b1100 <
b1100 >
b1111111110011111 6
b1100000 %
b1100000 v
b1100001 N
b1100001 I
b1100001 s
1"
b10101100010001 ;
b10101100010001 o
b10101100010001 =
b10101100010001 p
15
b11111111111111111111111111111111 J
b11111111111111111111111111111111 t
b1110011 @
b1110110110100110 B
b1110110110100110 q
b10 O
b11100 :
b100000001000010000000000000100 .
b10000000011000 -
0!
b0 7
b100 C
b100 l
b100 E
b100 m
b100 ?
b0 F
b11000 ,
b11111111111111111111111111111111 g
b1100001 ^
b1100001 ]
b100 j
1V
b1100 Q
b1100 $
b11 k
b11 n
b1110110110100110 R
1d
1r
0U
b11111 _
b10 f
b10 e
b11000 [
b11000 \
b1000000001111000 9
b100001000010000000011000 T
1+
#250000
0+
#255000
b100000 #
b100 G
b11001110101001 6
b1110011 N
b1110011 I
b1110011 s
0"
b1100 ;
b1100 o
b1100 =
b1100 p
05
b1110011 B
b1110011 q
b1100 <
b1100 >
b1110110 @
b1110011 %
b1110011 v
b1110011 J
b1110011 t
b100 -
1!
b1000 7
b1 C
b1 l
b1 E
b1 m
b0 ?
b100 ,
b100000 :
b10100010000001111111111111011 .
b100 O
b100 k
b100 n
1W
b1100 R
b1110011 `
b10 j
b1100001 i
b1100001 M
0V
b1100000 Q
b1100000 $
1a
0S
b11000 P
b11000 u
b10000000011000 g
b1100 ^
b1100 ]
1Z
b100000001000010000000000000100 T
b11100 \
b101100 9
b11100 [
b100 _
b100 f
b100 e
1+
#260000
0+
#265000
1*
0A
b111011 #
b1100 N
b1100 I
b1100 s
b11111111111111111111111111111011 G
b1100001 <
b0 >
b110000 6
1(
b1100001 ;
b1100001 o
b0 =
b0 p
b100 J
b100 t
b10000 %
b10000 v
bx @
b1100000 B
b1100000 q
b1 O
b100100 :
b11001000001100000100000 .
b1111111111111011 -
0!
1'
b101 7
b10 C
b10 l
b0 E
b0 m
b11111 ?
b11111 F
b111011 ,
0a
1S
b100000 P
b100000 u
b100 g
0Z
b100 j
b1110011 i
b1110011 M
b11001110101001 Q
b11001110101001 $
b10 k
b10 n
0W
b1100000 R
b1110110 `
b0 _
b1 f
b1 e
b100000 [
b100000 \
b1100 9
b10100010000001111111111111011 T
1+
#270000
b1100000 <
b1100000 ;
b1100000 o
0+
#275000
1A
b100000 #
b1110011 >
1"
b1100000100000 G
0*
b1110110110100110 <
b1110011 =
b1110011 p
b1111111000100000 6
b0 N
b1100000 I
b1100000 s
0(
b1110110110100110 ;
b1110110110100110 o
b11001110101001 B
b11001110101001 q
b1010001 @
b11111111111111111111111111111011 %
b11111111111111111111111111111011 v
b11111111111111111111111111111011 J
b11111111111111111111111111111011 t
b1100000100000 -
0'
b0 7
b11 C
b11 l
b100 E
b100 m
b11 ?
b0 F
b100000 ,
b10000 :
b10001100001001000000000000000000 .
b0 O
b100 k
b100 n
b11001110101001 R
bx `
b1 j
b1100 i
b1100 M
b10000 Q
b10000 $
b111011 P
b111011 u
b11111111111111111111111111111011 g
b0 ^
b1100000 ]
b11001000001100000100000 T
b100100 \
b110000010100100 9
b1100 [
0b
b11111 _
b0 f
b10 e
1+
#280000
b11001110101001 >
b11001110101001 =
b11001110101001 p
0+
#285000
b0 G
b1100 <
b1111010010010110 6
b11001110101001 N
b1110110110100110 I
b1110110110100110 s
0"
b1100 ;
b1100 o
b10010000101001111 %
b10010000101001111 v
b11001110101001 J
b11001110101001 t
bx @
b10000 B
b10000 q
b11 O
b10100 :
b100000010000101111111111111111 .
b0 -
10
12
b100011 7
b1 C
b1 l
b0 ?
b0 ,
1a
0S
b100000 P
b100000 u
b1100000100000 g
b11001110101001 ^
b1110110110100110 ]
b0 j
b0 i
b0 M
b11111111111111111111111111111011 Q
b11111111111111111111111111111011 $
b1 k
b1 n
b10000 R
b1010001 `
0c
1b
b11 _
b100 f
b11 e
b10000 [
b10000 \
b10000 9
b10001100001001000000000000000000 T
1+
#290000
b10000 <
b10000 ;
b10000 o
0+
#295000
b11111111111111111111111111111111 G
b1100000 <
b1100000 >
b0 6
b10000 %
b10000 v
b10000 I
b10000 s
b1100000 ;
b1100000 o
b1100000 =
b1100000 p
0K
b11111111111111111111111111111011 B
b11111111111111111111111111111011 q
b0 J
b0 t
b1111111111111111 -
00
02
1!
b1000 7
b10 C
b10 l
b10 E
b10 m
b11111 ?
b11111 F
b111111 ,
b11000 :
b100001000010000000011000 .
01
b100 O
b0 k
b0 n
b11111111111111111111111111111011 R
bx `
b11 j
b11001110101001 i
b11001110101001 M
b10010000101001111 Q
b10010000101001111 $
0a
1S
b0 g
b10000 ]
b100000010000101111111111111111 T
b10100 \
b10000 9
b10100 [
1U
b0 _
b1 e
1c
0d
0r
1+
#300000
0+
#305000
1A
b11000 #
b10000000011000 G
b10000 <
b10000 >
b1111111110100000 6
b1011111 %
b1011111 v
b1100000 N
b1100000 I
b1100000 s
1"
b11001110101001 ;
b11001110101001 o
b11001110101001 =
b11001110101001 p
15
b11111111111111111111111111111111 J
b11111111111111111111111111111111 t
b1010001 @
b10010000101001111 B
b10010000101001111 q
b10 O
b11100 :
b100000001000010000000000000100 .
b10000000011000 -
0!
b0 7
b100 C
b100 l
b100 E
b100 m
b100 ?
b0 F
b11000 ,
b11111111111111111111111111111111 g
b1100000 ^
b1100000 ]
b100 j
1V
b10000 Q
b10000 $
b11 k
b11 n
b10010000101001111 R
1d
1r
0U
b11111 _
b10 f
b10 e
b11000 [
b11000 \
b1000000001111000 9
b100001000010000000011000 T
1+
#310000
0+
#315000
b100000 #
b100 G
b1100110100001 6
b1010001 N
b1010001 I
b1010001 s
0"
b10000 ;
b10000 o
b10000 =
b10000 p
05
b1010001 B
b1010001 q
b10000 <
b10000 >
b10001101 @
b1010001 %
b1010001 v
b1010001 J
b1010001 t
b100 -
1!
b1000 7
b1 C
b1 l
b1 E
b1 m
b0 ?
b100 ,
b100000 :
b10100010000001111111111111011 .
b100 O
b100 k
b100 n
1W
b10000 R
b1010001 `
b10 j
b1100000 i
b1100000 M
0V
b1011111 Q
b1011111 $
1a
0S
b11000 P
b11000 u
b10000000011000 g
b10000 ^
b10000 ]
1Z
b100000001000010000000000000100 T
b11100 \
b101100 9
b11100 [
b100 _
b100 f
b100 e
1+
#320000
0+
#325000
1*
0A
b111011 #
b10000 N
b10000 I
b10000 s
b11111111111111111111111111111011 G
b1100000 <
b0 >
b1000000 6
1(
b1100000 ;
b1100000 o
b0 =
b0 p
b100 J
b100 t
b10100 %
b10100 v
bx @
b1011111 B
b1011111 q
b1 O
b100100 :
b11001000001100000100000 .
b1111111111111011 -
0!
1'
b101 7
b10 C
b10 l
b0 E
b0 m
b11111 ?
b11111 F
b111011 ,
0a
1S
b100000 P
b100000 u
b100 g
0Z
b100 j
b1010001 i
b1010001 M
b1100110100001 Q
b1100110100001 $
b10 k
b10 n
0W
b1011111 R
b10001101 `
b0 _
b1 f
b1 e
b100000 [
b100000 \
b1100 9
b10100010000001111111111111011 T
1+
#330000
b1011111 <
b1011111 ;
b1011111 o
0+
#335000
1A
b100000 #
b1010001 >
1"
b1100000100000 G
0*
b10010000101001111 <
b1010001 =
b1010001 p
b1111111000100101 6
b0 N
b1011111 I
b1011111 s
0(
b10010000101001111 ;
b10010000101001111 o
b1100110100001 B
b1100110100001 q
b11111111 @
b11111111111111111111111111111011 %
b11111111111111111111111111111011 v
b11111111111111111111111111111011 J
b11111111111111111111111111111011 t
b1100000100000 -
0'
b0 7
b11 C
b11 l
b100 E
b100 m
b11 ?
b0 F
b100000 ,
b10000 :
b10001100001001000000000000000000 .
b0 O
b100 k
b100 n
b1100110100001 R
bx `
b1 j
b10000 i
b10000 M
b10100 Q
b10100 $
b111011 P
b111011 u
b11111111111111111111111111111011 g
b0 ^
b1011111 ]
b11001000001100000100000 T
b100100 \
b110000010100100 9
b1100 [
0b
b11111 _
b0 f
b10 e
1+
#340000
b1100110100001 >
b1100110100001 =
b1100110100001 p
0+
#345000
b0 G
b10000 <
b1010100110101111 6
b1100110100001 N
b10010000101001111 I
b10010000101001111 s
0"
b10000 ;
b10000 o
b10011101011110000 %
b10011101011110000 v
b1100110100001 J
b1100110100001 t
bx @
b10100 B
b10100 q
b11 O
b10100 :
b100000010000101111111111111111 .
b0 -
10
12
b100011 7
b1 C
b1 l
b0 ?
b0 ,
1a
0S
b100000 P
b100000 u
b1100000100000 g
b1100110100001 ^
b10010000101001111 ]
b0 j
b0 i
b0 M
b11111111111111111111111111111011 Q
b11111111111111111111111111111011 $
b1 k
b1 n
b10100 R
b11111111 `
0c
1b
b11 _
b100 f
b11 e
b10000 [
b10000 \
b10000 9
b10001100001001000000000000000000 T
1+
#350000
b10100 <
b10100 ;
b10100 o
0+
