prog_norm/mipse.vcd
$date
	Tue Aug  2 01:06:06 2016
$end
$version
	Icarus Verilog
$end
$timescale
	1ps
$end
$scope module test_mipse $end
$scope module mipse_1 $end
$var wire 1 ! addi_opD $end
$var wire 1 " alu_opD $end
$var wire 6 # alucomD [5:0] $end
$var wire 32 $ aluout [31:0] $end
$var wire 32 % aluoutE [31:0] $end
$var wire 1 & beq_opD $end
$var wire 1 ' bne_opD $end
$var wire 1 ( branchD $end
$var wire 1 ) branchstall $end
$var wire 1 * btakenD $end
$var wire 1 + clk $end
$var wire 6 , funcD [5:0] $end
$var wire 16 - immD [15:0] $end
$var wire 32 . instr [31:0] $end
$var wire 1 / lui_opD $end
$var wire 1 0 lw_opD $end
$var wire 1 1 lwstall $end
$var wire 1 2 memtoregD $end
$var wire 1 3 memwrite $end
$var wire 1 4 memwriteD $end
$var wire 1 5 mult_opD $end
$var wire 16 6 multoutE [15:0] $end
$var wire 6 7 opcodeD [5:0] $end
$var wire 1 8 ori_opD $end
$var wire 32 9 pcbranchD [31:0] $end
$var wire 32 : pcplus4F [31:0] $end
$var wire 32 ; rd1D [31:0] $end
$var wire 32 < rd1fD [31:0] $end
$var wire 32 = rd2D [31:0] $end
$var wire 32 > rd2fD [31:0] $end
$var wire 5 ? rdD [4:0] $end
$var wire 32 @ readdata [31:0] $end
$var wire 1 A regwriteD $end
$var wire 32 B resultW [31:0] $end
$var wire 5 C rsD [4:0] $end
$var wire 1 D rst_n $end
$var wire 5 E rtD [4:0] $end
$var wire 5 F shamtD [4:0] $end
$var wire 32 G signimmD [31:0] $end
$var wire 1 H slti_opD $end
$var wire 32 I srcaE [31:0] $end
$var wire 32 J srcbE [31:0] $end
$var wire 1 K stall $end
$var wire 1 L sw_opD $end
$var wire 32 M writedata [31:0] $end
$var wire 32 N writedataE [31:0] $end
$var wire 5 O writeregE [4:0] $end
$var reg 6 P alucomE [5:0] $end
$var reg 32 Q aluoutM [31:0] $end
$var reg 32 R aluoutW [31:0] $end
$var reg 1 S alusrcE $end
$var reg 32 T instrD [31:0] $end
$var reg 1 U memtoregE $end
$var reg 1 V memtoregM $end
$var reg 1 W memtoregW $end
$var reg 1 X memwriteE $end
$var reg 1 Y memwriteM $end
$var reg 1 Z mult_opE $end
$var reg 32 [ pc [31:0] $end
$var reg 32 \ pcplus4D [31:0] $end
$var reg 32 ] rd1E [31:0] $end
$var reg 32 ^ rd2E [31:0] $end
$var reg 5 _ rdE [4:0] $end
$var reg 32 ` readdataW [31:0] $end
$var reg 1 a regdstE $end
$var reg 1 b regwriteE $end
$var reg 1 c regwriteM $end
$var reg 1 d regwriteW $end
$var reg 5 e rsE [4:0] $end
$var reg 5 f rtE [4:0] $end
$var reg 32 g signimmE [31:0] $end
$var reg 1 h slti_opE $end
$var reg 32 i writedataM [31:0] $end
$var reg 5 j writeregM [4:0] $end
$var reg 5 k writeregW [4:0] $end
$scope module rfile_1 $end
$var wire 5 l a1 [4:0] $end
$var wire 5 m a2 [4:0] $end
$var wire 5 n a3 [4:0] $end
$var wire 1 + clk $end
$var wire 32 o rd1 [31:0] $end
$var wire 32 p rd2 [31:0] $end
$var wire 32 q wd3 [31:0] $end
$var wire 1 r we3 $end
$upscope $end
$scope module alu_1 $end
$var wire 32 s a [31:0] $end
$var wire 32 t b [31:0] $end
$var wire 6 u s [5:0] $end
$var wire 32 v y [31:0] $end
$var wire 1 w zero $end
$upscope $end
$upscope $end
$upscope $end
$enddefinitions $end
#0
$dumpvars
xw
bx v
bx u
bx t
bx s
0r
bx q
b0 p
b0 o
bx n
b0 m
b0 l
bx k
bx j
bx i
xh
bx g
b0 f
b0 e
0d
0c
0b
xa
bx `
b0 _
bx ^
bx ]
b0 \
b0 [
xZ
0Y
0X
xW
xV
0U
b0 T
xS
bx R
bx Q
bx P
b0 O
bx N
bx M
0L
0K
bx J
bx I
0H
b0 G
b0 F
b0 E
0D
b0 C
bx B
0A
bx @
b0 ?
b0 >
b0 =
b0 <
b0 ;
b100 :
b0 9
08
b0 7
bx 6
05
04
03
02
01
00
0/
b100000000000010000000110001100 .
b0 -
b0 ,
0+
0*
0)
0(
0'
0&
bx %
bx $
b0 #
0"
0!
$end
#5000
b0 6
b0 N
b0 I
b0 s
1w
b0 %
b0 v
b0 J
b0 t
0a
1S
b0 P
b0 u
b0 g
b0 ^
b0 ]
0Z
0h
b0 j
0V
1+
#10000
0+
#12000
1D
#15000
1A
b100000 #
bx >
b110001100 G
bx =
bx p
b1100111 @
b110001100 -
1!
b1000 7
b1 E
b1 m
b110 F
b1100 ,
b1000 :
b1100000100000 .
b0 k
b0 n
0W
b0 i
b0 M
b0 Q
b0 $
b100000000000010000000110001100 T
b100 \
b11000110100 9
b100 [
1+
#20000
0+
#25000
1A
b0 >
1"
b1100000100000 G
b0 =
b0 p
bx N
0w
b110001100 %
b110001100 v
b110001100 J
b110001100 t
b0 B
b0 q
b1 O
b1100 :
b10001100001001000000000000000000 .
b1100000100000 -
0!
b0 7
b0 E
b0 m
b11 ?
b0 F
b100000 ,
b100000 P
b100000 u
b110001100 g
bx ^
b0 R
b1100111 `
1b
b1 f
b1000 [
b1000 \
b110000010001000 9
b1100000100000 T
1+
#30000
0+
#35000
bx >
b110001100 <
b0 G
bx ;
bx o
bx =
bx p
b0 6
1w
b0 %
b0 v
b0 N
0"
b1000011 @
b0 J
b0 t
b0 -
10
12
b100011 7
b1 C
b1 l
b100 E
b100 m
b0 ?
b0 ,
b10000 :
b100000001000011111111111111100 .
b11 O
b1 j
bx i
bx M
b110001100 Q
b110001100 $
1a
0S
b1100000100000 g
b0 ^
b10001100001001000000000000000000 T
b1100 \
b1100 9
b1100 [
b11 _
b0 f
1c
1+
#40000
0+
#45000
0w
b110001100 %
b110001100 v
b11111111111111111111111111111100 G
bx N
b110001100 I
b110001100 s
bx <
b1100111 @
b110001100 B
b110001100 q
b100 O
b10100 :
b100001000010000000011000 .
b1111111111111100 -
00
02
1!
b1000 7
b1 E
b1 m
b11111 ?
b11111 F
b111100 ,
0a
1S
b0 g
bx ^
b110001100 ]
b11 j
b0 i
b0 M
b0 Q
b0 $
b1 k
b1 n
b110001100 R
b1000011 `
1d
1r
1U
b0 _
b100 f
b1 e
b10000 [
b10000 \
b0 9
b100000001000011111111111111100 T
1+
#50000
b110001100 <
b110001100 >
b110001100 ;
b110001100 o
b110001100 =
b110001100 p
0+
#55000
1A
b11000 #
b10000000011000 G
b110001100 <
b110001100 >
b1111100111010000 6
b110001000 %
b110001000 v
b110001100 N
1"
bx ;
bx o
bx =
bx p
15
b0 B
b0 q
b1000011 @
b11111111111111111111111111111100 J
b11111111111111111111111111111100 t
b10000000011000 -
0!
b0 7
b100 C
b100 l
b100 E
b100 m
b100 ?
b0 F
b11000 ,
b11000 :
b10100001000001111111111111100 .
b1 O
b11 k
b11 n
b0 R
b1100111 `
b100 j
bx i
bx M
1V
b110001100 Q
b110001100 $
b11111111111111111111111111111100 g
b110001100 ^
b100001000010000000011000 T
b10100 \
b1000000001110100 9
b10100 [
0U
b11111 _
b1 f
1+
#60000
0+
#65000
0A
1*
b111100 #
b1000011 I
b1000011 s
b1000011 N
b11111111111111111111111111111100 G
b0 =
b0 p
b1000110001001 6
0"
1(
b110001100 ;
b110001100 o
05
b1000011 %
b1000011 v
b1000011 J
b1000011 t
b110001000 <
b0 >
b11111110 @
b1000011 B
b1000011 q
b100 O
b11100 :
b11001000001100000100000 .
b1111111111111100 -
1'
b101 7
b1 C
b1 l
b0 E
b0 m
b11111 ?
b11111 F
b111100 ,
1a
0S
b11000 P
b11000 u
b10000000011000 g
1Z
b1 j
b110001100 i
b110001100 M
0V
b110001000 Q
b110001000 $
b100 k
b100 n
1W
b110001100 R
b1000011 `
b100 _
b100 f
b100 e
b11000 [
b11000 \
b1000 9
b10100001000001111111111111100 T
1+
#70000
0+
#75000
1A
b11111111111111111111111111111100 %
b11111111111111111111111111111100 v
b100000 #
b1000110001001 >
1"
b110001000 I
b110001000 s
b1100000100000 G
0*
b1000011 =
b1000011 p
b0 N
b1111100111100000 6
0(
b0 ;
b0 o
b110001000 B
b110001000 q
b0 <
bx @
b11111111111111111111111111111100 J
b11111111111111111111111111111100 t
b1100000100000 -
0'
b0 7
b11 C
b11 l
b100 E
b100 m
b11 ?
b0 F
b100000 ,
b1100 :
b10001100001001000000000000000000 .
b0 O
b1 k
b1 n
0W
b110001000 R
b11111110 `
b100 j
b1000011 i
b1000011 M
b1000110001001 Q
b1000110001001 $
0a
1S
b111100 P
b111100 u
b11111111111111111111111111111100 g
b0 ^
b110001000 ]
0Z
b11001000001100000100000 T
b11100 \
b110000010011100 9
b1000 [
0b
b11111 _
b0 f
b1 e
1+
#80000
0+
#85000
b0 I
b0 s
b0 G
b110001000 <
b0 6
b1000110001001 N
0"
b110001000 ;
b110001000 o
b1000110001001 %
b1000110001001 v
b1000110001001 J
b1000110001001 t
b1000011 >
b1000110001001 B
b1000110001001 q
b11 O
b10000 :
b100000001000011111111111111100 .
b0 -
10
12
b100011 7
b1 C
b1 l
b0 ?
b0 ,
1a
0S
b100000 P
b100000 u
b1100000100000 g
b1000110001001 ^
b0 ]
b0 j
b0 i
b0 M
b11111111111111111111111111111100 Q
b11111111111111111111111111111100 $
b100 k
b100 n
b1000110001001 R
bx `
0c
1b
b11 _
b100 f
b11 e
b1100 [
b1100 \
b1100 9
b10001100001001000000000000000000 T
1+
#90000
b1000110001001 >
b1000110001001 =
b1000110001001 p
0+
#95000
b11111111111111111111111111111100 G
b110001000 >
b110001000 %
b110001000 v
b110001000 I
b110001000 s
b110001000 =
b110001000 p
0K
b11111111111111111111111111111100 B
b11111111111111111111111111111100 q
b0 J
b0 t
b1111111111111100 -
00
02
1!
b1000 7
b1 E
b1 m
b11111 ?
b11111 F
b111100 ,
b10100 :
b100001000010000000011000 .
01
b100 O
b0 k
b0 n
b11111111111111111111111111111100 R
b11 j
b1000110001001 i
b1000110001001 M
b1000110001001 Q
b1000110001001 $
0a
1S
b0 g
b110001000 ]
b100000001000011111111111111100 T
b10000 \
b0 9
b10000 [
1U
b0 _
b1 e
1c
0d
0r
1+
#100000
0+
#105000
1A
b11000 #
b10000000011000 G
b110001000 <
b110001000 >
b1111100111100000 6
b110000100 %
b110000100 v
b110001000 N
1"
b1000110001001 ;
b1000110001001 o
b1000110001001 =
b1000110001001 p
15
b11111111111111111111111111111100 J
b11111111111111111111111111111100 t
b11111110 @
b1000110001001 B
b1000110001001 q
b1 O
b11000 :
b10100001000001111111111111100 .
b10000000011000 -
0!
b0 7
b100 C
b100 l
b100 E
b100 m
b100 ?
b0 F
b11000 ,
b11111111111111111111111111111100 g
b110001000 ^
b100 j
1V
b110001000 Q
b110001000 $
b11 k
b11 n
b1000110001001 R
1d
1r
0U
b11111 _
b1 f
b10100 [
b10100 \
b1000000001110100 9
b100001000010000000011000 T
1+
#110000
0+
#115000
0A
1*
b111100 #
b11111110 I
b11111110 s
b11111110 N
b11111111111111111111111111111100 G
b1111110000000100 6
0"
1(
b110001000 ;
b110001000 o
b0 =
b0 p
05
b11111110 B
b11111110 q
b110000100 <
b0 >
b11010 @
b11111110 %
b11111110 v
b11111110 J
b11111110 t
b1111111111111100 -
1'
b101 7
b1 C
b1 l
b0 E
b0 m
b11111 ?
b11111 F
b111100 ,
b11100 :
b11001000001100000100000 .
b100 O
b100 k
b100 n
1W
b110001000 R
b11111110 `
b1 j
b110001000 i
b110001000 M
0V
b110000100 Q
b110000100 $
1a
0S
b11000 P
b11000 u
b10000000011000 g
1Z
b10100001000001111111111111100 T
b11000 \
b1000 9
b11000 [
b100 _
b100 f
b100 e
1+
#120000
0+
#125000
1A
b11111111111111111111111111111100 %
b11111111111111111111111111111100 v
b100000 #
b1111110000000100 >
1"
b110000100 I
b110000100 s
b0 N
b1100000100000 G
0*
b11111110 =
b11111110 p
b1111100111110000 6
0(
b1000110001001 ;
b1000110001001 o
b11111111111111111111111111111100 J
b11111111111111111111111111111100 t
b1000110001001 <
bx @
b110000100 B
b110000100 q
b0 O
b1100 :
b10001100001001000000000000000000 .
b1100000100000 -
0'
b0 7
b11 C
b11 l
b100 E
b100 m
b11 ?
b0 F
b100000 ,
0a
1S
b111100 P
b111100 u
b11111111111111111111111111111100 g
b0 ^
b110000100 ]
0Z
b100 j
b11111110 i
b11111110 M
b1111110000000100 Q
b1111110000000100 $
b1 k
b1 n
0W
b110000100 R
b11010 `
0b
b11111 _
b0 f
b1 e
b1000 [
b11100 \
b110000010011100 9
b11001000001100000100000 T
1+
#130000
0+
#135000
b0 G
b110000100 <
b1000110001001 I
b1000110001001 s
b10001000100100 6
b1111110000000100 N
0"
b110000100 ;
b110000100 o
b1111110000000100 B
b1111110000000100 q
b11111110 >
b10000110110001101 %
b10000110110001101 v
b1111110000000100 J
b1111110000000100 t
b0 -
10
12
b100011 7
b1 C
b1 l
b0 ?
b0 ,
b10000 :
b100000001000011111111111111100 .
b11 O
b100 k
b100 n
b1111110000000100 R
bx `
b0 j
b0 i
b0 M
b11111111111111111111111111111100 Q
b11111111111111111111111111111100 $
1a
0S
b100000 P
b100000 u
b1100000100000 g
b1111110000000100 ^
b1000110001001 ]
b10001100001001000000000000000000 T
b1100 \
b1100 9
b1100 [
1b
b11 _
b100 f
b11 e
0c
1+
#140000
b1111110000000100 >
b1111110000000100 =
b1111110000000100 p
0+
#145000
b11111111111111111111111111111100 G
b110000100 >
b0 6
b110000100 %
b110000100 v
b110000100 I
b110000100 s
0K
b110000100 =
b110000100 p
b0 J
b0 t
b11111111111111111111111111111100 B
b11111111111111111111111111111100 q
01
b100 O
b10100 :
b100001000010000000011000 .
b1111111111111100 -
00
02
1!
b1000 7
b1 E
b1 m
b11111 ?
b11111 F
b111100 ,
0a
1S
b0 g
b110000100 ]
b11 j
b1111110000000100 i
b1111110000000100 M
b10000110110001101 Q
b10000110110001101 $
b0 k
b0 n
b11111111111111111111111111111100 R
0d
0r
1c
1U
b0 _
b1 e
b10000 [
b10000 \
b0 9
b100000001000011111111111111100 T
1+
#150000
0+
#155000
1A
b11000 #
b10000000011000 G
b110000100 <
b110000100 >
b1111100111110000 6
b110000000 %
b110000000 v
b110000100 N
1"
b1111110000000100 ;
b1111110000000100 o
b1111110000000100 =
b1111110000000100 p
15
b10000110110001101 B
b10000110110001101 q
b11010 @
b11111111111111111111111111111100 J
b11111111111111111111111111111100 t
b10000000011000 -
0!
b0 7
b100 C
b100 l
b100 E
b100 m
b100 ?
b0 F
b11000 ,
b11000 :
b10100001000001111111111111100 .
b1 O
b11 k
b11 n
b10000110110001101 R
b100 j
1V
b110000100 Q
b110000100 $
b11111111111111111111111111111100 g
b110000100 ^
b100001000010000000011000 T
b10100 \
b1000000001110100 9
b10100 [
0U
b11111 _
b1 f
1d
1r
1+
#160000
0+
#165000
0A
1*
b111100 #
b11010 I
b11010 s
b11010 N
b11111111111111111111111111111100 G
b1010100100 6
0"
1(
b110000100 ;
b110000100 o
b0 =
b0 p
05
b11010 %
b11010 v
b11010 J
b11010 t
b110000000 <
b0 >
b10 @
b11010 B
b11010 q
b100 O
b11100 :
b11001000001100000100000 .
b1111111111111100 -
1'
b101 7
b1 C
b1 l
b0 E
b0 m
b11111 ?
b11111 F
b111100 ,
1a
0S
b11000 P
b11000 u
b10000000011000 g
1Z
b1 j
b110000100 i
b110000100 M
0V
b110000000 Q
b110000000 $
b100 k
b100 n
1W
b110000100 R
b11010 `
b100 _
b100 f
b100 e
b11000 [
b11000 \
b1000 9
b10100001000001111111111111100 T
1+
#170000
0+
#175000
1A
b11111111111111111111111111111100 %
b11111111111111111111111111111100 v
b100000 #
b1010100100 >
1"
b110000000 I
b110000000 s
b1100000100000 G
0*
b11010 =
b11010 p
b0 N
b1111101000000000 6
0(
b10000110110001101 ;
b10000110110001101 o
b110000000 B
b110000000 q
b10000110110001101 <
bx @
b11111111111111111111111111111100 J
b11111111111111111111111111111100 t
b1100000100000 -
0'
b0 7
b11 C
b11 l
b100 E
b100 m
b11 ?
b0 F
b100000 ,
b1100 :
b10001100001001000000000000000000 .
b0 O
b1 k
b1 n
0W
b110000000 R
b10 `
b100 j
b11010 i
b11010 M
b1010100100 Q
b1010100100 $
0a
1S
b111100 P
b111100 u
b11111111111111111111111111111100 g
b0 ^
b110000000 ]
0Z
b11001000001100000100000 T
b11100 \
b110000010011100 9
b1000 [
0b
b11111 _
b0 f
b1 e
1+
#180000
0+
#185000
b10000110110001101 I
b10000110110001101 s
b0 G
b110000000 <
b1100100001010100 6
b1010100100 N
0"
b110000000 ;
b110000000 o
b10001000000110001 %
b10001000000110001 v
b1010100100 J
b1010100100 t
b11010 >
b1010100100 B
b1010100100 q
b11 O
b10000 :
b100000001000011111111111111100 .
b0 -
10
12
b100011 7
b1 C
b1 l
b0 ?
b0 ,
1a
0S
b100000 P
b100000 u
b1100000100000 g
b1010100100 ^
b10000110110001101 ]
b0 j
b0 i
b0 M
b11111111111111111111111111111100 Q
b11111111111111111111111111111100 $
b100 k
b100 n
b1010100100 R
bx `
0c
1b
b11 _
b100 f
b11 e
b1100 [
b1100 \
b1100 9
b10001100001001000000000000000000 T
1+
#190000
b1010100100 >
b1010100100 =
b1010100100 p
0+
#195000
b11111111111111111111111111111100 G
b110000000 >
b0 6
b110000000 %
b110000000 v
b110000000 I
b110000000 s
b110000000 =
b110000000 p
0K
b11111111111111111111111111111100 B
b11111111111111111111111111111100 q
b0 J
b0 t
b1111111111111100 -
00
02
1!
b1000 7
b1 E
b1 m
b11111 ?
b11111 F
b111100 ,
b10100 :
b100001000010000000011000 .
01
b100 O
b0 k
b0 n
b11111111111111111111111111111100 R
b11 j
b1010100100 i
b1010100100 M
b10001000000110001 Q
b10001000000110001 $
0a
1S
b0 g
b110000000 ]
b100000001000011111111111111100 T
b10000 \
b0 9
b10000 [
1U
b0 _
b1 e
1c
0d
0r
1+
#200000
0+
#205000
1A
b11000 #
b10000000011000 G
b110000000 <
b110000000 >
b1111101000000000 6
b101111100 %
b101111100 v
b110000000 N
1"
b1010100100 ;
b1010100100 o
b1010100100 =
b1010100100 p
15
b11111111111111111111111111111100 J
b11111111111111111111111111111100 t
b10 @
b10001000000110001 B
b10001000000110001 q
b1 O
b11000 :
b10100001000001111111111111100 .
b10000000011000 -
0!
b0 7
b100 C
b100 l
b100 E
b100 m
b100 ?
b0 F
b11000 ,
b11111111111111111111111111111100 g
b110000000 ^
b100 j
1V
b110000000 Q
b110000000 $
b11 k
b11 n
b10001000000110001 R
1d
1r
0U
b11111 _
b1 f
b10100 [
b10100 \
b1000000001110100 9
b100001000010000000011000 T
1+
#210000
0+
#215000
0A
1*
b111100 #
b10 I
b10 s
b10 N
b11111111111111111111111111111100 G
b100 6
0"
1(
b110000000 ;
b110000000 o
b0 =
b0 p
05
b10 B
b10 q
b101111100 <
b0 >
b1011100 @
b10 %
b10 v
b10 J
b10 t
b1111111111111100 -
1'
b101 7
b1 C
b1 l
b0 E
b0 m
b11111 ?
b11111 F
b111100 ,
b11100 :
b11001000001100000100000 .
b100 O
b100 k
b100 n
1W
b110000000 R
b10 `
b1 j
b110000000 i
b110000000 M
0V
b101111100 Q
b101111100 $
1a
0S
b11000 P
b11000 u
b10000000011000 g
1Z
b10100001000001111111111111100 T
b11000 \
b1000 9
b11000 [
b100 _
b100 f
b100 e
1+
#220000
0+
#225000
1A
b11111111111111111111111111111100 %
b11111111111111111111111111111100 v
b100000 #
b100 >
1"
b101111100 I
b101111100 s
b0 N
b1100000100000 G
0*
b10 =
b10 p
b1111101000010000 6
0(
b10001000000110001 ;
b10001000000110001 o
b11111111111111111111111111111100 J
b11111111111111111111111111111100 t
b10001000000110001 <
b11000110 @
b101111100 B
b101111100 q
b0 O
b1100 :
b10001100001001000000000000000000 .
b1100000100000 -
0'
b0 7
b11 C
b11 l
b100 E
b100 m
b11 ?
b0 F
b100000 ,
0a
1S
b111100 P
b111100 u
b11111111111111111111111111111100 g
b0 ^
b101111100 ]
0Z
b100 j
b10 i
b10 M
b100 Q
b100 $
b1 k
b1 n
0W
b101111100 R
b1011100 `
0b
b11111 _
b0 f
b1 e
b1000 [
b11100 \
b110000010011100 9
b11001000001100000100000 T
1+
#230000
0+
#235000
b0 G
b101111100 <
b10001000000110001 I
b10001000000110001 s
b100000011000100 6
b100 N
0"
b101111100 ;
b101111100 o
b100 B
b100 q
b10 >
bx @
b10001000000110101 %
b10001000000110101 v
b100 J
b100 t
b0 -
10
12
b100011 7
b1 C
b1 l
b0 ?
b0 ,
b10000 :
b100000001000011111111111111100 .
b11 O
b100 k
b100 n
b100 R
b11000110 `
b0 j
b0 i
b0 M
b11111111111111111111111111111100 Q
b11111111111111111111111111111100 $
1a
0S
b100000 P
b100000 u
b1100000100000 g
b100 ^
b10001000000110001 ]
b10001100001001000000000000000000 T
b1100 \
b1100 9
b1100 [
1b
b11 _
b100 f
b11 e
0c
1+
#240000
b100 >
b100 =
b100 p
0+
#245000
b11111111111111111111111111111100 G
b101111100 >
b0 6
b101111100 %
b101111100 v
b101111100 I
b101111100 s
0K
b101111100 =
b101111100 p
b0 J
b0 t
b11111111111111111111111111111100 B
b11111111111111111111111111111100 q
01
b100 O
b10100 :
b100001000010000000011000 .
b1111111111111100 -
00
02
1!
b1000 7
b1 E
b1 m
b11111 ?
b11111 F
b111100 ,
0a
1S
b0 g
b101111100 ]
b11 j
b100 i
b100 M
b10001000000110101 Q
b10001000000110101 $
b0 k
b0 n
b11111111111111111111111111111100 R
bx `
0d
0r
1c
1U
b0 _
b1 e
b10000 [
b10000 \
b0 9
b100000001000011111111111111100 T
1+
#250000
0+
#255000
1A
b11000 #
b10000000011000 G
b101111100 <
b101111100 >
b1111101000010000 6
b101111000 %
b101111000 v
b101111100 N
1"
b100 ;
b100 o
b100 =
b100 p
15
b10001000000110101 B
b10001000000110101 q
b1011100 @
b11111111111111111111111111111100 J
b11111111111111111111111111111100 t
b10000000011000 -
0!
b0 7
b100 C
b100 l
b100 E
b100 m
b100 ?
b0 F
b11000 ,
b11000 :
b10100001000001111111111111100 .
b1 O
b11 k
b11 n
b10001000000110101 R
b100 j
1V
b101111100 Q
b101111100 $
b11111111111111111111111111111100 g
b101111100 ^
b100001000010000000011000 T
b10100 \
b1000000001110100 9
b10100 [
0U
b11111 _
b1 f
1d
1r
1+
#260000
0+
#265000
0A
1*
b111100 #
b1011100 I
b1011100 s
b1011100 N
b11111111111111111111111111111100 G
b10000100010000 6
0"
1(
b101111100 ;
b101111100 o
b0 =
b0 p
05
b1011100 %
b1011100 v
b1011100 J
b1011100 t
b101111000 <
b0 >
b11011011 @
b1011100 B
b1011100 q
b100 O
b11100 :
b11001000001100000100000 .
b1111111111111100 -
1'
b101 7
b1 C
b1 l
b0 E
b0 m
b11111 ?
b11111 F
b111100 ,
1a
0S
b11000 P
b11000 u
b10000000011000 g
1Z
b1 j
b101111100 i
b101111100 M
0V
b101111000 Q
b101111000 $
b100 k
b100 n
1W
b101111100 R
b1011100 `
b100 _
b100 f
b100 e
b11000 [
b11000 \
b1000 9
b10100001000001111111111111100 T
1+
#270000
0+
#275000
1A
b11111111111111111111111111111100 %
b11111111111111111111111111111100 v
b100000 #
b10000100010000 >
1"
b101111000 I
b101111000 s
b1100000100000 G
0*
b1011100 =
b1011100 p
b0 N
b1111101000100000 6
0(
b10001000000110101 ;
b10001000000110101 o
b101111000 B
b101111000 q
b10001000000110101 <
bx @
b11111111111111111111111111111100 J
b11111111111111111111111111111100 t
b1100000100000 -
0'
b0 7
b11 C
b11 l
b100 E
b100 m
b11 ?
b0 F
b100000 ,
b1100 :
b10001100001001000000000000000000 .
b0 O
b1 k
b1 n
0W
b101111000 R
b11011011 `
b100 j
b1011100 i
b1011100 M
b10000100010000 Q
b10000100010000 $
0a
1S
b111100 P
b111100 u
b11111111111111111111111111111100 g
b0 ^
b101111000 ]
0Z
b11001000001100000100000 T
b11100 \
b110000010011100 9
b1000 [
0b
b11111 _
b0 f
b1 e
1+
#280000
0+
#285000
b10001000000110101 I
b10001000000110101 s
b0 G
b101111000 <
b1101100001010000 6
b10000100010000 N
0"
b101111000 ;
b101111000 o
b10011000101000101 %
b10011000101000101 v
b10000100010000 J
b10000100010000 t
b1011100 >
b10000100010000 B
b10000100010000 q
b11 O
b10000 :
b100000001000011111111111111100 .
b0 -
10
12
b100011 7
b1 C
b1 l
b0 ?
b0 ,
1a
0S
b100000 P
b100000 u
b1100000100000 g
b10000100010000 ^
b10001000000110101 ]
b0 j
b0 i
b0 M
b11111111111111111111111111111100 Q
b11111111111111111111111111111100 $
b100 k
b100 n
b10000100010000 R
bx `
0c
1b
b11 _
b100 f
b11 e
b1100 [
b1100 \
b1100 9
b10001100001001000000000000000000 T
1+
#290000
b10000100010000 >
b10000100010000 =
b10000100010000 p
0+
#295000
b11111111111111111111111111111100 G
b101111000 >
b0 6
b101111000 %
b101111000 v
b101111000 I
b101111000 s
b101111000 =
b101111000 p
0K
b11111111111111111111111111111100 B
b11111111111111111111111111111100 q
b0 J
b0 t
b1111111111111100 -
00
02
1!
b1000 7
b1 E
b1 m
b11111 ?
b11111 F
b111100 ,
b10100 :
b100001000010000000011000 .
01
b100 O
b0 k
b0 n
b11111111111111111111111111111100 R
b11 j
b10000100010000 i
b10000100010000 M
b10011000101000101 Q
b10011000101000101 $
0a
1S
b0 g
b101111000 ]
b100000001000011111111111111100 T
b10000 \
b0 9
b10000 [
1U
b0 _
b1 e
1c
0d
0r
1+
#300000
0+
#305000
1A
b11000 #
b10000000011000 G
b101111000 <
b101111000 >
b1111101000100000 6
b101110100 %
b101110100 v
b101111000 N
1"
b10000100010000 ;
b10000100010000 o
b10000100010000 =
b10000100010000 p
15
b11111111111111111111111111111100 J
b11111111111111111111111111111100 t
b11011011 @
b10011000101000101 B
b10011000101000101 q
b1 O
b11000 :
b10100001000001111111111111100 .
b10000000011000 -
0!
b0 7
b100 C
b100 l
b100 E
b100 m
b100 ?
b0 F
b11000 ,
b11111111111111111111111111111100 g
b101111000 ^
b100 j
1V
b101111000 Q
b101111000 $
b11 k
b11 n
b10011000101000101 R
1d
1r
0U
b11111 _
b1 f
b10100 [
b10100 \
b1000000001110100 9
b100001000010000000011000 T
1+
#310000
0+
#315000
0A
1*
b111100 #
b11011011 I
b11011011 s
b11011011 N
b11111111111111111111111111111100 G
b1011101101011001 6
0"
1(
b101111000 ;
b101111000 o
b0 =
b0 p
05
b11011011 B
b11011011 q
b101110100 <
b0 >
b11000 @
b11011011 %
b11011011 v
b11011011 J
b11011011 t
b1111111111111100 -
1'
b101 7
b1 C
b1 l
b0 E
b0 m
b11111 ?
b11111 F
b111100 ,
b11100 :
b11001000001100000100000 .
b100 O
b100 k
b100 n
1W
b101111000 R
b11011011 `
b1 j
b101111000 i
b101111000 M
0V
b101110100 Q
b101110100 $
1a
0S
b11000 P
b11000 u
b10000000011000 g
1Z
b10100001000001111111111111100 T
b11000 \
b1000 9
b11000 [
b100 _
b100 f
b100 e
1+
#320000
0+
#325000
1A
b11111111111111111111111111111100 %
b11111111111111111111111111111100 v
b100000 #
b1011101101011001 >
1"
b101110100 I
b101110100 s
b0 N
b1100000100000 G
0*
b11011011 =
b11011011 p
b1111101000110000 6
0(
b10011000101000101 ;
b10011000101000101 o
b11111111111111111111111111111100 J
b11111111111111111111111111111100 t
b10011000101000101 <
bx @
b101110100 B
b101110100 q
b0 O
b1100 :
b10001100001001000000000000000000 .
b1100000100000 -
0'
b0 7
b11 C
b11 l
b100 E
b100 m
b11 ?
b0 F
b100000 ,
0a
1S
b111100 P
b111100 u
b11111111111111111111111111111100 g
b0 ^
b101110100 ]
0Z
b100 j
b11011011 i
b11011011 M
b1011101101011001 Q
b1011101101011001 $
b1 k
b1 n
0W
b101110100 R
b11000 `
0b
b11111 _
b0 f
b1 e
b1000 [
b11100 \
b110000010011100 9
b11001000001100000100000 T
1+
#330000
0+
#335000
b0 G
b101110100 <
b10011000101000101 I
b10011000101000101 s
b1000011111111101 6
b1011101101011001 N
0"
b101110100 ;
b101110100 o
b1011101101011001 B
b1011101101011001 q
b11011011 >
b11110110010011110 %
b11110110010011110 v
b1011101101011001 J
b1011101101011001 t
b0 -
10
12
b100011 7
b1 C
b1 l
b0 ?
b0 ,
b10000 :
b100000001000011111111111111100 .
b11 O
b100 k
b100 n
b1011101101011001 R
bx `
b0 j
b0 i
b0 M
b11111111111111111111111111111100 Q
b11111111111111111111111111111100 $
1a
0S
b100000 P
b100000 u
b1100000100000 g
b1011101101011001 ^
b10011000101000101 ]
b10001100001001000000000000000000 T
b1100 \
b1100 9
b1100 [
1b
b11 _
b100 f
b11 e
0c
1+
#340000
b1011101101011001 >
b1011101101011001 =
b1011101101011001 p
0+
#345000
b11111111111111111111111111111100 G
b101110100 >
b0 6
b101110100 %
b101110100 v
b101110100 I
b101110100 s
0K
b101110100 =
b101110100 p
b0 J
b0 t
b11111111111111111111111111111100 B
b11111111111111111111111111111100 q
01
b100 O
b10100 :
b100001000010000000011000 .
b1111111111111100 -
00
02
1!
b1000 7
b1 E
b1 m
b11111 ?
b11111 F
b111100 ,
0a
1S
b0 g
b101110100 ]
b11 j
b1011101101011001 i
b1011101101011001 M
b11110110010011110 Q
b11110110010011110 $
b0 k
b0 n
b11111111111111111111111111111100 R
0d
0r
1c
1U
b0 _
b1 e
b10000 [
b10000 \
b0 9
b100000001000011111111111111100 T
1+
#350000
0+
