prog_grade/mipse.vcd
$date
	Tue Aug  2 13:30:33 2016
$end
$version
	Icarus Verilog
$end
$timescale
	1ps
$end
$scope module test_mipse $end
$scope module mipse_1 $end
$var wire 1 ! addi_opD $end
$var wire 1 " alu_opD $end
$var wire 6 # alucomD [5:0] $end
$var wire 32 $ aluout [31:0] $end
$var wire 32 % aluoutE [31:0] $end
$var wire 1 & beq_opD $end
$var wire 1 ' bne_opD $end
$var wire 1 ( branchD $end
$var wire 1 ) branchstall $end
$var wire 1 * btakenD $end
$var wire 1 + clk $end
$var wire 6 , funcD [5:0] $end
$var wire 1 - grade_opD $end
$var wire 3 . gradeoutE [2:0] $end
$var wire 16 / immD [15:0] $end
$var wire 32 0 instr [31:0] $end
$var wire 1 1 lui_opD $end
$var wire 1 2 lw_opD $end
$var wire 1 3 lwstall $end
$var wire 1 4 memtoregD $end
$var wire 1 5 memwrite $end
$var wire 1 6 memwriteD $end
$var wire 1 7 mult_opD $end
$var wire 32 8 multoutE [31:0] $end
$var wire 6 9 opcodeD [5:0] $end
$var wire 1 : ori_opD $end
$var wire 32 ; pcbranchD [31:0] $end
$var wire 32 < pcplus4F [31:0] $end
$var wire 32 = rd1D [31:0] $end
$var wire 32 > rd1fD [31:0] $end
$var wire 32 ? rd2D [31:0] $end
$var wire 32 @ rd2fD [31:0] $end
$var wire 5 A rdD [4:0] $end
$var wire 32 B readdata [31:0] $end
$var wire 1 C regwriteD $end
$var wire 32 D resultW [31:0] $end
$var wire 5 E rsD [4:0] $end
$var wire 1 F rst_n $end
$var wire 5 G rtD [4:0] $end
$var wire 5 H shamtD [4:0] $end
$var wire 32 I signimmD [31:0] $end
$var wire 1 J slti_opD $end
$var wire 32 K srcaE [31:0] $end
$var wire 32 L srcbE [31:0] $end
$var wire 1 M stall $end
$var wire 1 N sw_opD $end
$var wire 32 O writedata [31:0] $end
$var wire 32 P writedataE [31:0] $end
$var wire 5 Q writeregE [4:0] $end
$var reg 6 R alucomE [5:0] $end
$var reg 32 S aluoutM [31:0] $end
$var reg 32 T aluoutW [31:0] $end
$var reg 1 U alusrcE $end
$var reg 1 V grade_opE $end
$var reg 32 W instrD [31:0] $end
$var reg 1 X memtoregE $end
$var reg 1 Y memtoregM $end
$var reg 1 Z memtoregW $end
$var reg 1 [ memwriteE $end
$var reg 1 \ memwriteM $end
$var reg 1 ] mult_opE $end
$var reg 32 ^ pc [31:0] $end
$var reg 32 _ pcplus4D [31:0] $end
$var reg 32 ` rd1E [31:0] $end
$var reg 32 a rd2E [31:0] $end
$var reg 5 b rdE [4:0] $end
$var reg 32 c readdataW [31:0] $end
$var reg 1 d regdstE $end
$var reg 1 e regwriteE $end
$var reg 1 f regwriteM $end
$var reg 1 g regwriteW $end
$var reg 5 h rsE [4:0] $end
$var reg 5 i rtE [4:0] $end
$var reg 32 j signimmE [31:0] $end
$var reg 1 k slti_opE $end
$var reg 32 l writedataM [31:0] $end
$var reg 5 m writeregM [4:0] $end
$var reg 5 n writeregW [4:0] $end
$scope module rfile_1 $end
$var wire 5 o a1 [4:0] $end
$var wire 5 p a2 [4:0] $end
$var wire 5 q a3 [4:0] $end
$var wire 1 + clk $end
$var wire 32 r rd1 [31:0] $end
$var wire 32 s rd2 [31:0] $end
$var wire 32 t wd3 [31:0] $end
$var wire 1 u we3 $end
$upscope $end
$scope module alu_1 $end
$var wire 32 v a [31:0] $end
$var wire 32 w b [31:0] $end
$var wire 6 x s [5:0] $end
$var wire 32 y y [31:0] $end
$var wire 1 z zero $end
$upscope $end
$upscope $end
$upscope $end
$enddefinitions $end
#0
$dumpvars
xz
bx y
bx x
bx w
bx v
0u
bx t
b0 s
b0 r
bx q
b0 p
b0 o
bx n
bx m
bx l
xk
bx j
b0 i
b0 h
0g
0f
0e
xd
bx c
b0 b
bx a
bx `
b0 _
b0 ^
x]
0\
0[
xZ
xY
0X
b0 W
xV
xU
bx T
bx S
bx R
b0 Q
bx P
bx O
0N
0M
bx L
bx K
0J
b0 I
b0 H
b0 G
0F
b0 E
bx D
0C
bx B
b0 A
b0 @
b0 ?
b0 >
b0 =
b100 <
b0 ;
0:
b0 9
bx 8
07
06
05
04
03
02
01
b10001100000000110000000000000000 0
b0 /
bx .
0-
b0 ,
0+
0*
0)
0(
0'
0&
bx %
bx $
b0 #
0"
0!
$end
#5000
b1 .
b0 P
b0 8
b0 K
b0 v
1z
b0 %
b0 y
b0 L
b0 w
0d
1U
b0 R
b0 x
b0 j
b0 a
b0 `
0]
0V
0k
b0 m
0Y
1+
#10000
0+
#12000
1F
#15000
1C
b100000 #
bx @
bx ?
bx s
b1010011 B
12
14
b100011 9
b11 G
b11 p
b1000 <
b110000011001010000000000000000 0
b0 n
b0 q
0Z
b0 l
b0 O
b0 S
b0 $
b10001100000000110000000000000000 W
b100 _
b100 ;
b100 ^
1+
#20000
0+
#25000
bx >
bx =
bx r
bx P
1M
b0 D
b0 t
13
b11 Q
b1100 <
b10101100000001010000000110010000 0
02
04
1-
b1100 9
b11 E
b11 o
b101 G
b101 p
b100000 R
b100000 x
bx a
b0 T
b1010011 c
1e
1X
b11 i
b1000 ^
b1000 _
b1000 ;
b110000011001010000000000000000 W
1+
#30000
0+
#35000
b0 >
0M
03
b0 Q
b11 m
bx l
bx O
1Y
0e
0X
b0 i
1f
1+
#40000
0+
#45000
b100 .
0z
b1010011 %
b1010011 y
0C
b1010011 K
b1010011 v
b110010000 I
b100000 #
b0 =
b0 r
b0 >
b1010011 D
b1010011 t
b101 Q
b10000 <
b10001100000000110000000000000100 0
b110010000 /
1N
16
0-
b101011 9
b0 E
b0 o
b110 H
b10000 ,
1V
b0 m
0Y
b11 n
b11 q
1Z
1g
1u
0f
1e
b101 i
b11 h
b1100 ^
b1100 _
b11001001100 ;
b10101100000001010000000110010000 W
1+
#50000
0+
#55000
1C
b1 .
b100 I
b1010011 @
b0 K
b0 v
b100 P
b110010000 %
b110010000 y
b1010011 ?
b1010011 s
b0 D
b0 t
b1010110 B
b0 8
b110010000 L
b110010000 w
b100 /
0N
06
12
14
b100011 9
b11 G
b11 p
b0 H
b100 ,
b10100 <
b110000011001010000000000000000 0
b0 n
b0 q
0Z
b101 m
b100 S
b100 $
b110010000 j
0V
b10001100000000110000000000000100 W
b10000 _
b100000 ;
b10000 ^
1[
0e
b0 h
1f
0g
0u
1+
#60000
0+
#65000
b1010011 >
b0 I
b1010011 =
b1010011 r
bx @
b100 %
b100 y
1M
bx ?
bx s
b100 L
b100 w
b1010011 P
bx B
b100 D
b100 t
13
b11 Q
b11000 <
b10101100000001010000000110010100 0
b0 /
02
04
1-
b1100 9
b11 E
b11 o
b101 G
b101 p
b0 ,
b100 j
b1010011 a
b100 l
b100 O
b110010000 S
b110010000 $
b101 n
b101 q
b100 T
b1010110 c
1g
1u
1\
15
0f
0[
1e
1X
b11 i
b10100 ^
b10100 _
b10100 ;
b110000011001010000000000000000 W
1+
#70000
b100 @
b100 ?
b100 s
0+
#75000
b100 >
0M
b110010000 D
b110010000 t
03
b0 Q
b1010110 B
b110010000 T
bx c
b11 m
b1010011 l
b1010011 O
1Y
b100 S
b100 $
0e
0X
b0 i
0\
05
1f
0g
0u
1+
#80000
0+
#85000
0C
b101 .
b110010100 I
b100000 #
b1010110 %
b1010110 y
b100 P
b1010110 K
b1010110 v
b0 >
b0 =
b0 r
b0 L
b0 w
b1010110 D
b1010110 t
b101 Q
b11100 <
b10001100000000110000000000001000 0
b110010100 /
1N
16
0-
b101011 9
b0 E
b0 o
b110 H
b10100 ,
b0 j
b100 a
b100 `
1V
b0 m
0Y
b11 n
b11 q
1Z
b100 T
b1010110 c
1g
1u
0f
1e
b101 i
b11 h
b11000 ^
b11000 _
b11001101000 ;
b10101100000001010000000110010100 W
1+
#90000
0+
#95000
1C
b1 .
b1000 I
b1010110 @
b0 K
b0 v
b101 P
b110010100 %
b110010100 y
b1010110 ?
b1010110 s
b100 D
b100 t
b0 8
b110010100 L
b110010100 w
b1000 /
0N
06
12
14
b100011 9
b11 G
b11 p
b0 H
b1000 ,
b100000 <
b110000011001010000000000000000 0
b0 n
b0 q
0Z
b101 m
b100 l
b100 O
b101 S
b101 $
b110010100 j
b0 `
0V
b10001100000000110000000000001000 W
b11100 _
b111100 ;
b11100 ^
1[
0e
b0 h
1f
0g
0u
1+
#100000
0+
#105000
b1010110 >
b0 I
b1010110 =
b1010110 r
b100 @
b1000 %
b1000 y
1M
b100 ?
b100 s
b1000 L
b1000 w
b1010110 P
bx B
b101 D
b101 t
13
b11 Q
b100100 <
b10101100000001010000000110011000 0
b0 /
02
04
1-
b1100 9
b11 E
b11 o
b101 G
b101 p
b0 ,
b1000 j
b1010110 a
b101 l
b101 O
b110010100 S
b110010100 $
b101 n
b101 q
b101 T
1g
1u
1\
15
0f
0[
1e
1X
b11 i
b100000 ^
b100000 _
b100000 ;
b110000011001010000000000000000 W
1+
#110000
b101 @
b101 ?
b101 s
0+
#115000
b1000 >
0M
b101 @
b110010100 D
b110010100 t
03
b0 Q
b1001101 B
b110010100 T
bx c
b11 m
b1010110 l
b1010110 O
1Y
b1000 S
b1000 $
0e
0X
b0 i
0\
05
1f
0g
0u
1+
#120000
0+
#125000
b100 .
0C
b110011000 I
b100000 #
b1001101 %
b1001101 y
b101 P
b1001101 K
b1001101 v
b0 >
b0 =
b0 r
b0 L
b0 w
b1001101 D
b1001101 t
b101 Q
b101000 <
b10001100000000110000000000001100 0
b110011000 /
1N
16
0-
b101011 9
b0 E
b0 o
b110 H
b11000 ,
b0 j
b101 a
b1000 `
1V
b0 m
0Y
b11 n
b11 q
1Z
b1000 T
b1001101 c
1g
1u
0f
1e
b101 i
b11 h
b100100 ^
b100100 _
b11010000100 ;
b10101100000001010000000110011000 W
1+
#130000
0+
#135000
1C
b1 .
b1100 I
b1001101 @
b0 K
b0 v
b100 P
b110011000 %
b110011000 y
b1001101 ?
b1001101 s
b1000 D
b1000 t
b1010110 B
b0 8
b110011000 L
b110011000 w
b1100 /
0N
06
12
14
b100011 9
b11 G
b11 p
b0 H
b1100 ,
b101100 <
b110000011001010000000000000000 0
b0 n
b0 q
0Z
b101 m
b101 l
b101 O
b100 S
b100 $
b110011000 j
b0 `
0V
b10001100000000110000000000001100 W
b101000 _
b1011000 ;
b101000 ^
1[
0e
b0 h
1f
0g
0u
1+
#140000
0+
#145000
b1001101 >
b0 I
b1001101 =
b1001101 r
b101 @
b1100 %
b1100 y
1M
b101 ?
b101 s
b1100 L
b1100 w
b1001101 P
bx B
b100 D
b100 t
13
b11 Q
b110000 <
b10101100000001010000000110011100 0
b0 /
02
04
1-
b1100 9
b11 E
b11 o
b101 G
b101 p
b0 ,
b1100 j
b1001101 a
b100 l
b100 O
b110011000 S
b110011000 $
b101 n
b101 q
b100 T
b1010110 c
1g
1u
1\
15
0f
0[
1e
1X
b11 i
b101100 ^
b101100 _
b101100 ;
b110000011001010000000000000000 W
1+
#150000
b100 @
b100 ?
b100 s
0+
#155000
b1100 >
0M
b100 @
b110011000 D
b110011000 t
03
b0 Q
b1111 B
b110011000 T
bx c
b11 m
b1001101 l
b1001101 O
1Y
b1100 S
b1100 $
0e
0X
b0 i
0\
05
1f
0g
0u
1+
#160000
0+
#165000
b10 .
0C
b110011100 I
b100000 #
b1111 %
b1111 y
b100 P
b1111 K
b1111 v
b0 >
b0 =
b0 r
b0 L
b0 w
b1111 D
b1111 t
b101 Q
b110100 <
b10001100000000110000000000010000 0
b110011100 /
1N
16
0-
b101011 9
b0 E
b0 o
b110 H
b11100 ,
b0 j
b100 a
b1100 `
1V
b0 m
0Y
b11 n
b11 q
1Z
b1100 T
b1111 c
1g
1u
0f
1e
b101 i
b11 h
b110000 ^
b110000 _
b11010100000 ;
b10101100000001010000000110011100 W
1+
#170000
0+
#175000
b1 .
1C
b10000 I
b1111 @
b0 K
b0 v
b10 P
b110011100 %
b110011100 y
b1111 ?
b1111 s
b1100 D
b1100 t
b1010011 B
b0 8
b110011100 L
b110011100 w
b10000 /
0N
06
12
14
b100011 9
b11 G
b11 p
b0 H
b10000 ,
b111000 <
b110000011001010000000000000000 0
b0 n
b0 q
0Z
b101 m
b100 l
b100 O
b10 S
b10 $
b110011100 j
b0 `
0V
b10001100000000110000000000010000 W
b110100 _
b1110100 ;
b110100 ^
1[
0e
b0 h
1f
0g
0u
1+
#180000
0+
#185000
b1111 >
b0 I
b1111 =
b1111 r
b100 @
b10000 %
b10000 y
1M
b100 ?
b100 s
b10000 L
b10000 w
b1111 P
bx B
b10 D
b10 t
13
b11 Q
b111100 <
b10101100000001010000000110100000 0
b0 /
02
04
1-
b1100 9
b11 E
b11 o
b101 G
b101 p
b0 ,
b10000 j
b1111 a
b10 l
b10 O
b110011100 S
b110011100 $
b101 n
b101 q
b10 T
b1010011 c
1g
1u
1\
15
0f
0[
1e
1X
b11 i
b111000 ^
b111000 _
b111000 ;
b110000011001010000000000000000 W
1+
#190000
b10 @
b10 ?
b10 s
0+
#195000
b10000 >
0M
b10 @
b110011100 D
b110011100 t
03
b0 Q
b1011101 B
b110011100 T
bx c
b11 m
b1111 l
b1111 O
1Y
b10000 S
b10000 $
0e
0X
b0 i
0\
05
1f
0g
0u
1+
#200000
0+
#205000
0C
b101 .
b110100000 I
b100000 #
b1011101 %
b1011101 y
b10 P
b1011101 K
b1011101 v
b0 >
b0 =
b0 r
b0 L
b0 w
b1011101 D
b1011101 t
b101 Q
b1000000 <
b10001100000000110000000000010100 0
b110100000 /
1N
16
0-
b101011 9
b0 E
b0 o
b110 H
b100000 ,
b0 j
b10 a
b10000 `
1V
b0 m
0Y
b11 n
b11 q
1Z
b10000 T
b1011101 c
1g
1u
0f
1e
b101 i
b11 h
b111100 ^
b111100 _
b11010111100 ;
b10101100000001010000000110100000 W
1+
#210000
0+
#215000
1C
b1 .
b10100 I
b1011101 @
b0 K
b0 v
b101 P
b110100000 %
b110100000 y
b1011101 ?
b1011101 s
b10000 D
b10000 t
b1010110 B
b0 8
b110100000 L
b110100000 w
b10100 /
0N
06
12
14
b100011 9
b11 G
b11 p
b0 H
b10100 ,
b1000100 <
b110000011001010000000000000000 0
b0 n
b0 q
0Z
b101 m
b10 l
b10 O
b101 S
b101 $
b110100000 j
b0 `
0V
b10001100000000110000000000010100 W
b1000000 _
b10010000 ;
b1000000 ^
1[
0e
b0 h
1f
0g
0u
1+
#220000
0+
#225000
b1011101 >
b0 I
b1011101 =
b1011101 r
b10 @
b10100 %
b10100 y
1M
b10 ?
b10 s
b10100 L
b10100 w
b1011101 P
bx B
b101 D
b101 t
13
b11 Q
b1001000 <
b10101100000001010000000110100100 0
b0 /
02
04
1-
b1100 9
b11 E
b11 o
b101 G
b101 p
b0 ,
b10100 j
b1011101 a
b101 l
b101 O
b110100000 S
b110100000 $
b101 n
b101 q
b101 T
b1010110 c
1g
1u
1\
15
0f
0[
1e
1X
b11 i
b1000100 ^
b1000100 _
b1000100 ;
b110000011001010000000000000000 W
1+
#230000
b101 @
b101 ?
b101 s
0+
#235000
b10100 >
0M
b101 @
b110100000 D
b110100000 t
03
b0 Q
b100011 B
b110100000 T
bx c
b11 m
b1011101 l
b1011101 O
1Y
b10100 S
b10100 $
0e
0X
b0 i
0\
05
1f
0g
0u
1+
#240000
0+
#245000
b10 .
0C
b110100100 I
b100000 #
b100011 %
b100011 y
b101 P
b100011 K
b100011 v
b0 >
b0 =
b0 r
b0 L
b0 w
b100011 D
b100011 t
b101 Q
b1001100 <
b10001100000000110000000000011000 0
b110100100 /
1N
16
0-
b101011 9
b0 E
b0 o
b110 H
b100100 ,
b0 j
b101 a
b10100 `
1V
b0 m
0Y
b11 n
b11 q
1Z
b10100 T
b100011 c
1g
1u
0f
1e
b101 i
b11 h
b1001000 ^
b1001000 _
b11011011000 ;
b10101100000001010000000110100100 W
1+
#250000
0+
#255000
b1 .
1C
b11000 I
b100011 @
b0 K
b0 v
b10 P
b110100100 %
b110100100 y
b100011 ?
b100011 s
b10100 D
b10100 t
b1010011 B
b0 8
b110100100 L
b110100100 w
b11000 /
0N
06
12
14
b100011 9
b11 G
b11 p
b0 H
b11000 ,
b1010000 <
b110000011001010000000000000000 0
b0 n
b0 q
0Z
b101 m
b101 l
b101 O
b10 S
b10 $
b110100100 j
b0 `
0V
b10001100000000110000000000011000 W
b1001100 _
b10101100 ;
b1001100 ^
1[
0e
b0 h
1f
0g
0u
1+
#260000
0+
#265000
b100011 >
b0 I
b100011 =
b100011 r
b101 @
b11000 %
b11000 y
1M
b101 ?
b101 s
b11000 L
b11000 w
b100011 P
bx B
b10 D
b10 t
13
b11 Q
b1010100 <
b10101100000001010000000110101000 0
b0 /
02
04
1-
b1100 9
b11 E
b11 o
b101 G
b101 p
b0 ,
b11000 j
b100011 a
b10 l
b10 O
b110100100 S
b110100100 $
b101 n
b101 q
b10 T
b1010011 c
1g
1u
1\
15
0f
0[
1e
1X
b11 i
b1010000 ^
b1010000 _
b1010000 ;
b110000011001010000000000000000 W
1+
#270000
b10 @
b10 ?
b10 s
0+
#275000
b11000 >
0M
b10 @
b110100100 D
b110100100 t
03
b0 Q
b1010110 B
b110100100 T
bx c
b11 m
b100011 l
b100011 O
1Y
b11000 S
b11000 $
0e
0X
b0 i
0\
05
1f
0g
0u
1+
#280000
0+
#285000
0C
b101 .
b110101000 I
b100000 #
b1010110 %
b1010110 y
b10 P
b1010110 K
b1010110 v
b0 >
b0 =
b0 r
b0 L
b0 w
b1010110 D
b1010110 t
b101 Q
b1011000 <
b10001100000000110000000000011100 0
b110101000 /
1N
16
0-
b101011 9
b0 E
b0 o
b110 H
b101000 ,
b0 j
b10 a
b11000 `
1V
b0 m
0Y
b11 n
b11 q
1Z
b11000 T
b1010110 c
1g
1u
0f
1e
b101 i
b11 h
b1010100 ^
b1010100 _
b11011110100 ;
b10101100000001010000000110101000 W
1+
#290000
0+
#295000
1C
b1 .
b11100 I
b1010110 @
b0 K
b0 v
b101 P
b110101000 %
b110101000 y
b1010110 ?
b1010110 s
b11000 D
b11000 t
b0 8
b110101000 L
b110101000 w
b11100 /
0N
06
12
14
b100011 9
b11 G
b11 p
b0 H
b11100 ,
b1011100 <
b110000011001010000000000000000 0
b0 n
b0 q
0Z
b101 m
b10 l
b10 O
b101 S
b101 $
b110101000 j
b0 `
0V
b10001100000000110000000000011100 W
b1011000 _
b11001000 ;
b1011000 ^
1[
0e
b0 h
1f
0g
0u
1+
#300000
0+
#305000
b1010110 >
b0 I
b1010110 =
b1010110 r
b10 @
b11100 %
b11100 y
1M
b10 ?
b10 s
b11100 L
b11100 w
b1010110 P
bx B
b101 D
b101 t
13
b11 Q
b1100000 <
b10101100000001010000000110101100 0
b0 /
02
04
1-
b1100 9
b11 E
b11 o
b101 G
b101 p
b0 ,
b11100 j
b1010110 a
b101 l
b101 O
b110101000 S
b110101000 $
b101 n
b101 q
b101 T
1g
1u
1\
15
0f
0[
1e
1X
b11 i
b1011100 ^
b1011100 _
b1011100 ;
b110000011001010000000000000000 W
1+
#310000
b101 @
b101 ?
b101 s
0+
#315000
b11100 >
0M
b101 @
b110101000 D
b110101000 t
03
b0 Q
b1011100 B
b110101000 T
bx c
b11 m
b1010110 l
b1010110 O
1Y
b11100 S
b11100 $
0e
0X
b0 i
0\
05
1f
0g
0u
1+
#320000
0+
#325000
0C
b101 .
b110101100 I
b100000 #
b1011100 %
b1011100 y
b101 P
b1011100 K
b1011100 v
b0 >
b0 =
b0 r
b0 L
b0 w
b1011100 D
b1011100 t
b101 Q
b1100100 <
b10001100000000110000000000100000 0
b110101100 /
1N
16
0-
b101011 9
b0 E
b0 o
b110 H
b101100 ,
b0 j
b101 a
b11100 `
1V
b0 m
0Y
b11 n
b11 q
1Z
b11100 T
b1011100 c
1g
1u
0f
1e
b101 i
b11 h
b1100000 ^
b1100000 _
b11100010000 ;
b10101100000001010000000110101100 W
1+
#330000
0+
#335000
1C
b1 .
b100000 I
b1011100 @
b0 K
b0 v
b110101100 %
b110101100 y
b1011100 ?
b1011100 s
b11100 D
b11100 t
b1010110 B
b0 8
b110101100 L
b110101100 w
b100000 /
0N
06
12
14
b100011 9
b11 G
b11 p
b0 H
b100000 ,
b1101000 <
b110000011001010000000000000000 0
b0 n
b0 q
0Z
b101 m
b101 l
b101 O
b101 S
b101 $
b110101100 j
b0 `
0V
b10001100000000110000000000100000 W
b1100100 _
b11100100 ;
b1100100 ^
1[
0e
b0 h
1f
0g
0u
1+
#340000
0+
#345000
b1011100 >
b0 I
b1011100 =
b1011100 r
b101 @
b100000 %
b100000 y
b1011100 P
1M
b101 ?
b101 s
b100000 L
b100000 w
bx B
b101 D
b101 t
13
b11 Q
b1101100 <
b10101100000001010000000110110000 0
b0 /
02
04
1-
b1100 9
b11 E
b11 o
b101 G
b101 p
b0 ,
b100000 j
b1011100 a
b110101100 S
b110101100 $
b101 n
b101 q
b101 T
b1010110 c
1g
1u
1\
15
0f
0[
1e
1X
b11 i
b1101000 ^
b1101000 _
b1101000 ;
b110000011001010000000000000000 W
1+
#350000
0+
#355000
b100000 >
0M
b101 @
b110101100 D
b110101100 t
03
b0 Q
b110001 B
b110101100 T
bx c
b11 m
b1011100 l
b1011100 O
1Y
b100000 S
b100000 $
0e
0X
b0 i
0\
05
1f
0g
0u
1+
#360000
0+
#365000
b11 .
0C
b110110000 I
b100000 #
b110001 %
b110001 y
b101 P
b110001 K
b110001 v
b0 >
b0 =
b0 r
b0 L
b0 w
b110001 D
b110001 t
b101 Q
b1110000 <
b10001100000000110000000000100100 0
b110110000 /
1N
16
0-
b101011 9
b0 E
b0 o
b110 H
b110000 ,
b0 j
b101 a
b100000 `
1V
b0 m
0Y
b11 n
b11 q
1Z
b100000 T
b110001 c
1g
1u
0f
1e
b101 i
b11 h
b1101100 ^
b1101100 _
b11100101100 ;
b10101100000001010000000110110000 W
1+
#370000
0+
#375000
1C
b1 .
b100100 I
b110001 @
b0 K
b0 v
b11 P
b110110000 %
b110110000 y
b110001 ?
b110001 s
b100000 D
b100000 t
b1010011 B
b0 8
b110110000 L
b110110000 w
b100100 /
0N
06
12
14
b100011 9
b11 G
b11 p
b0 H
b100100 ,
b1110100 <
b110000011001010000000000000000 0
b0 n
b0 q
0Z
b101 m
b101 l
b101 O
b11 S
b11 $
b110110000 j
b0 `
0V
b10001100000000110000000000100100 W
b1110000 _
b100000000 ;
b1110000 ^
1[
0e
b0 h
1f
0g
0u
1+
#380000
0+
#385000
b110001 >
b0 I
b110001 =
b110001 r
b101 @
b100100 %
b100100 y
1M
b101 ?
b101 s
b100100 L
b100100 w
b110001 P
bx B
b11 D
b11 t
13
b11 Q
b1111000 <
b10101100000001010000000110110100 0
b0 /
02
04
1-
b1100 9
b11 E
b11 o
b101 G
b101 p
b0 ,
b100100 j
b110001 a
b11 l
b11 O
b110110000 S
b110110000 $
b101 n
b101 q
b11 T
b1010011 c
1g
1u
1\
15
0f
0[
1e
1X
b11 i
b1110100 ^
b1110100 _
b1110100 ;
b110000011001010000000000000000 W
1+
#390000
b11 @
b11 ?
b11 s
0+
#395000
b100100 >
0M
b11 @
b110110000 D
b110110000 t
03
b0 Q
b10101 B
b110110000 T
bx c
b11 m
b110001 l
b110001 O
1Y
b100100 S
b100100 $
0e
0X
b0 i
0\
05
1f
0g
0u
1+
#400000
0+
#405000
b10 .
0C
b110110100 I
b100000 #
b10101 %
b10101 y
b11 P
b10101 K
b10101 v
b0 >
b0 =
b0 r
b0 L
b0 w
b10101 D
b10101 t
b101 Q
b1111100 <
b10001100000000110000000000101000 0
b110110100 /
1N
16
0-
b101011 9
b0 E
b0 o
b110 H
b110100 ,
b0 j
b11 a
b100100 `
1V
b0 m
0Y
b11 n
b11 q
1Z
b100100 T
b10101 c
1g
1u
0f
1e
b101 i
b11 h
b1111000 ^
b1111000 _
b11101001000 ;
b10101100000001010000000110110100 W
1+
#410000
0+
#415000
b1 .
1C
b101000 I
b10101 @
b0 K
b0 v
b10 P
b110110100 %
b110110100 y
b10101 ?
b10101 s
b100100 D
b100100 t
b1010011 B
b0 8
b110110100 L
b110110100 w
b101000 /
0N
06
12
14
b100011 9
b11 G
b11 p
b0 H
b101000 ,
b10000000 <
b110000011001010000000000000000 0
b0 n
b0 q
0Z
b101 m
b11 l
b11 O
b10 S
b10 $
b110110100 j
b0 `
0V
b10001100000000110000000000101000 W
b1111100 _
b100011100 ;
b1111100 ^
1[
0e
b0 h
1f
0g
0u
1+
#420000
0+
#425000
b10101 >
b0 I
b10101 =
b10101 r
b11 @
b101000 %
b101000 y
1M
b11 ?
b11 s
b101000 L
b101000 w
b10101 P
bx B
b10 D
b10 t
13
b11 Q
b10000100 <
b10101100000001010000000110111000 0
b0 /
02
04
1-
b1100 9
b11 E
b11 o
b101 G
b101 p
b0 ,
b101000 j
b10101 a
b10 l
b10 O
b110110100 S
b110110100 $
b101 n
b101 q
b10 T
b1010011 c
1g
1u
1\
15
0f
0[
1e
1X
b11 i
b10000000 ^
b10000000 _
b10000000 ;
b110000011001010000000000000000 W
1+
#430000
b10 @
b10 ?
b10 s
0+
#435000
b101000 >
0M
b10 @
b110110100 D
b110110100 t
03
b0 Q
b111110 B
b110110100 T
bx c
b11 m
b10101 l
b10101 O
1Y
b101000 S
b101000 $
0e
0X
b0 i
0\
05
1f
0g
0u
1+
#440000
0+
#445000
b100 .
0C
b110111000 I
b100000 #
b111110 %
b111110 y
b10 P
b111110 K
b111110 v
b0 >
b0 =
b0 r
b0 L
b0 w
b111110 D
b111110 t
b101 Q
b10001000 <
b10001100000000110000000000101100 0
b110111000 /
1N
16
0-
b101011 9
b0 E
b0 o
b110 H
b111000 ,
b0 j
b10 a
b101000 `
1V
b0 m
0Y
b11 n
b11 q
1Z
b101000 T
b111110 c
1g
1u
0f
1e
b101 i
b11 h
b10000100 ^
b10000100 _
b11101100100 ;
b10101100000001010000000110111000 W
1+
#450000
0+
#455000
1C
b1 .
b101100 I
b111110 @
b0 K
b0 v
b100 P
b110111000 %
b110111000 y
b111110 ?
b111110 s
b101000 D
b101000 t
b1010110 B
b0 8
b110111000 L
b110111000 w
b101100 /
0N
06
12
14
b100011 9
b11 G
b11 p
b0 H
b101100 ,
b10001100 <
b110000011001010000000000000000 0
b0 n
b0 q
0Z
b101 m
b10 l
b10 O
b100 S
b100 $
b110111000 j
b0 `
0V
b10001100000000110000000000101100 W
b10001000 _
b100111000 ;
b10001000 ^
1[
0e
b0 h
1f
0g
0u
1+
#460000
0+
#465000
b111110 >
b0 I
b111110 =
b111110 r
b10 @
b101100 %
b101100 y
1M
b10 ?
b10 s
b101100 L
b101100 w
b111110 P
bx B
b100 D
b100 t
13
b11 Q
b10010000 <
b10101100000001010000000110111100 0
b0 /
02
04
1-
b1100 9
b11 E
b11 o
b101 G
b101 p
b0 ,
b101100 j
b111110 a
b100 l
b100 O
b110111000 S
b110111000 $
b101 n
b101 q
b100 T
b1010110 c
1g
1u
1\
15
0f
0[
1e
1X
b11 i
b10001100 ^
b10001100 _
b10001100 ;
b110000011001010000000000000000 W
1+
#470000
b100 @
b100 ?
b100 s
0+
#475000
b101100 >
0M
b100 @
b110111000 D
b110111000 t
03
b0 Q
b11011 B
b110111000 T
bx c
b11 m
b111110 l
b111110 O
1Y
b101100 S
b101100 $
0e
0X
b0 i
0\
05
1f
0g
0u
1+
#480000
0+
#485000
b10 .
0C
b110111100 I
b100000 #
b11011 %
b11011 y
b100 P
b11011 K
b11011 v
b0 >
b0 =
b0 r
b0 L
b0 w
b11011 D
b11011 t
b101 Q
b10010100 <
b10001100000000110000000000110000 0
b110111100 /
1N
16
0-
b101011 9
b0 E
b0 o
b110 H
b111100 ,
b0 j
b100 a
b101100 `
1V
b0 m
0Y
b11 n
b11 q
1Z
b101100 T
b11011 c
1g
1u
0f
1e
b101 i
b11 h
b10010000 ^
b10010000 _
b11110000000 ;
b10101100000001010000000110111100 W
1+
#490000
0+
#495000
b1 .
1C
b110000 I
b11011 @
b0 K
b0 v
b10 P
b110111100 %
b110111100 y
b11011 ?
b11011 s
b101100 D
b101100 t
b1010011 B
b0 8
b110111100 L
b110111100 w
b110000 /
0N
06
12
14
b100011 9
b11 G
b11 p
b0 H
b110000 ,
b10011000 <
b110000011001010000000000000000 0
b0 n
b0 q
0Z
b101 m
b100 l
b100 O
b10 S
b10 $
b110111100 j
b0 `
0V
b10001100000000110000000000110000 W
b10010100 _
b101010100 ;
b10010100 ^
1[
0e
b0 h
1f
0g
0u
1+
#500000
0+
#505000
b11011 >
b0 I
b11011 =
b11011 r
b100 @
b110000 %
b110000 y
1M
b100 ?
b100 s
b110000 L
b110000 w
b11011 P
bx B
b10 D
b10 t
13
b11 Q
b10011100 <
b10101100000001010000000111000000 0
b0 /
02
04
1-
b1100 9
b11 E
b11 o
b101 G
b101 p
b0 ,
b110000 j
b11011 a
b10 l
b10 O
b110111100 S
b110111100 $
b101 n
b101 q
b10 T
b1010011 c
1g
1u
1\
15
0f
0[
1e
1X
b11 i
b10011000 ^
b10011000 _
b10011000 ;
b110000011001010000000000000000 W
1+
#510000
b10 @
b10 ?
b10 s
0+
#515000
b110000 >
0M
b10 @
b110111100 D
b110111100 t
03
b0 Q
b1011010 B
b110111100 T
bx c
b11 m
b11011 l
b11011 O
1Y
b110000 S
b110000 $
0e
0X
b0 i
0\
05
1f
0g
0u
1+
#520000
0+
