prog_grade/mipse.vcd
$date
	Tue Aug  2 14:16:48 2016
$end
$version
	Icarus Verilog
$end
$timescale
	1ps
$end
$scope module test_mipse $end
$scope module mipse_1 $end
$var wire 1 ! addi_opD $end
$var wire 1 " alu_opD $end
$var wire 6 # alucomD [5:0] $end
$var wire 32 $ aluout [31:0] $end
$var wire 32 % aluoutE [31:0] $end
$var wire 1 & beq_opD $end
$var wire 1 ' bne_opD $end
$var wire 1 ( branchD $end
$var wire 1 ) branchstall $end
$var wire 1 * btakenD $end
$var wire 1 + clk $end
$var wire 6 , funcD [5:0] $end
$var wire 1 - grade_opD $end
$var wire 3 . gradeoutE [2:0] $end
$var wire 16 / immD [15:0] $end
$var wire 32 0 instr [31:0] $end
$var wire 1 1 lui_opD $end
$var wire 1 2 lw_opD $end
$var wire 1 3 lwstall $end
$var wire 1 4 memtoregD $end
$var wire 1 5 memwrite $end
$var wire 1 6 memwriteD $end
$var wire 1 7 mult_opD $end
$var wire 32 8 multoutE [31:0] $end
$var wire 6 9 opcodeD [5:0] $end
$var wire 1 : ori_opD $end
$var wire 32 ; pcbranchD [31:0] $end
$var wire 32 < pcplus4F [31:0] $end
$var wire 32 = rd1D [31:0] $end
$var wire 32 > rd1fD [31:0] $end
$var wire 32 ? rd2D [31:0] $end
$var wire 32 @ rd2fD [31:0] $end
$var wire 5 A rdD [4:0] $end
$var wire 32 B readdata [31:0] $end
$var wire 1 C regwriteD $end
$var wire 32 D resultW [31:0] $end
$var wire 5 E rsD [4:0] $end
$var wire 1 F rst_n $end
$var wire 5 G rtD [4:0] $end
$var wire 5 H shamtD [4:0] $end
$var wire 32 I signimmD [31:0] $end
$var wire 1 J slti_opD $end
$var wire 32 K srcaE [31:0] $end
$var wire 32 L srcbE [31:0] $end
$var wire 1 M stall $end
$var wire 1 N sw_opD $end
$var wire 32 O writedata [31:0] $end
$var wire 32 P writedataE [31:0] $end
$var wire 5 Q writeregE [4:0] $end
$var reg 6 R alucomE [5:0] $end
$var reg 32 S aluoutM [31:0] $end
$var reg 32 T aluoutW [31:0] $end
$var reg 1 U alusrcE $end
$var reg 1 V grade_opE $end
$var reg 32 W instrD [31:0] $end
$var reg 1 X memtoregE $end
$var reg 1 Y memtoregM $end
$var reg 1 Z memtoregW $end
$var reg 1 [ memwriteE $end
$var reg 1 \ memwriteM $end
$var reg 1 ] mult_opE $end
$var reg 32 ^ pc [31:0] $end
$var reg 32 _ pcplus4D [31:0] $end
$var reg 32 ` rd1E [31:0] $end
$var reg 32 a rd2E [31:0] $end
$var reg 5 b rdE [4:0] $end
$var reg 32 c readdataW [31:0] $end
$var reg 1 d regdstE $end
$var reg 1 e regwriteE $end
$var reg 1 f regwriteM $end
$var reg 1 g regwriteW $end
$var reg 5 h rsE [4:0] $end
$var reg 5 i rtE [4:0] $end
$var reg 32 j signimmE [31:0] $end
$var reg 1 k slti_opE $end
$var reg 32 l writedataM [31:0] $end
$var reg 5 m writeregM [4:0] $end
$var reg 5 n writeregW [4:0] $end
$scope module rfile_1 $end
$var wire 5 o a1 [4:0] $end
$var wire 5 p a2 [4:0] $end
$var wire 5 q a3 [4:0] $end
$var wire 1 + clk $end
$var wire 32 r rd1 [31:0] $end
$var wire 32 s rd2 [31:0] $end
$var wire 32 t wd3 [31:0] $end
$var wire 1 u we3 $end
$upscope $end
$scope module alu_1 $end
$var wire 32 v a [31:0] $end
$var wire 32 w b [31:0] $end
$var wire 6 x s [5:0] $end
$var wire 32 y y [31:0] $end
$var wire 1 z zero $end
$upscope $end
$upscope $end
$upscope $end
$enddefinitions $end
#0
$dumpvars
xz
bx y
bx x
bx w
bx v
0u
bx t
b0 s
b0 r
bx q
b0 p
b0 o
bx n
bx m
bx l
xk
bx j
b0 i
b0 h
0g
0f
0e
xd
bx c
b0 b
bx a
bx `
b0 _
b0 ^
x]
0\
0[
xZ
xY
0X
b0 W
xV
xU
bx T
bx S
bx R
b0 Q
bx P
bx O
0N
0M
bx L
bx K
0J
b0 I
b0 H
b0 G
0F
b0 E
bx D
0C
bx B
b0 A
b0 @
b0 ?
b0 >
b0 =
b100 <
b0 ;
0:
b0 9
bx 8
07
06
05
04
03
02
01
b10001100000000110000000000000000 0
b0 /
bx .
0-
b0 ,
0+
0*
0)
0(
0'
0&
bx %
bx $
b0 #
0"
0!
$end
#5000
b1 .
b0 P
b0 8
b0 K
b0 v
1z
b0 %
b0 y
b0 L
b0 w
0d
1U
b0 R
b0 x
b0 j
b0 a
b0 `
0]
0V
0k
b0 m
0Y
1+
#10000
0+
#12000
1F
#15000
1C
b100000 #
bx @
bx ?
bx s
b1010011 B
12
14
b100011 9
b11 G
b11 p
b1000 <
b10001100000000100000000000000100 0
b0 n
b0 q
0Z
b0 l
b0 O
b0 S
b0 $
b10001100000000110000000000000000 W
b100 _
b100 ;
b100 ^
1+
#20000
0+
#25000
bx .
b100 I
bx P
b0 D
b0 t
b11 Q
b1100 <
b10110000000000110000000110010000 0
b100 /
b10 G
b10 p
b100 ,
b100000 R
b100000 x
bx a
b0 T
b1010011 c
1e
1X
b11 i
b1000 ^
b1000 _
b11000 ;
b10001100000000100000000000000100 W
1+
#30000
0+
#35000
0C
b0 @
b110010000 I
0M
0z
b100 %
b100 y
16
03
b100 L
b100 w
b110010000 /
02
04
1-
b101100 9
b11 G
b11 p
b110 H
b10000 ,
b10000 <
b10001100000000110000000000001000 0
b10 Q
b11 m
bx l
bx O
1Y
b100 j
b10110000000000110000000110010000 W
b1100 _
b11001001100 ;
b1100 ^
b10 i
1f
1+
#40000
0+
#45000
1C
b100 .
b1000 I
b100000 #
b110010000 %
b110010000 y
b1010011 P
06
b110010000 L
b110010000 w
bx @
b1010110 B
b1010011 D
b1010011 t
b11 Q
b10100 <
b10110000000000100000000110010100 0
b1000 /
12
14
0-
b100011 9
b0 H
b1000 ,
b110010000 j
b0 a
1V
b10 m
b100 S
b100 $
b11 n
b11 q
1Z
1g
1u
1[
0e
0X
b11 i
b10000 ^
b10000 _
b110000 ;
b10001100000000110000000000001000 W
1+
#50000
b1010011 @
b1010011 ?
b1010011 s
0+
#55000
0C
b110010100 I
bx @
b1000 %
b1000 y
16
bx ?
bx s
0M
b1010110 D
b1010110 t
bx B
b1000 L
b1000 w
b110010100 /
02
04
1-
b101100 9
b10 G
b10 p
b110 H
b10100 ,
b11000 <
b10001100000000100000000000001100 0
03
b10 n
b10 q
b100 T
b1010110 c
b11 m
b100 l
b100 O
0Y
b110010000 S
b110010000 $
b1000 j
b1010011 a
0V
b10110000000000100000000110010100 W
b10100 _
b11001100100 ;
b10100 ^
0[
1e
1X
1\
15
0f
1+
#60000
b1010110 @
b1010110 ?
b1010110 s
0+
#65000
1C
b101 .
b1100 I
b100000 #
b110010100 %
b110010100 y
b1010110 P
06
b110010100 L
b110010100 w
b110010000 D
b110010000 t
b10 Q
b11100 <
b10110000000000110000000110011000 0
b1100 /
12
14
0-
b100011 9
b0 H
b1100 ,
b110010100 j
b1010110 a
1V
b1010011 l
b1010011 O
1Y
b1000 S
b1000 $
b11 n
b11 q
0Z
b110010000 T
bx c
b1001101 B
0g
0u
0\
05
1f
1[
0e
0X
b10 i
b11000 ^
b11000 _
b1001000 ;
b10001100000000100000000000001100 W
1+
#70000
0+
#75000
0C
b110011000 I
b1010011 @
b1100 %
b1100 y
16
b1010011 ?
b1010011 s
0M
b1001101 D
b1001101 t
bx B
b1100 L
b1100 w
b110011000 /
02
04
1-
b101100 9
b11 G
b11 p
b110 H
b11000 ,
b100000 <
b10001100000000110000000000010000 0
03
1Z
b1000 T
b1001101 c
b10 m
b101 l
b101 O
0Y
b110010100 S
b110010100 $
b1100 j
0V
b10110000000000110000000110011000 W
b11100 _
b11001111100 ;
b11100 ^
0[
1e
1X
1\
15
0f
1g
1u
1+
#80000
b1001101 @
b1001101 ?
b1001101 s
0+
#85000
1C
b100 .
b10000 I
b100000 #
b110011000 %
b110011000 y
b1001101 P
06
b110011000 L
b110011000 w
b110010100 D
b110010100 t
b11 Q
b100100 <
b10110000000000100000000110011100 0
b10000 /
12
14
0-
b100011 9
b0 H
b10000 ,
b110011000 j
b1001101 a
1V
b1010110 l
b1010110 O
1Y
b1100 S
b1100 $
b10 n
b10 q
0Z
b110010100 T
bx c
b1111 B
0g
0u
0\
05
1f
1[
0e
0X
b11 i
b100000 ^
b100000 _
b1100000 ;
b10001100000000110000000000010000 W
1+
#90000
0+
#95000
0C
b110011100 I
b1010110 @
b10000 %
b10000 y
16
b1010110 ?
b1010110 s
0M
b1111 D
b1111 t
bx B
b10000 L
b10000 w
b110011100 /
02
04
1-
b101100 9
b10 G
b10 p
b110 H
b11100 ,
b101000 <
b10001100000000100000000000010100 0
03
1Z
b1100 T
b1111 c
b11 m
b100 l
b100 O
0Y
b110011000 S
b110011000 $
b10000 j
0V
b10110000000000100000000110011100 W
b100100 _
b11010010100 ;
b100100 ^
0[
1e
1X
1\
15
0f
1g
1u
1+
#100000
b1111 @
b1111 ?
b1111 s
0+
#105000
1C
b10 .
b10100 I
b100000 #
b110011100 %
b110011100 y
b1111 P
06
b110011100 L
b110011100 w
b110011000 D
b110011000 t
b10 Q
b101100 <
b10110000000000110000000110100000 0
b10100 /
12
14
0-
b100011 9
b0 H
b10100 ,
b110011100 j
b1111 a
1V
b1001101 l
b1001101 O
1Y
b10000 S
b10000 $
b11 n
b11 q
0Z
b110011000 T
bx c
b1011101 B
0g
0u
0\
05
1f
1[
0e
0X
b10 i
b101000 ^
b101000 _
b1111000 ;
b10001100000000100000000000010100 W
1+
#110000
0+
#115000
0C
b110100000 I
b1001101 @
b10100 %
b10100 y
16
b1001101 ?
b1001101 s
0M
b1011101 D
b1011101 t
bx B
b10100 L
b10100 w
b110100000 /
02
04
1-
b101100 9
b11 G
b11 p
b110 H
b100000 ,
b110000 <
b10001100000000110000000000011000 0
03
1Z
b10000 T
b1011101 c
b10 m
b10 l
b10 O
0Y
b110011100 S
b110011100 $
b10100 j
0V
b10110000000000110000000110100000 W
b101100 _
b11010101100 ;
b101100 ^
0[
1e
1X
1\
15
0f
1g
1u
1+
#120000
b1011101 @
b1011101 ?
b1011101 s
0+
#125000
1C
b101 .
b11000 I
b110100000 %
b110100000 y
b1011101 P
06
b110100000 L
b110100000 w
b110011100 D
b110011100 t
b11 Q
b110100 <
b10110000000000100000000110100100 0
b11000 /
12
14
0-
b100011 9
b0 H
b11000 ,
b110100000 j
b1011101 a
1V
b1111 l
b1111 O
1Y
b10100 S
b10100 $
b10 n
b10 q
0Z
b110011100 T
bx c
b100011 B
0g
0u
0\
05
1f
1[
0e
0X
b11 i
b110000 ^
b110000 _
b10010000 ;
b10001100000000110000000000011000 W
1+
#130000
0+
#135000
0C
b110100100 I
b1111 @
b11000 %
b11000 y
16
b1111 ?
b1111 s
0M
b100011 D
b100011 t
bx B
b11000 L
b11000 w
b110100100 /
02
04
1-
b101100 9
b10 G
b10 p
b110 H
b100100 ,
b111000 <
b10001100000000100000000000011100 0
03
1Z
b10100 T
b100011 c
b11 m
b101 l
b101 O
0Y
b110100000 S
b110100000 $
b11000 j
0V
b10110000000000100000000110100100 W
b110100 _
b11011000100 ;
b110100 ^
0[
1e
1X
1\
15
0f
1g
1u
1+
#140000
b100011 @
b100011 ?
b100011 s
0+
#145000
1C
b10 .
b11100 I
b100000 #
b110100100 %
b110100100 y
b100011 P
06
b110100100 L
b110100100 w
b110100000 D
b110100000 t
b10 Q
b111100 <
b10110000000000110000000110101000 0
b11100 /
12
14
0-
b100011 9
b0 H
b11100 ,
b110100100 j
b100011 a
1V
b1011101 l
b1011101 O
1Y
b11000 S
b11000 $
b11 n
b11 q
0Z
b110100000 T
bx c
b1010110 B
0g
0u
0\
05
1f
1[
0e
0X
b10 i
b111000 ^
b111000 _
b10101000 ;
b10001100000000100000000000011100 W
1+
#150000
0+
#155000
0C
b110101000 I
b1011101 @
b11100 %
b11100 y
16
b1011101 ?
b1011101 s
0M
b1010110 D
b1010110 t
bx B
b11100 L
b11100 w
b110101000 /
02
04
1-
b101100 9
b11 G
b11 p
b110 H
b101000 ,
b1000000 <
b10001100000000110000000000100000 0
03
1Z
b11000 T
b1010110 c
b10 m
b10 l
b10 O
0Y
b110100100 S
b110100100 $
b11100 j
0V
b10110000000000110000000110101000 W
b111100 _
b11011011100 ;
b111100 ^
0[
1e
1X
1\
15
0f
1g
1u
1+
#160000
b1010110 @
b1010110 ?
b1010110 s
0+
#165000
1C
b101 .
b100000 I
b100000 #
b110101000 %
b110101000 y
b1010110 P
06
b110101000 L
b110101000 w
b110100100 D
b110100100 t
b11 Q
b1000100 <
b10110000000000100000000110101100 0
b100000 /
12
14
0-
b100011 9
b0 H
b100000 ,
b110101000 j
b1010110 a
1V
b100011 l
b100011 O
1Y
b11100 S
b11100 $
b10 n
b10 q
0Z
b110100100 T
bx c
b1011100 B
0g
0u
0\
05
1f
1[
0e
0X
b11 i
b1000000 ^
b1000000 _
b11000000 ;
b10001100000000110000000000100000 W
1+
#170000
0+
#175000
0C
b110101100 I
b100011 @
b100000 %
b100000 y
16
b100011 ?
b100011 s
0M
b1011100 D
b1011100 t
bx B
b100000 L
b100000 w
b110101100 /
02
04
1-
b101100 9
b10 G
b10 p
b110 H
b101100 ,
b1001000 <
b10001100000000100000000000100100 0
03
1Z
b11100 T
b1011100 c
b11 m
b101 l
b101 O
0Y
b110101000 S
b110101000 $
b100000 j
0V
b10110000000000100000000110101100 W
b1000100 _
b11011110100 ;
b1000100 ^
0[
1e
1X
1\
15
0f
1g
1u
1+
#180000
b1011100 @
b1011100 ?
b1011100 s
0+
#185000
1C
b100100 I
b100000 #
b110101100 %
b110101100 y
b1011100 P
06
b110101100 L
b110101100 w
b110101000 D
b110101000 t
b10 Q
b1001100 <
b10110000000000110000000110110000 0
b100100 /
12
14
0-
b100011 9
b0 H
b100100 ,
b110101100 j
b1011100 a
1V
b1010110 l
b1010110 O
1Y
b100000 S
b100000 $
b11 n
b11 q
0Z
b110101000 T
bx c
b110001 B
0g
0u
0\
05
1f
1[
0e
0X
b10 i
b1001000 ^
b1001000 _
b11011000 ;
b10001100000000100000000000100100 W
1+
#190000
0+
#195000
0C
b110110000 I
b1010110 @
b100100 %
b100100 y
16
b1010110 ?
b1010110 s
0M
b110001 D
b110001 t
bx B
b100100 L
b100100 w
b110110000 /
02
04
1-
b101100 9
b11 G
b11 p
b110 H
b110000 ,
b1010000 <
b10001100000000110000000000101000 0
03
1Z
b100000 T
b110001 c
b10 m
b101 l
b101 O
0Y
b110101100 S
b110101100 $
b100100 j
0V
b10110000000000110000000110110000 W
b1001100 _
b11100001100 ;
b1001100 ^
0[
1e
1X
1\
15
0f
1g
1u
1+
#200000
b110001 @
b110001 ?
b110001 s
0+
#205000
1C
b11 .
b101000 I
b100000 #
b110110000 %
b110110000 y
b110001 P
06
b110110000 L
b110110000 w
b110101100 D
b110101100 t
b11 Q
b1010100 <
b10110000000000100000000110110100 0
b101000 /
12
14
0-
b100011 9
b0 H
b101000 ,
b110110000 j
b110001 a
1V
b1011100 l
b1011100 O
1Y
b100100 S
b100100 $
b10 n
b10 q
0Z
b110101100 T
bx c
b10101 B
0g
0u
0\
05
1f
1[
0e
0X
b11 i
b1010000 ^
b1010000 _
b11110000 ;
b10001100000000110000000000101000 W
1+
#210000
0+
#215000
0C
b110110100 I
b1011100 @
b101000 %
b101000 y
16
b1011100 ?
b1011100 s
0M
b10101 D
b10101 t
bx B
b101000 L
b101000 w
b110110100 /
02
04
1-
b101100 9
b10 G
b10 p
b110 H
b110100 ,
b1011000 <
b10001100000000100000000000101100 0
03
1Z
b100100 T
b10101 c
b11 m
b11 l
b11 O
0Y
b110110000 S
b110110000 $
b101000 j
0V
b10110000000000100000000110110100 W
b1010100 _
b11100100100 ;
b1010100 ^
0[
1e
1X
1\
15
0f
1g
1u
1+
#220000
b10101 @
b10101 ?
b10101 s
0+
#225000
b10 .
1C
b101100 I
b100000 #
b110110100 %
b110110100 y
b10101 P
06
b110110100 L
b110110100 w
b110110000 D
b110110000 t
b10 Q
b1011100 <
b10110000000000110000000110111000 0
b101100 /
12
14
0-
b100011 9
b0 H
b101100 ,
b110110100 j
b10101 a
1V
b110001 l
b110001 O
1Y
b101000 S
b101000 $
b11 n
b11 q
0Z
b110110000 T
bx c
b111110 B
0g
0u
0\
05
1f
1[
0e
0X
b10 i
b1011000 ^
b1011000 _
b100001000 ;
b10001100000000100000000000101100 W
1+
#230000
0+
#235000
0C
b110111000 I
b110001 @
b101100 %
b101100 y
16
b110001 ?
b110001 s
0M
b111110 D
b111110 t
bx B
b101100 L
b101100 w
b110111000 /
02
04
1-
b101100 9
b11 G
b11 p
b110 H
b111000 ,
b1100000 <
b10001100000000110000000000110000 0
03
1Z
b101000 T
b111110 c
b10 m
b10 l
b10 O
0Y
b110110100 S
b110110100 $
b101100 j
0V
b10110000000000110000000110111000 W
b1011100 _
b11100111100 ;
b1011100 ^
0[
1e
1X
1\
15
0f
1g
1u
1+
#240000
b111110 @
b111110 ?
b111110 s
0+
#245000
1C
b100 .
b110000 I
b100000 #
b110111000 %
b110111000 y
b111110 P
06
b110111000 L
b110111000 w
b110110100 D
b110110100 t
b11 Q
b1100100 <
b10110000000000100000000110111100 0
b110000 /
12
14
0-
b100011 9
b0 H
b110000 ,
b110111000 j
b111110 a
1V
b10101 l
b10101 O
1Y
b101100 S
b101100 $
b10 n
b10 q
0Z
b110110100 T
bx c
b11011 B
0g
0u
0\
05
1f
1[
0e
0X
b11 i
b1100000 ^
b1100000 _
b100100000 ;
b10001100000000110000000000110000 W
1+
#250000
0+
#255000
0C
b110111100 I
b10101 @
b110000 %
b110000 y
16
b10101 ?
b10101 s
0M
b11011 D
b11011 t
bx B
b110000 L
b110000 w
b110111100 /
02
04
1-
b101100 9
b10 G
b10 p
b110 H
b111100 ,
b1101000 <
b10001100000000100000000000110100 0
03
1Z
b101100 T
b11011 c
b11 m
b100 l
b100 O
0Y
b110111000 S
b110111000 $
b110000 j
0V
b10110000000000100000000110111100 W
b1100100 _
b11101010100 ;
b1100100 ^
0[
1e
1X
1\
15
0f
1g
1u
1+
#260000
b11011 @
b11011 ?
b11011 s
0+
#265000
1C
b10 .
b110100 I
b100000 #
b110111100 %
b110111100 y
b11011 P
06
b110111100 L
b110111100 w
b110111000 D
b110111000 t
b10 Q
b1101100 <
b10110000000000110000000111000000 0
b110100 /
12
14
0-
b100011 9
b0 H
b110100 ,
b110111100 j
b11011 a
1V
b111110 l
b111110 O
1Y
b110000 S
b110000 $
b11 n
b11 q
0Z
b110111000 T
bx c
b1011010 B
0g
0u
0\
05
1f
1[
0e
0X
b10 i
b1101000 ^
b1101000 _
b100111000 ;
b10001100000000100000000000110100 W
1+
#270000
0+
#275000
0C
b111000000 I
b111110 @
b110100 %
b110100 y
16
b111110 ?
b111110 s
0M
b1011010 D
b1011010 t
bx B
b110100 L
b110100 w
b111000000 /
02
04
1-
b101100 9
b11 G
b11 p
b111 H
b0 ,
b1110000 <
b10001100000000110000000000111000 0
03
1Z
b110000 T
b1011010 c
b10 m
b10 l
b10 O
0Y
b110111100 S
b110111100 $
b110100 j
0V
b10110000000000110000000111000000 W
b1101100 _
b11101101100 ;
b1101100 ^
0[
1e
1X
1\
15
0f
1g
1u
1+
#280000
b1011010 @
b1011010 ?
b1011010 s
0+
#285000
1C
b101 .
b111000 I
b100000 #
b111000000 %
b111000000 y
b1011010 P
06
b111000000 L
b111000000 w
b110111100 D
b110111100 t
b11 Q
b1110100 <
b10110000000000100000000111000100 0
b111000 /
12
14
0-
b100011 9
b0 H
b111000 ,
b111000000 j
b1011010 a
1V
b11011 l
b11011 O
1Y
b110100 S
b110100 $
b10 n
b10 q
0Z
b110111100 T
bx c
b111011 B
0g
0u
0\
05
1f
1[
0e
0X
b11 i
b1110000 ^
b1110000 _
b101010000 ;
b10001100000000110000000000111000 W
1+
#290000
0+
#295000
0C
b111000100 I
b11011 @
b111000 %
b111000 y
16
b11011 ?
b11011 s
0M
b111011 D
b111011 t
bx B
b111000 L
b111000 w
b111000100 /
02
04
1-
b101100 9
b10 G
b10 p
b111 H
b100 ,
b1111000 <
b10001100000000100000000000111100 0
03
1Z
b110100 T
b111011 c
b11 m
b101 l
b101 O
0Y
b111000000 S
b111000000 $
b111000 j
0V
b10110000000000100000000111000100 W
b1110100 _
b11110000100 ;
b1110100 ^
0[
1e
1X
1\
15
0f
1g
1u
1+
#300000
b111011 @
b111011 ?
b111011 s
0+
#305000
1C
b11 .
b111100 I
b100000 #
b111000100 %
b111000100 y
b111011 P
06
b111000100 L
b111000100 w
b111000000 D
b111000000 t
b10 Q
b1111100 <
b10110000000000110000000111001000 0
b111100 /
12
14
0-
b100011 9
b0 H
b111100 ,
b111000100 j
b111011 a
1V
b1011010 l
b1011010 O
1Y
b111000 S
b111000 $
b11 n
b11 q
0Z
b111000000 T
bx c
b111111 B
0g
0u
0\
05
1f
1[
0e
0X
b10 i
b1111000 ^
b1111000 _
b101101000 ;
b10001100000000100000000000111100 W
1+
#310000
0+
#315000
0C
b111001000 I
b1011010 @
b111100 %
b111100 y
16
b1011010 ?
b1011010 s
0M
b111111 D
b111111 t
bx B
b111100 L
b111100 w
b111001000 /
02
04
1-
b101100 9
b11 G
b11 p
b111 H
b1000 ,
b10000000 <
b10001100000000110000000001000000 0
03
1Z
b111000 T
b111111 c
b10 m
b11 l
b11 O
0Y
b111000100 S
b111000100 $
b111100 j
0V
b10110000000000110000000111001000 W
b1111100 _
b11110011100 ;
b1111100 ^
0[
1e
1X
1\
15
0f
1g
1u
1+
#320000
b111111 @
b111111 ?
b111111 s
0+
#325000
1C
b100 .
b1000000 I
b100000 #
b111001000 %
b111001000 y
b111111 P
06
b111001000 L
b111001000 w
b111000100 D
b111000100 t
b11 Q
b10000100 <
b10110000000000100000000111001100 0
b1000000 /
12
14
0-
b100011 9
b1 H
b0 ,
b111001000 j
b111111 a
1V
b111011 l
b111011 O
1Y
b111100 S
b111100 $
b10 n
b10 q
0Z
b111000100 T
bx c
b11010 B
0g
0u
0\
05
1f
1[
0e
0X
b11 i
b10000000 ^
b10000000 _
b110000000 ;
b10001100000000110000000001000000 W
1+
#330000
0+
#335000
0C
b111001100 I
b111011 @
b1000000 %
b1000000 y
16
b111011 ?
b111011 s
0M
b11010 D
b11010 t
bx B
b1000000 L
b1000000 w
b111001100 /
02
04
1-
b101100 9
b10 G
b10 p
b111 H
b1100 ,
b10001000 <
b10001100000000100000000001000100 0
03
1Z
b111100 T
b11010 c
b11 m
b100 l
b100 O
0Y
b111001000 S
b111001000 $
b1000000 j
0V
b10110000000000100000000111001100 W
b10000100 _
b11110110100 ;
b10000100 ^
0[
1e
1X
1\
15
0f
1g
1u
1+
#340000
b11010 @
b11010 ?
b11010 s
0+
#345000
1C
b10 .
b1000100 I
b100000 #
b111001100 %
b111001100 y
b11010 P
06
b111001100 L
b111001100 w
b111001000 D
b111001000 t
b10 Q
b10001100 <
b10110000000000110000000111010000 0
b1000100 /
12
14
0-
b100011 9
b1 H
b100 ,
b111001100 j
b11010 a
1V
b111111 l
b111111 O
1Y
b1000000 S
b1000000 $
b11 n
b11 q
0Z
b111001000 T
bx c
b101000 B
0g
0u
0\
05
1f
1[
0e
0X
b10 i
b10001000 ^
b10001000 _
b110011000 ;
b10001100000000100000000001000100 W
1+
#350000
0+
#355000
0C
b111010000 I
b111111 @
b1000100 %
b1000100 y
16
b111111 ?
b111111 s
0M
b101000 D
b101000 t
bx B
b1000100 L
b1000100 w
b111010000 /
02
04
1-
b101100 9
b11 G
b11 p
b111 H
b10000 ,
b10010000 <
b10001100000000110000000001001000 0
03
1Z
b1000000 T
b101000 c
b10 m
b10 l
b10 O
0Y
b111001100 S
b111001100 $
b1000100 j
0V
b10110000000000110000000111010000 W
b10001100 _
b11111001100 ;
b10001100 ^
0[
1e
1X
1\
15
0f
1g
1u
1+
#360000
b101000 @
b101000 ?
b101000 s
0+
#365000
b11 .
1C
b1001000 I
b100000 #
b111010000 %
b111010000 y
b101000 P
06
b111010000 L
b111010000 w
b111001100 D
b111001100 t
b11 Q
b10010100 <
b10110000000000100000000111010100 0
b1001000 /
12
14
0-
b100011 9
b1 H
b1000 ,
b111010000 j
b101000 a
1V
b11010 l
b11010 O
1Y
b1000100 S
b1000100 $
b10 n
b10 q
0Z
b111001100 T
bx c
b11010 B
0g
0u
0\
05
1f
1[
0e
0X
b11 i
b10010000 ^
b10010000 _
b110110000 ;
b10001100000000110000000001001000 W
1+
#370000
0+
#375000
0C
b111010100 I
b11010 @
b1001000 %
b1001000 y
16
b11010 ?
b11010 s
0M
b11010 D
b11010 t
bx B
b1001000 L
b1001000 w
b111010100 /
02
04
1-
b101100 9
b10 G
b10 p
b111 H
b10100 ,
b10011000 <
b10001100000000100000000001001100 0
03
1Z
b1000100 T
b11010 c
b11 m
b11 l
b11 O
0Y
b111010000 S
b111010000 $
b1001000 j
0V
b10110000000000100000000111010100 W
b10010100 _
b11111100100 ;
b10010100 ^
0[
1e
1X
1\
15
0f
1g
1u
1+
#380000
0+
#385000
b10 .
1C
b1001100 I
b100000 #
b111010100 %
b111010100 y
b11010 P
06
b111010100 L
b111010100 w
b111010000 D
b111010000 t
b10 Q
b10011100 <
b10110000000000110000000111011000 0
b1001100 /
12
14
0-
b100011 9
b1 H
b1100 ,
b111010100 j
b11010 a
1V
b101000 l
b101000 O
1Y
b1001000 S
b1001000 $
b11 n
b11 q
0Z
b111010000 T
bx c
b1001000 B
0g
0u
0\
05
1f
1[
0e
0X
b10 i
b10011000 ^
b10011000 _
b111001000 ;
b10001100000000100000000001001100 W
1+
#390000
0+
#395000
0C
b111011000 I
b101000 @
b1001100 %
b1001100 y
16
b101000 ?
b101000 s
0M
b1001000 D
b1001000 t
bx B
b1001100 L
b1001100 w
b111011000 /
02
04
1-
b101100 9
b11 G
b11 p
b111 H
b11000 ,
b10100000 <
b10001100000000110000000001010000 0
03
1Z
b1001000 T
b1001000 c
b10 m
b10 l
b10 O
0Y
b111010100 S
b111010100 $
b1001100 j
0V
b10110000000000110000000111011000 W
b10011100 _
b11111111100 ;
b10011100 ^
0[
1e
1X
1\
15
0f
1g
1u
1+
#400000
b1001000 @
b1001000 ?
b1001000 s
0+
#405000
1C
b100 .
b1010000 I
b100000 #
b111011000 %
b111011000 y
b1001000 P
06
b111011000 L
b111011000 w
b111010100 D
b111010100 t
b11 Q
b10100100 <
b10110000000000100000000111011100 0
b1010000 /
12
14
0-
b100011 9
b1 H
b10000 ,
b111011000 j
b1001000 a
1V
b11010 l
b11010 O
1Y
b1001100 S
b1001100 $
b10 n
b10 q
0Z
b111010100 T
bx c
b100100 B
0g
0u
0\
05
1f
1[
0e
0X
b11 i
b10100000 ^
b10100000 _
b111100000 ;
b10001100000000110000000001010000 W
1+
#410000
0+
#415000
0C
b111011100 I
b11010 @
b1010000 %
b1010000 y
16
b11010 ?
b11010 s
0M
b100100 D
b100100 t
bx B
b1010000 L
b1010000 w
b111011100 /
02
04
1-
b101100 9
b10 G
b10 p
b111 H
b11100 ,
b10101000 <
b10001100000000100000000001010100 0
03
1Z
b1001100 T
b100100 c
b11 m
b100 l
b100 O
0Y
b111011000 S
b111011000 $
b1010000 j
0V
b10110000000000100000000111011100 W
b10100100 _
b100000010100 ;
b10100100 ^
0[
1e
1X
1\
15
0f
1g
1u
1+
#420000
b100100 @
b100100 ?
b100100 s
0+
#425000
1C
b10 .
b1010100 I
b100000 #
b111011100 %
b111011100 y
b100100 P
06
b111011100 L
b111011100 w
b111011000 D
b111011000 t
b10 Q
b10101100 <
b10110000000000110000000111100000 0
b1010100 /
12
14
0-
b100011 9
b1 H
b10100 ,
b111011100 j
b100100 a
1V
b1001000 l
b1001000 O
1Y
b1010000 S
b1010000 $
b11 n
b11 q
0Z
b111011000 T
bx c
b1011 B
0g
0u
0\
05
1f
1[
0e
0X
b10 i
b10101000 ^
b10101000 _
b111111000 ;
b10001100000000100000000001010100 W
1+
#430000
0+
#435000
0C
b111100000 I
b1001000 @
b1010100 %
b1010100 y
16
b1001000 ?
b1001000 s
0M
b1011 D
b1011 t
bx B
b1010100 L
b1010100 w
b111100000 /
02
04
1-
b101100 9
b11 G
b11 p
b111 H
b100000 ,
b10110000 <
b10001100000000110000000001011000 0
03
1Z
b1010000 T
b1011 c
b10 m
b10 l
b10 O
0Y
b111011100 S
b111011100 $
b1010100 j
0V
b10110000000000110000000111100000 W
b10101100 _
b100000101100 ;
b10101100 ^
0[
1e
1X
1\
15
0f
1g
1u
1+
#440000
b1011 @
b1011 ?
b1011 s
0+
#445000
1C
b1011000 I
b111100000 %
b111100000 y
b1011 P
06
b111100000 L
b111100000 w
b111011100 D
b111011100 t
b11 Q
b10110100 <
b10110000000000100000000111100100 0
b1011000 /
12
14
0-
b100011 9
b1 H
b11000 ,
b111100000 j
b1011 a
1V
b100100 l
b100100 O
1Y
b1010100 S
b1010100 $
b10 n
b10 q
0Z
b111011100 T
bx c
b1000100 B
0g
0u
0\
05
1f
1[
0e
0X
b11 i
b10110000 ^
b10110000 _
b1000010000 ;
b10001100000000110000000001011000 W
1+
#450000
0+
#455000
0C
b111100100 I
b100100 @
b1011000 %
b1011000 y
16
b100100 ?
b100100 s
0M
b1000100 D
b1000100 t
bx B
b1011000 L
b1011000 w
b111100100 /
02
04
1-
b101100 9
b10 G
b10 p
b111 H
b100100 ,
b10111000 <
b10001100000000100000000001011100 0
03
1Z
b1010100 T
b1000100 c
b11 m
b10 l
b10 O
0Y
b111100000 S
b111100000 $
b1011000 j
0V
b10110000000000100000000111100100 W
b10110100 _
b100001000100 ;
b10110100 ^
0[
1e
1X
1\
15
0f
1g
1u
1+
