prog_grade/mipse.vcd
$date
	Mon Aug  1 18:38:34 2016
$end
$version
	Icarus Verilog
$end
$timescale
	1ps
$end
$scope module test_mipse $end
$scope module mipse_1 $end
$var wire 1 ! addi_opD $end
$var wire 1 " alu_opD $end
$var wire 6 # alucomD [5:0] $end
$var wire 32 $ aluout [31:0] $end
$var wire 32 % aluoutE [31:0] $end
$var wire 1 & beq_opD $end
$var wire 1 ' bne_opD $end
$var wire 1 ( branchD $end
$var wire 1 ) branchstall $end
$var wire 1 * btakenD $end
$var wire 1 + clk $end
$var wire 6 , funcD [5:0] $end
$var wire 16 - immD [15:0] $end
$var wire 32 . instr [31:0] $end
$var wire 1 / lui_opD $end
$var wire 1 0 lw_opD $end
$var wire 1 1 lwstall $end
$var wire 1 2 memtoregD $end
$var wire 1 3 memwrite $end
$var wire 1 4 memwriteD $end
$var wire 6 5 opcodeD [5:0] $end
$var wire 1 6 ori_opD $end
$var wire 32 7 pcbranchD [31:0] $end
$var wire 32 8 pcplus4F [31:0] $end
$var wire 32 9 rd1D [31:0] $end
$var wire 32 : rd1fD [31:0] $end
$var wire 32 ; rd2D [31:0] $end
$var wire 32 < rd2fD [31:0] $end
$var wire 5 = rdD [4:0] $end
$var wire 32 > readdata [31:0] $end
$var wire 1 ? regwriteD $end
$var wire 32 @ resultW [31:0] $end
$var wire 5 A rsD [4:0] $end
$var wire 1 B rst_n $end
$var wire 5 C rtD [4:0] $end
$var wire 5 D shamtD [4:0] $end
$var wire 32 E signimmD [31:0] $end
$var wire 1 F slti_opD $end
$var wire 32 G srcaE [31:0] $end
$var wire 32 H srcbE [31:0] $end
$var wire 1 I stall $end
$var wire 1 J sw_opD $end
$var wire 32 K writedata [31:0] $end
$var wire 32 L writedataE [31:0] $end
$var wire 5 M writeregE [4:0] $end
$var reg 6 N alucomE [5:0] $end
$var reg 32 O aluoutM [31:0] $end
$var reg 32 P aluoutW [31:0] $end
$var reg 1 Q alusrcE $end
$var reg 32 R instrD [31:0] $end
$var reg 1 S memtoregE $end
$var reg 1 T memtoregM $end
$var reg 1 U memtoregW $end
$var reg 1 V memwriteE $end
$var reg 1 W memwriteM $end
$var reg 32 X pc [31:0] $end
$var reg 32 Y pcplus4D [31:0] $end
$var reg 32 Z rd1E [31:0] $end
$var reg 32 [ rd2E [31:0] $end
$var reg 5 \ rdE [4:0] $end
$var reg 32 ] readdataW [31:0] $end
$var reg 1 ^ regdstE $end
$var reg 1 _ regwriteE $end
$var reg 1 ` regwriteM $end
$var reg 1 a regwriteW $end
$var reg 5 b rsE [4:0] $end
$var reg 5 c rtE [4:0] $end
$var reg 32 d signimmE [31:0] $end
$var reg 1 e slti_opE $end
$var reg 32 f writedataM [31:0] $end
$var reg 5 g writeregM [4:0] $end
$var reg 5 h writeregW [4:0] $end
$scope module rfile_1 $end
$var wire 5 i a1 [4:0] $end
$var wire 5 j a2 [4:0] $end
$var wire 5 k a3 [4:0] $end
$var wire 1 + clk $end
$var wire 32 l rd1 [31:0] $end
$var wire 32 m rd2 [31:0] $end
$var wire 32 n wd3 [31:0] $end
$var wire 1 o we3 $end
$upscope $end
$scope module alu_1 $end
$var wire 32 p a [31:0] $end
$var wire 32 q b [31:0] $end
$var wire 6 r s [5:0] $end
$var wire 32 s y [31:0] $end
$var wire 1 t zero $end
$upscope $end
$upscope $end
$upscope $end
$enddefinitions $end
#0
$dumpvars
xt
bx s
bx r
bx q
bx p
0o
bx n
b0 m
b0 l
bx k
b0 j
b0 i
bx h
bx g
bx f
xe
bx d
b0 c
b0 b
0a
0`
0_
x^
bx ]
b0 \
bx [
bx Z
b0 Y
b0 X
0W
0V
xU
xT
0S
b0 R
xQ
bx P
bx O
bx N
b0 M
bx L
bx K
0J
0I
bx H
bx G
0F
b0 E
b0 D
b0 C
0B
b0 A
bx @
0?
bx >
b0 =
b0 <
b0 ;
b0 :
b0 9
b100 8
b0 7
06
b0 5
04
03
02
01
00
0/
b100000000000010000000110010000 .
b0 -
b0 ,
0+
0*
0)
0(
0'
0&
bx %
bx $
b0 #
0"
0!
$end
#5000
b0 L
b0 G
b0 p
1t
b0 %
b0 s
b0 H
b0 q
0^
1Q
b0 N
b0 r
b0 d
b0 [
b0 Z
0e
b0 g
0T
1+
#10000
0+
#12000
1B
#15000
1?
b100000 #
bx <
b110010000 E
bx ;
bx m
b1010011 >
b110010000 -
1!
b1000 5
b1 C
b1 j
b110 D
b10000 ,
b1000 8
b100000001000011111111111111100 .
b0 h
b0 k
0U
b0 f
b0 K
b0 O
b0 $
b100000000000010000000110010000 R
b100 Y
b11001000100 7
b100 X
1+
#20000
0+
#25000
bx :
b11111111111111111111111111111100 E
bx 9
bx l
bx L
0t
b110010000 %
b110010000 s
b110010000 H
b110010000 q
b0 @
b0 n
b1 M
b1100 8
b10001100001000110000000000000000 .
b1111111111111100 -
b1 A
b1 i
b11111 =
b11111 D
b111100 ,
b100000 N
b100000 r
b110010000 d
bx [
b0 P
b1010011 ]
1_
b1 c
b1000 X
b1000 Y
b11111111111111111111111111111000 7
b100000001000011111111111111100 R
1+
#30000
0+
#35000
1?
b110010000 :
b0 E
b110010000 L
b110001100 %
b110001100 s
b110010000 G
b110010000 p
bx >
b11111111111111111111111111111100 H
b11111111111111111111111111111100 q
b0 -
10
12
0!
b100011 5
b11 C
b11 j
b0 =
b0 D
b0 ,
b10000 8
b101000011001000000000001010101 .
b1 g
bx f
bx K
b110010000 O
b110010000 $
b11111111111111111111111111111100 d
bx Z
b10001100001000110000000000000000 R
b1100 Y
b1100 7
b1100 X
b11111 \
b1 b
1`
1+
#40000
0+
#45000
b100010 #
b1010101 E
1I
b0 H
b0 q
bx :
b110001100 G
b110001100 p
bx L
b100111 >
b110010000 @
b110010000 n
11
b11 M
b10100 8
b10100100000000000000000000101 .
b1010101 -
00
02
1F
b1010 5
b11 A
b11 i
b100 C
b100 j
b1 D
b10101 ,
b0 d
b110010000 Z
b110010000 f
b110010000 K
b110001100 O
b110001100 $
b1 h
b1 k
b110010000 P
bx ]
1a
1o
1S
b0 \
b11 c
b10000 X
b10000 Y
b101100100 7
b101000011001000000000001010101 R
1+
#50000
0+
#55000
b110001100 :
b110010000 %
b110010000 s
0I
b110010000 G
b110010000 p
b110001100 @
b110001100 n
01
b0 M
b110001100 P
b100111 ]
b11 g
bx f
bx K
1T
0_
0S
b0 c
b0 b
1+
#60000
0+
#65000
1I
b101 #
1)
b0 <
b101 E
x*
b0 ;
b0 m
b100111 G
b100111 p
0?
1(
b11111111111111111111111111010010 %
b11111111111111111111111111010010 s
b1010101 H
b1010101 q
bx :
bx >
b100111 @
b100111 n
b100 M
b11000 8
b100000000001010000000000000101 .
b101 -
0F
1'
b101 5
b100 A
b100 i
b0 C
b0 j
b0 D
b101 ,
b100010 N
b100010 r
b1010101 d
b110001100 Z
1e
b0 g
0T
b110010000 O
b110010000 $
b11 h
b11 k
1U
0`
1_
b100 c
b11 b
b10100 X
b10100 Y
b101000 7
b10100100000000000000000000101 R
1+
#70000
0+
#75000
1*
b100110111 %
b100110111 s
0I
b1 :
0)
b110001100 G
b110001100 p
b110010000 @
b110010000 n
b1010011 >
b0 M
b0 h
b0 k
0U
b110010000 P
bx ]
b100 g
b1 O
b1 $
0_
b0 c
b0 b
1`
0a
0o
1+
#80000
0+
#85000
1?
b100000 #
bx <
0*
b0 9
b0 l
bx ;
bx m
b101 %
b101 s
b0 L
b1 G
b1 p
0(
b101 H
b101 q
b0 :
b1 @
b1 n
b101100 8
b101000011001000000000000111100 .
1!
0'
b1000 5
b0 A
b0 i
b101 C
b101 j
b101 N
b101 r
b101 d
b0 [
b1 Z
0e
b0 g
b0 O
b0 $
b100 h
b100 k
b1 P
b1010011 ]
1a
1o
0`
b100 b
b101000 X
b11000 Y
b101100 7
b100000000001010000000000000101 R
1+
#90000
0+
#95000
b100010 #
b100111 :
b111100 E
b100111 9
b100111 l
b1 <
b0 G
b0 p
bx L
b1 ;
b1 m
b0 @
b0 n
b1010110 >
b101 %
b101 s
b111100 -
0!
1F
b1010 5
b11 A
b11 i
b100 C
b100 j
b111100 ,
b110000 8
b10100100000000000000000000101 .
b101 M
b0 h
b0 k
b0 P
b0 f
b0 K
b101 O
b101 $
b100000 N
b100000 r
bx [
b0 Z
b101000011001000000000000111100 R
b101100 Y
b100011100 7
b101100 X
1_
b101 c
b0 b
0a
0o
1+
#100000
0+
#105000
1I
b101 #
1)
b101 E
1*
b1 :
b0 <
b1 L
b100111 G
b100111 p
0?
1(
b1 9
b1 l
b0 ;
b0 m
b11111111111111111111111111101011 %
b11111111111111111111111111101011 s
b111100 H
b111100 q
b101 @
b101 n
b100 M
b110100 8
b100000000001010000000000000100 .
b101 -
0F
1'
b101 5
b100 A
b100 i
b0 C
b0 j
b101 ,
b100010 N
b100010 r
b111100 d
b1 [
b100111 Z
1e
b101 g
bx f
bx K
b101 P
b1010110 ]
1`
b100 c
b11 b
b110000 X
b110000 Y
b1000100 7
b10100100000000000000000000101 R
1+
#110000
0+
#115000
0I
0)
b1010011 >
b0 M
b101 h
b101 k
b100 g
b1 f
b1 K
b1 O
b1 $
0_
b0 c
b0 b
1a
1o
1+
#120000
0+
#125000
1?
b100000 #
b101 <
b100 E
0*
b101 ;
b101 m
b101 %
b101 s
b0 L
b1 G
b1 p
b0 :
0(
b0 9
b0 l
b101 H
b101 q
b1 @
b1 n
b1001000 8
b101000011001000000000000101000 .
b100 -
1!
0'
b1000 5
b0 A
b0 i
b101 C
b101 j
b100 ,
b101 N
b101 r
b101 d
b0 [
b1 Z
0e
b0 g
b100 h
b100 k
b1 P
b1010011 ]
0`
b100 b
b1000100 X
b110100 Y
b1000100 7
b100000000001010000000000000100 R
1+
#130000
0+
#135000
b100010 #
b100111 :
b100 %
b100 s
b101000 E
b100111 9
b100111 l
b1 <
b0 G
b0 p
b101 L
b1 ;
b1 m
b1010110 >
b100 H
b100 q
b101000 -
0!
1F
b1010 5
b11 A
b11 i
b100 C
b100 j
b101000 ,
b1001100 8
b10100100000000000000000000101 .
b101 M
b0 h
b0 k
b0 f
b0 K
b101 O
b101 $
b100000 N
b100000 r
b100 d
b101 [
b0 Z
b101000011001000000000000101000 R
b1001000 Y
b11101000 7
b1001000 X
1_
b101 c
b0 b
0a
0o
1+
#140000
0+
#145000
1I
b101 #
1)
b101 E
1*
b1 :
b0 <
b1 L
b100111 G
b100111 p
0?
1(
b1 9
b1 l
b0 ;
b0 m
b11111111111111111111111111111111 %
b11111111111111111111111111111111 s
b101000 H
b101000 q
b101 @
b101 n
b100 M
b1010000 8
b100000000001010000000000000011 .
b101 -
0F
1'
b101 5
b100 A
b100 i
b0 C
b0 j
b101 ,
b100010 N
b100010 r
b101000 d
b1 [
b100111 Z
1e
b101 g
b101 f
b101 K
b100 O
b100 $
b101 P
b1010110 ]
1`
b100 c
b11 b
b1001100 X
b1001100 Y
b1100000 7
b10100100000000000000000000101 R
1+
#150000
0+
#155000
0I
0)
b100 @
b100 n
b1010011 >
b0 M
b101 h
b101 k
b100 P
b100 g
b1 f
b1 K
b1 O
b1 $
0_
b0 c
b0 b
1a
1o
1+
#160000
0+
#165000
1?
b100000 #
b100 <
b11 E
0*
b100 ;
b100 m
b101 %
b101 s
b0 L
b1 G
b1 p
b0 :
0(
b0 9
b0 l
b101 H
b101 q
b1 @
b1 n
b1100100 8
b101000011001000000000000001010 .
b11 -
1!
0'
b1000 5
b0 A
b0 i
b101 C
b101 j
b11 ,
b101 N
b101 r
b101 d
b0 [
b1 Z
0e
b0 g
b100 h
b100 k
b1 P
b1010011 ]
0`
b100 b
b1100000 X
b1010000 Y
b1011100 7
b100000000001010000000000000011 R
1+
#170000
0+
#175000
b100010 #
b100111 :
b1010 E
b100111 9
b100111 l
b1 <
b0 G
b0 p
b100 L
b1 ;
b1 m
b1010110 >
b11 %
b11 s
b11 H
b11 q
b1010 -
0!
1F
b1010 5
b11 A
b11 i
b100 C
b100 j
b1010 ,
b1101000 8
b10100100000000000000000000101 .
b101 M
b0 h
b0 k
b0 f
b0 K
b101 O
b101 $
b100000 N
b100000 r
b11 d
b100 [
b0 Z
b101000011001000000000000001010 R
b1100100 Y
b10001100 7
b1100100 X
1_
b101 c
b0 b
0a
0o
1+
#180000
0+
#185000
1I
b101 #
1)
b101 E
1*
b1 :
b0 <
b1 L
b100111 G
b100111 p
0?
1(
b1 9
b1 l
b0 ;
b0 m
b11101 %
b11101 s
b1010 H
b1010 q
b1010011 >
b101 @
b101 n
b100 M
b1101100 8
b100000000001010000000000000010 .
b101 -
0F
1'
b101 5
b100 A
b100 i
b0 C
b0 j
b101 ,
b100010 N
b100010 r
b1010 d
b1 [
b100111 Z
1e
b101 g
b100 f
b100 K
b11 O
b11 $
b101 P
b1010110 ]
1`
b100 c
b11 b
b1101000 X
b1101000 Y
b1111100 7
b10100100000000000000000000101 R
1+
#190000
0+
#195000
0*
0I
b0 :
0)
b11 @
b11 n
b0 M
b101 h
b101 k
b11 P
b1010011 ]
b100 g
b1 f
b1 K
b0 O
b0 $
0_
b0 c
b0 b
1a
1o
1+
#200000
0+
#205000
1?
b100000 #
b11 <
b10 E
b11 ;
b11 m
b101 %
b101 s
b0 L
b0 G
b0 p
b0 :
0(
b0 9
b0 l
b101 H
b101 q
b0 @
b0 n
b1110000 8
b10100001000001111111111100101 .
b10 -
1!
0'
b1000 5
b0 A
b0 i
b101 C
b101 j
b10 ,
b101 N
b101 r
b101 d
b0 [
b0 Z
0e
b0 g
b100 h
b100 k
b0 P
0`
b100 b
b1101100 X
b1101100 Y
b1110100 7
b100000000001010000000000000010 R
1+
#210000
0+
#215000
0?
b100101 #
b110001100 :
b11111111111111111111111111100101 E
1*
b110001100 9
b110001100 l
b0 <
b11 L
1(
b0 ;
b0 m
b1010110 >
b10 %
b10 s
b10 H
b10 q
b1111111111100101 -
0!
1'
b101 5
b1 A
b1 i
b0 C
b0 j
b11111 =
b11111 D
b100101 ,
b1110100 8
b10101100001001010000000110010000 .
b101 M
b0 h
b0 k
b0 f
b0 K
b101 O
b101 $
b100000 N
b100000 r
b10 d
b11 [
b10100001000001111111111100101 R
b1110000 Y
b100 7
b1110000 X
1_
b101 c
b0 b
0a
0o
1+
#220000
0+
#225000
b11111111111111111111111111101101 %
b11111111111111111111111111101101 s
b10 <
b110010000 E
b100000 #
0*
b11 ;
b11 m
b0 L
b110001100 G
b110001100 p
0(
b11111111111111111111111111100101 H
b11111111111111111111111111100101 q
b1010011 >
b101 @
b101 n
b0 M
b1000 8
b100000001000011111111111111100 .
b110010000 -
1J
14
0'
b101011 5
b101 C
b101 j
b0 =
b110 D
b10000 ,
b100101 N
b100101 r
b11111111111111111111111111100101 d
b0 [
b110001100 Z
b101 g
b11 f
b11 K
b10 O
b10 $
b101 P
b1010110 ]
1`
0_
b11111 \
b0 c
b1 b
b100 X
b1110100 Y
b11010110100 7
b10101100001001010000000110010000 R
1+
#230000
0+
#235000
1?
b11111111111111111111111111111100 E
b10 L
b110001100 ;
b110001100 m
b10 @
b10 n
b110001100 <
bx >
b1100011100 %
b1100011100 s
b110010000 H
b110010000 q
b1111111111111100 -
0J
04
1!
b1000 5
b1 C
b1 j
b11111 =
b11111 D
b111100 ,
b1100 8
b10001100001000110000000000000000 .
b101 M
b101 h
b101 k
b10 P
b1010011 ]
b0 g
b0 f
b0 K
b11111111111111111111111111101101 O
b11111111111111111111111111101101 $
b100000 N
b100000 r
b110010000 d
b10 [
b100000001000011111111111111100 R
b1000 Y
b11111111111111111111111111111000 7
b1000 X
1V
b0 \
b101 c
0`
1a
1o
1+
#240000
0+
#245000
1?
b110001100 L
b0 E
b100111 <
b110001000 %
b110001000 s
b100111 ;
b100111 m
b11111111111111111111111111111100 H
b11111111111111111111111111111100 q
b11111111111111111111111111101101 @
b11111111111111111111111111101101 n
b1 M
b10000 8
b101000011001000000000001010101 .
b0 -
10
12
0!
b100011 5
b11 C
b11 j
b0 =
b0 D
b0 ,
b11111111111111111111111111111100 d
b110001100 [
b101 g
b10 f
b10 K
b1100011100 O
b1100011100 $
b0 h
b0 k
b11111111111111111111111111101101 P
bx ]
0a
0o
1W
13
0V
1_
b11111 \
b1 c
b1100 X
b1100 Y
b1100 7
b10001100001000110000000000000000 R
1+
#250000
0+
#255000
b100010 #
b1010101 E
b100111 :
b0 <
b110001000 G
b110001000 p
b110001000 %
b110001000 s
b100111 L
b100111 9
b100111 l
b0 ;
b0 m
1I
b1100011100 @
b1100011100 n
b0 H
b0 q
b1010101 -
00
02
1F
b1010 5
b11 A
b11 i
b100 C
b100 j
b1 D
b10101 ,
b10100 8
b10100100000000000000000000101 .
11
b11 M
b1011110 >
b101 h
b101 k
b1100011100 P
b1 g
b110001100 f
b110001100 K
b110001000 O
b110001000 $
b0 d
b100111 [
b101000011001000000000001010101 R
b10000 Y
b101100100 7
b10000 X
1S
b0 \
b11 c
0W
03
1`
1+
#260000
0+
#265000
b110001000 :
b110001100 %
b110001100 s
0I
b110001100 G
b110001100 p
b110001000 @
b110001000 n
01
b0 M
b11 g
b100111 f
b100111 K
1T
b1 h
b1 k
b110001000 P
b1011110 ]
1a
1o
0_
0S
b0 c
b0 b
1+
#270000
0+
#275000
1I
b101 #
1)
b101 E
0*
b0 <
b0 L
b1011110 G
b1011110 p
0?
1(
b0 9
b0 l
b0 ;
b0 m
b1011110 @
b1011110 n
b0 :
b100111 >
b1001 %
b1001 s
b1010101 H
b1010101 q
b101 -
0F
1'
b101 5
b100 A
b100 i
b0 C
b0 j
b0 D
b101 ,
b11000 8
b100000000001010000000000000101 .
b100 M
b11 h
b11 k
1U
b0 g
0T
b110001100 O
b110001100 $
b100010 N
b100010 r
b1010101 d
b0 [
b110001000 Z
1e
b10100100000000000000000000101 R
b10100 Y
b101000 7
b10100 X
1_
b100 c
b11 b
0`
1+
#280000
0+
#285000
b100110011 %
b100110011 s
0I
b110001000 G
b110001000 p
0)
b1010011 >
b110001100 @
b110001100 n
b0 M
b100 g
b0 f
b0 K
b0 O
b0 $
b0 h
b0 k
0U
b110001100 P
b100111 ]
0a
0o
1`
0_
b0 c
b0 b
1+
#290000
0+
#295000
1?
b100000 #
b10 <
b0 :
b10 ;
b10 m
b101 %
b101 s
b0 G
b0 p
0(
b0 9
b0 l
b0 @
b0 n
b101 H
b101 q
1!
0'
b1000 5
b0 A
b0 i
b101 C
b101 j
b11100 8
b10100001000001111111111111010 .
b100 h
b100 k
b0 P
b1010011 ]
b0 g
b101 N
b101 r
b101 d
b0 Z
0e
b100000000001010000000000000101 R
b11000 Y
b101100 7
b11000 X
b100 b
0`
1a
1o
1+
#300000
0+
#305000
0?
b111010 #
b110001000 :
b11111111111111111111111111111010 E
1*
b110001000 9
b110001000 l
b0 <
b10 L
1(
b0 ;
b0 m
b1010110 >
b101 M
b100000 8
b10101100001001010000000110010000 .
b1111111111111010 -
0!
1'
b101 5
b1 A
b1 i
b0 C
b0 j
b11111 =
b11111 D
b111010 ,
b100000 N
b100000 r
b10 [
b101 O
b101 $
b0 h
b0 k
0a
0o
1_
b101 c
b0 b
b11100 X
b11100 Y
b100 7
b10100001000001111111111111010 R
1+
#310000
0+
#315000
b11111111111111111111111111111010 %
b11111111111111111111111111111010 s
b101 <
b110010000 E
b100000 #
0*
b10 ;
b10 m
b0 L
b110001000 G
b110001000 p
0(
b101 @
b101 n
b11111111111111111111111111111010 H
b11111111111111111111111111111010 q
b110010000 -
1J
14
0'
b101011 5
b101 C
b101 j
b0 =
b110 D
b10000 ,
b1000 8
b100000001000011111111111111100 .
b0 M
b101 P
b1010110 ]
b101 g
b10 f
b10 K
b111010 N
b111010 r
b11111111111111111111111111111010 d
b0 [
b110001000 Z
b10101100001001010000000110010000 R
b100000 Y
b11001100000 7
b100 X
0_
b11111 \
b0 c
b1 b
1`
1+
#320000
0+
#325000
1?
b11111111111111111111111111111100 E
b101 L
b110001000 ;
b110001000 m
b1100011000 %
b1100011000 s
b110010000 H
b110010000 q
b110001000 <
bx >
b101 M
b1100 8
b10001100001000110000000000000000 .
b1111111111111100 -
0J
04
1!
b1000 5
b1 C
b1 j
b11111 =
b11111 D
b111100 ,
b100000 N
b100000 r
b110010000 d
b101 [
b0 g
b0 f
b0 K
b11111111111111111111111111111010 O
b11111111111111111111111111111010 $
b101 h
b101 k
1a
1o
0`
1V
b0 \
b101 c
b1000 X
b1000 Y
b11111111111111111111111111111000 7
b100000001000011111111111111100 R
1+
#330000
0+
#335000
1?
b0 E
b1011110 <
b110001000 L
b110000100 %
b110000100 s
b1011110 ;
b1011110 m
b11111111111111111111111111111010 @
b11111111111111111111111111111010 n
b11111111111111111111111111111100 H
b11111111111111111111111111111100 q
b0 -
10
12
0!
b100011 5
b11 C
b11 j
b0 =
b0 D
b0 ,
b10000 8
b101000011001000000000001010101 .
b1 M
b0 h
b0 k
b11111111111111111111111111111010 P
bx ]
b101 g
b101 f
b101 K
b1100011000 O
b1100011000 $
b11111111111111111111111111111100 d
b110001000 [
b10001100001000110000000000000000 R
b1100 Y
b1100 7
b1100 X
0V
1_
b11111 \
b1 c
1W
13
0a
0o
1+
#340000
0+
#345000
b100010 #
b1010101 E
b1011110 :
b0 <
b1011110 L
b110000100 G
b110000100 p
1I
b1011110 9
b1011110 l
b0 ;
b0 m
b0 H
b0 q
b1100011000 @
b1100011000 n
11
b11 M
b10100 8
b10100100000000000000000000101 .
b1010101 -
00
02
1F
b1010 5
b11 A
b11 i
b100 C
b100 j
b1 D
b10101 ,
b0 d
b1011110 [
b1 g
b110001000 f
b110001000 K
b110000100 O
b110000100 $
b101 h
b101 k
b1100011000 P
b1010110 >
0W
03
1`
1S
b0 \
b11 c
b10000 X
b10000 Y
b101100100 7
b101000011001000000000001010101 R
1+
#350000
0+
#355000
b110000100 :
b110001000 %
b110001000 s
0I
b110001000 G
b110001000 p
b110000100 @
b110000100 n
01
b0 M
b1 h
b1 k
b110000100 P
b1010110 ]
b11 g
b1011110 f
b1011110 K
1T
0_
0S
b0 c
b0 b
1a
1o
1+
#360000
0+
#365000
1I
b101 #
1)
b101 E
0*
b0 <
b0 L
b1010110 G
b1010110 p
0?
1(
b0 9
b0 l
b0 ;
b0 m
b1 %
b1 s
b1010101 H
b1010101 q
b0 :
b1011110 >
b1010110 @
b1010110 n
b100 M
b11000 8
b100000000001010000000000000101 .
b101 -
0F
1'
b101 5
b100 A
b100 i
b0 C
b0 j
b0 D
b101 ,
b100010 N
b100010 r
b1010101 d
b0 [
b110000100 Z
1e
b0 g
0T
b110001000 O
b110001000 $
b11 h
b11 k
1U
0`
1_
b100 c
b11 b
b10100 X
b10100 Y
b101000 7
b10100100000000000000000000101 R
1+
#370000
0+
#375000
b100101111 %
b100101111 s
0I
0)
b110000100 G
b110000100 p
b110001000 @
b110001000 n
b1010011 >
b0 M
b0 h
b0 k
0U
b110001000 P
b1011110 ]
b100 g
b0 f
b0 K
b0 O
b0 $
0_
b0 c
b0 b
1`
0a
0o
1+
#380000
0+
#385000
1?
b100000 #
b101 <
b101 ;
b101 m
b101 %
b101 s
b0 G
b0 p
b0 :
0(
b0 9
b0 l
b101 H
b101 q
b0 @
b0 n
b11100 8
b10100001000001111111111111010 .
1!
0'
b1000 5
b0 A
b0 i
b101 C
b101 j
b101 N
b101 r
b101 d
b0 Z
0e
b0 g
b100 h
b100 k
b0 P
b1010011 ]
1a
1o
0`
b100 b
b11000 X
b11000 Y
b101100 7
b100000000001010000000000000101 R
1+
#390000
0+
#395000
0?
b111010 #
b110000100 :
b11111111111111111111111111111010 E
1*
b110000100 9
b110000100 l
b0 <
b101 L
1(
b0 ;
b0 m
b1010110 >
b1111111111111010 -
0!
1'
b101 5
b1 A
b1 i
b0 C
b0 j
b11111 =
b11111 D
b111010 ,
b100000 8
b10101100001001010000000110010000 .
b101 M
b0 h
b0 k
b101 O
b101 $
b100000 N
b100000 r
b101 [
b10100001000001111111111111010 R
b11100 Y
b100 7
b11100 X
1_
b101 c
b0 b
0a
0o
1+
#400000
0+
#405000
b11111111111111111111111111111010 %
b11111111111111111111111111111010 s
b101 <
b110010000 E
b100000 #
0*
b101 ;
b101 m
b0 L
b110000100 G
b110000100 p
0(
b11111111111111111111111111111010 H
b11111111111111111111111111111010 q
b101 @
b101 n
b0 M
b1000 8
b100000001000011111111111111100 .
b110010000 -
1J
14
0'
b101011 5
b101 C
b101 j
b0 =
b110 D
b10000 ,
b111010 N
b111010 r
b11111111111111111111111111111010 d
b0 [
b110000100 Z
b101 g
b101 f
b101 K
b101 P
b1010110 ]
1`
0_
b11111 \
b0 c
b1 b
b100 X
b100000 Y
b11001100000 7
b10101100001001010000000110010000 R
1+
#410000
0+
#415000
1?
b11111111111111111111111111111100 E
b110000100 <
b101 L
b110000100 ;
b110000100 m
bx >
b1100010100 %
b1100010100 s
b110010000 H
b110010000 q
b1111111111111100 -
0J
04
1!
b1000 5
b1 C
b1 j
b11111 =
b11111 D
b111100 ,
b1100 8
b10001100001000110000000000000000 .
b101 M
b101 h
b101 k
b0 g
b0 f
b0 K
b11111111111111111111111111111010 O
b11111111111111111111111111111010 $
b100000 N
b100000 r
b110010000 d
b101 [
b100000001000011111111111111100 R
b1000 Y
b11111111111111111111111111111000 7
b1000 X
1V
b0 \
b101 c
0`
1a
1o
1+
#420000
0+
#425000
1?
b110000100 L
b0 E
b1010110 <
b110000000 %
b110000000 s
b1010110 ;
b1010110 m
b11111111111111111111111111111100 H
b11111111111111111111111111111100 q
b11111111111111111111111111111010 @
b11111111111111111111111111111010 n
b1 M
b10000 8
b101000011001000000000001010101 .
b0 -
10
12
0!
b100011 5
b11 C
b11 j
b0 =
b0 D
b0 ,
b11111111111111111111111111111100 d
b110000100 [
b101 g
b101 f
b101 K
b1100010100 O
b1100010100 $
b0 h
b0 k
b11111111111111111111111111111010 P
bx ]
0a
0o
1W
13
0V
1_
b11111 \
b1 c
b1100 X
b1100 Y
b1100 7
b10001100001000110000000000000000 R
1+
#430000
0+
#435000
b100010 #
b1010101 E
b1010110 :
b0 <
b110000000 G
b110000000 p
b110000000 %
b110000000 s
b1010110 L
b1010110 9
b1010110 l
b0 ;
b0 m
1I
b1100010100 @
b1100010100 n
b0 H
b0 q
b1010101 -
00
02
1F
b1010 5
b11 A
b11 i
b100 C
b100 j
b1 D
b10101 ,
b10100 8
b10100100000000000000000000101 .
11
b11 M
b11010 >
b101 h
b101 k
b1100010100 P
b1 g
b110000100 f
b110000100 K
b110000000 O
b110000000 $
b0 d
b1010110 [
b101000011001000000000001010101 R
b10000 Y
b101100100 7
b10000 X
1S
b0 \
b11 c
0W
03
1`
1+
#440000
0+
#445000
b110000000 :
b110000100 %
b110000100 s
0I
b110000100 G
b110000100 p
b110000000 @
b110000000 n
01
b0 M
b11 g
b1010110 f
b1010110 K
1T
b1 h
b1 k
b110000000 P
b11010 ]
1a
1o
0_
0S
b0 c
b0 b
1+
#450000
0+
#455000
1I
b101 #
1)
b101 E
0*
b0 <
b0 L
b11010 G
b11010 p
0?
1(
b0 9
b0 l
b0 ;
b0 m
b11010 @
b11010 n
b0 :
b1010110 >
b11111111111111111111111111000101 %
b11111111111111111111111111000101 s
b1010101 H
b1010101 q
b101 -
0F
1'
b101 5
b100 A
b100 i
b0 C
b0 j
b0 D
b101 ,
b11000 8
b100000000001010000000000000101 .
b100 M
b11 h
b11 k
1U
b0 g
0T
b110000100 O
b110000100 $
b100010 N
b100010 r
b1010101 d
b0 [
b110000000 Z
1e
b10100100000000000000000000101 R
b10100 Y
b101000 7
b10100 X
1_
b100 c
b11 b
0`
1+
#460000
0+
#465000
1*
b100101011 %
b100101011 s
0I
b1 :
b110000000 G
b110000000 p
0)
b1010011 >
b110000100 @
b110000100 n
b0 M
b100 g
b0 f
b0 K
b1 O
b1 $
b0 h
b0 k
0U
b110000100 P
b1010110 ]
0a
0o
1`
0_
b0 c
b0 b
1+
#470000
0+
#475000
1?
b100000 #
b101 <
0*
b101 ;
b101 m
b101 %
b101 s
b1 G
b1 p
0(
b0 9
b0 l
b1 @
b1 n
b0 :
b101 H
b101 q
1!
0'
b1000 5
b0 A
b0 i
b101 C
b101 j
b101100 8
b101000011001000000000000111100 .
b100 h
b100 k
b1 P
b1010011 ]
b0 g
b0 O
b0 $
b101 N
b101 r
b101 d
b1 Z
0e
b100000000001010000000000000101 R
b11000 Y
b101100 7
b101000 X
b100 b
0`
1a
1o
1+
#480000
0+
#485000
b100010 #
b11010 :
b0 G
b0 p
b111100 E
b11010 9
b11010 l
b1 <
b101 L
b1 ;
b1 m
b101 %
b101 s
b1010110 >
b0 @
b0 n
b101 M
b110000 8
b10100100000000000000000000101 .
b111100 -
0!
1F
b1010 5
b11 A
b11 i
b100 C
b100 j
b111100 ,
b100000 N
b100000 r
b101 [
b0 Z
b101 O
b101 $
b0 h
b0 k
b0 P
0a
0o
1_
b101 c
b0 b
b101100 X
b101100 Y
b100011100 7
b101000011001000000000000111100 R
1+
#490000
0+
#495000
1I
b101 #
1)
b101 E
1*
b1 :
b0 <
b1 L
b11010 G
b11010 p
0?
1(
b1 9
b1 l
b0 ;
b0 m
b101 @
b101 n
b11111111111111111111111111011110 %
b11111111111111111111111111011110 s
b111100 H
b111100 q
b101 -
0F
1'
b101 5
b100 A
b100 i
b0 C
b0 j
b101 ,
b110100 8
b100000000001010000000000000100 .
b100 M
b101 P
b1010110 ]
b101 g
b101 f
b101 K
b100010 N
b100010 r
b111100 d
b1 [
b11010 Z
1e
b10100100000000000000000000101 R
b110000 Y
b1000100 7
b110000 X
b100 c
b11 b
1`
1+
#500000
0+
#505000
0I
0)
b1010011 >
b0 M
b100 g
b1 f
b1 K
b1 O
b1 $
b101 h
b101 k
1a
1o
0_
b0 c
b0 b
1+
#510000
0+
