prog_grade/mipse.vcd
$date
	Tue Aug  2 01:06:06 2016
$end
$version
	Icarus Verilog
$end
$timescale
	1ps
$end
$scope module test_mipse $end
$scope module mipse_1 $end
$var wire 1 ! addi_opD $end
$var wire 1 " alu_opD $end
$var wire 6 # alucomD [5:0] $end
$var wire 32 $ aluout [31:0] $end
$var wire 32 % aluoutE [31:0] $end
$var wire 1 & beq_opD $end
$var wire 1 ' bne_opD $end
$var wire 1 ( branchD $end
$var wire 1 ) branchstall $end
$var wire 1 * btakenD $end
$var wire 1 + clk $end
$var wire 6 , funcD [5:0] $end
$var wire 16 - immD [15:0] $end
$var wire 32 . instr [31:0] $end
$var wire 1 / lui_opD $end
$var wire 1 0 lw_opD $end
$var wire 1 1 lwstall $end
$var wire 1 2 memtoregD $end
$var wire 1 3 memwrite $end
$var wire 1 4 memwriteD $end
$var wire 1 5 mult_opD $end
$var wire 16 6 multoutE [15:0] $end
$var wire 6 7 opcodeD [5:0] $end
$var wire 1 8 ori_opD $end
$var wire 32 9 pcbranchD [31:0] $end
$var wire 32 : pcplus4F [31:0] $end
$var wire 32 ; rd1D [31:0] $end
$var wire 32 < rd1fD [31:0] $end
$var wire 32 = rd2D [31:0] $end
$var wire 32 > rd2fD [31:0] $end
$var wire 5 ? rdD [4:0] $end
$var wire 32 @ readdata [31:0] $end
$var wire 1 A regwriteD $end
$var wire 32 B resultW [31:0] $end
$var wire 5 C rsD [4:0] $end
$var wire 1 D rst_n $end
$var wire 5 E rtD [4:0] $end
$var wire 5 F shamtD [4:0] $end
$var wire 32 G signimmD [31:0] $end
$var wire 1 H slti_opD $end
$var wire 32 I srcaE [31:0] $end
$var wire 32 J srcbE [31:0] $end
$var wire 1 K stall $end
$var wire 1 L sw_opD $end
$var wire 32 M writedata [31:0] $end
$var wire 32 N writedataE [31:0] $end
$var wire 5 O writeregE [4:0] $end
$var reg 6 P alucomE [5:0] $end
$var reg 32 Q aluoutM [31:0] $end
$var reg 32 R aluoutW [31:0] $end
$var reg 1 S alusrcE $end
$var reg 32 T instrD [31:0] $end
$var reg 1 U memtoregE $end
$var reg 1 V memtoregM $end
$var reg 1 W memtoregW $end
$var reg 1 X memwriteE $end
$var reg 1 Y memwriteM $end
$var reg 1 Z mult_opE $end
$var reg 32 [ pc [31:0] $end
$var reg 32 \ pcplus4D [31:0] $end
$var reg 32 ] rd1E [31:0] $end
$var reg 32 ^ rd2E [31:0] $end
$var reg 5 _ rdE [4:0] $end
$var reg 32 ` readdataW [31:0] $end
$var reg 1 a regdstE $end
$var reg 1 b regwriteE $end
$var reg 1 c regwriteM $end
$var reg 1 d regwriteW $end
$var reg 5 e rsE [4:0] $end
$var reg 5 f rtE [4:0] $end
$var reg 32 g signimmE [31:0] $end
$var reg 1 h slti_opE $end
$var reg 32 i writedataM [31:0] $end
$var reg 5 j writeregM [4:0] $end
$var reg 5 k writeregW [4:0] $end
$scope module rfile_1 $end
$var wire 5 l a1 [4:0] $end
$var wire 5 m a2 [4:0] $end
$var wire 5 n a3 [4:0] $end
$var wire 1 + clk $end
$var wire 32 o rd1 [31:0] $end
$var wire 32 p rd2 [31:0] $end
$var wire 32 q wd3 [31:0] $end
$var wire 1 r we3 $end
$upscope $end
$scope module alu_1 $end
$var wire 32 s a [31:0] $end
$var wire 32 t b [31:0] $end
$var wire 6 u s [5:0] $end
$var wire 32 v y [31:0] $end
$var wire 1 w zero $end
$upscope $end
$upscope $end
$upscope $end
$enddefinitions $end
#0
$dumpvars
xw
bx v
bx u
bx t
bx s
0r
bx q
b0 p
b0 o
bx n
b0 m
b0 l
bx k
bx j
bx i
xh
bx g
b0 f
b0 e
0d
0c
0b
xa
bx `
b0 _
bx ^
bx ]
b0 \
b0 [
xZ
0Y
0X
xW
xV
0U
b0 T
xS
bx R
bx Q
bx P
b0 O
bx N
bx M
0L
0K
bx J
bx I
0H
b0 G
b0 F
b0 E
0D
b0 C
bx B
0A
bx @
b0 ?
b0 >
b0 =
b0 <
b0 ;
b100 :
b0 9
08
b0 7
bx 6
05
04
03
02
01
00
0/
b100000000000010000000110010000 .
b0 -
b0 ,
0+
0*
0)
0(
0'
0&
bx %
bx $
b0 #
0"
0!
$end
#5000
b0 6
b0 N
b0 I
b0 s
1w
b0 %
b0 v
b0 J
b0 t
0a
1S
b0 P
b0 u
b0 g
b0 ^
b0 ]
0Z
0h
b0 j
0V
1+
#10000
0+
#12000
1D
#15000
1A
b100000 #
bx >
b110010000 G
bx =
bx p
b1010011 @
b110010000 -
1!
b1000 7
b1 E
b1 m
b110 F
b10000 ,
b1000 :
b100000001000011111111111111100 .
b0 k
b0 n
0W
b0 i
b0 M
b0 Q
b0 $
b100000000000010000000110010000 T
b100 \
b11001000100 9
b100 [
1+
#20000
0+
#25000
bx <
b11111111111111111111111111111100 G
bx ;
bx o
bx N
0w
b110010000 %
b110010000 v
b110010000 J
b110010000 t
b0 B
b0 q
b1 O
b1100 :
b10001100001000110000000000000000 .
b1111111111111100 -
b1 C
b1 l
b11111 ?
b11111 F
b111100 ,
b100000 P
b100000 u
b110010000 g
bx ^
b0 R
b1010011 `
1b
b1 f
b1000 [
b1000 \
b11111111111111111111111111111000 9
b100000001000011111111111111100 T
1+
#30000
0+
#35000
1A
b110010000 <
b0 G
b1111100111000000 6
b110010000 N
b110001100 %
b110001100 v
b110010000 I
b110010000 s
bx @
b11111111111111111111111111111100 J
b11111111111111111111111111111100 t
b0 -
10
12
0!
b100011 7
b11 E
b11 m
b0 ?
b0 F
b0 ,
b10000 :
b101000011001000000000001010101 .
b1 j
bx i
bx M
b110010000 Q
b110010000 $
b11111111111111111111111111111100 g
bx ]
b10001100001000110000000000000000 T
b1100 \
b1100 9
b1100 [
b11111 _
b1 e
1c
1+
#40000
0+
#45000
b100010 #
b1010101 G
b0 6
1K
b0 J
b0 t
bx <
b110001100 I
b110001100 s
bx N
b100111 @
b110010000 B
b110010000 q
11
b11 O
b10100 :
b10100100000000000000000000101 .
b1010101 -
00
02
1H
b1010 7
b11 C
b11 l
b100 E
b100 m
b1 F
b10101 ,
b0 g
b110010000 ]
b110010000 i
b110010000 M
b110001100 Q
b110001100 $
b1 k
b1 n
b110010000 R
bx `
1d
1r
1U
b0 _
b11 f
b10000 [
b10000 \
b101100100 9
b101000011001000000000001010101 T
1+
#50000
0+
#55000
b110001100 <
b110010000 %
b110010000 v
0K
b110010000 I
b110010000 s
b110001100 B
b110001100 q
01
b0 O
b110001100 R
b100111 `
b11 j
bx i
bx M
1V
0b
0U
b0 f
b0 e
1+
#60000
0+
#65000
1K
b101 #
1)
b0 >
b101 G
x*
b0 =
b0 p
b110011110011 6
b100111 I
b100111 s
0A
1(
b11111111111111111111111111010010 %
b11111111111111111111111111010010 v
b1010101 J
b1010101 t
bx <
bx @
b100111 B
b100111 q
b100 O
b11000 :
b100000000001010000000000000101 .
b101 -
0H
1'
b101 7
b100 C
b100 l
b0 E
b0 m
b0 F
b101 ,
b100010 P
b100010 u
b1010101 g
b110001100 ]
1h
b0 j
0V
b110010000 Q
b110010000 $
b11 k
b11 n
1W
0c
1b
b100 f
b11 e
b10100 [
b10100 \
b101000 9
b10100100000000000000000000101 T
1+
#70000
0+
#75000
1*
b100110111 %
b100110111 v
0K
b1000001101111100 6
b1 <
0)
b110001100 I
b110001100 s
b110010000 B
b110010000 q
b1010011 @
b0 O
b0 k
b0 n
0W
b110010000 R
bx `
b100 j
b1 Q
b1 $
0b
b0 f
b0 e
1c
0d
0r
1+
#80000
0+
#85000
1A
b100000 #
bx >
0*
b0 ;
b0 o
bx =
bx p
b101 %
b101 v
b101 6
b0 N
b1 I
b1 s
0(
b101 J
b101 t
b0 <
b1 B
b1 q
b101100 :
b101000011001000000000000111100 .
1!
0'
b1000 7
b0 C
b0 l
b101 E
b101 m
b101 P
b101 u
b101 g
b0 ^
b1 ]
0h
b0 j
b0 Q
b0 $
b100 k
b100 n
b1 R
b1010011 `
1d
1r
0c
b100 e
b101000 [
b11000 \
b101100 9
b100000000001010000000000000101 T
1+
#90000
0+
#95000
b100010 #
b100111 <
b0 6
b111100 G
b100111 ;
b100111 o
b1 >
b0 I
b0 s
bx N
b1 =
b1 p
b0 B
b0 q
b1010110 @
b101 %
b101 v
b111100 -
0!
1H
b1010 7
b11 C
b11 l
b100 E
b100 m
b111100 ,
b110000 :
b10100100000000000000000000101 .
b101 O
b0 k
b0 n
b0 R
b0 i
b0 M
b101 Q
b101 $
b100000 P
b100000 u
bx ^
b0 ]
b101000011001000000000000111100 T
b101100 \
b100011100 9
b101100 [
1b
b101 f
b0 e
0d
0r
1+
#100000
0+
#105000
1K
b101 #
1)
b100100100100 6
b101 G
1*
b1 <
b0 >
b1 N
b100111 I
b100111 s
0A
1(
b1 ;
b1 o
b0 =
b0 p
b11111111111111111111111111101011 %
b11111111111111111111111111101011 v
b111100 J
b111100 t
b101 B
b101 q
b100 O
b110100 :
b100000000001010000000000000100 .
b101 -
0H
1'
b101 7
b100 C
b100 l
b0 E
b0 m
b101 ,
b100010 P
b100010 u
b111100 g
b1 ^
b100111 ]
1h
b101 j
bx i
bx M
b101 R
b1010110 `
1c
b100 f
b11 e
b110000 [
b110000 \
b1000100 9
b10100100000000000000000000101 T
1+
#110000
0+
#115000
0K
0)
b1010011 @
b0 O
b101 k
b101 n
b100 j
b1 i
b1 M
b1 Q
b1 $
0b
b0 f
b0 e
1d
1r
1+
#120000
0+
#125000
1A
b100000 #
b101 >
b100 G
0*
b101 =
b101 p
b101 %
b101 v
b101 6
b0 N
b1 I
b1 s
b0 <
0(
b0 ;
b0 o
b101 J
b101 t
b1 B
b1 q
b1001000 :
b101000011001000000000000101000 .
b100 -
1!
0'
b1000 7
b0 C
b0 l
b101 E
b101 m
b100 ,
b101 P
b101 u
b101 g
b0 ^
b1 ]
0h
b0 j
b100 k
b100 n
b1 R
b1010011 `
0c
b100 e
b1000100 [
b110100 \
b1000100 9
b100000000001010000000000000100 T
1+
#130000
0+
#135000
b100010 #
b100111 <
b100 %
b100 v
b101000 G
b100111 ;
b100111 o
b1 >
b0 I
b0 s
b0 6
b101 N
b1 =
b1 p
b1010110 @
b100 J
b100 t
b101000 -
0!
1H
b1010 7
b11 C
b11 l
b100 E
b100 m
b101000 ,
b1001100 :
b10100100000000000000000000101 .
b101 O
b0 k
b0 n
b0 i
b0 M
b101 Q
b101 $
b100000 P
b100000 u
b100 g
b101 ^
b0 ]
b101000011001000000000000101000 T
b1001000 \
b11101000 9
b1001000 [
1b
b101 f
b0 e
0d
0r
1+
#140000
0+
#145000
1K
b101 #
1)
b11000011000 6
b101 G
1*
b1 <
b0 >
b1 N
b100111 I
b100111 s
0A
1(
b1 ;
b1 o
b0 =
b0 p
b11111111111111111111111111111111 %
b11111111111111111111111111111111 v
b101000 J
b101000 t
b101 B
b101 q
b100 O
b1010000 :
b100000000001010000000000000011 .
b101 -
0H
1'
b101 7
b100 C
b100 l
b0 E
b0 m
b101 ,
b100010 P
b100010 u
b101000 g
b1 ^
b100111 ]
1h
b101 j
b101 i
b101 M
b100 Q
b100 $
b101 R
b1010110 `
1c
b100 f
b11 e
b1001100 [
b1001100 \
b1100000 9
b10100100000000000000000000101 T
1+
#150000
0+
#155000
0K
0)
b100 B
b100 q
b1010011 @
b0 O
b101 k
b101 n
b100 R
b100 j
b1 i
b1 M
b1 Q
b1 $
0b
b0 f
b0 e
1d
1r
1+
#160000
0+
#165000
1A
b100000 #
b100 >
b11 G
0*
b100 =
b100 p
b101 %
b101 v
b101 6
b0 N
b1 I
b1 s
b0 <
0(
b0 ;
b0 o
b101 J
b101 t
b1 B
b1 q
b1100100 :
b101000011001000000000000001010 .
b11 -
1!
0'
b1000 7
b0 C
b0 l
b101 E
b101 m
b11 ,
b101 P
b101 u
b101 g
b0 ^
b1 ]
0h
b0 j
b100 k
b100 n
b1 R
b1010011 `
0c
b100 e
b1100000 [
b1010000 \
b1011100 9
b100000000001010000000000000011 T
1+
#170000
0+
#175000
b100010 #
b100111 <
b1010 G
b100111 ;
b100111 o
b1 >
b0 I
b0 s
b0 6
b100 N
b1 =
b1 p
b1010110 @
b11 %
b11 v
b11 J
b11 t
b1010 -
0!
1H
b1010 7
b11 C
b11 l
b100 E
b100 m
b1010 ,
b1101000 :
b10100100000000000000000000101 .
b101 O
b0 k
b0 n
b0 i
b0 M
b101 Q
b101 $
b100000 P
b100000 u
b11 g
b100 ^
b0 ]
b101000011001000000000000001010 T
b1100100 \
b10001100 9
b1100100 [
1b
b101 f
b0 e
0d
0r
1+
#180000
0+
#185000
1K
b101 #
1)
b110000110 6
b101 G
1*
b1 <
b0 >
b1 N
b100111 I
b100111 s
0A
1(
b1 ;
b1 o
b0 =
b0 p
b11101 %
b11101 v
b1010 J
b1010 t
b1010011 @
b101 B
b101 q
b100 O
b1101100 :
b100000000001010000000000000010 .
b101 -
0H
1'
b101 7
b100 C
b100 l
b0 E
b0 m
b101 ,
b100010 P
b100010 u
b1010 g
b1 ^
b100111 ]
1h
b101 j
b100 i
b100 M
b11 Q
b11 $
b101 R
b1010110 `
1c
b100 f
b11 e
b1101000 [
b1101000 \
b1111100 9
b10100100000000000000000000101 T
1+
#190000
0+
#195000
0*
0K
b0 <
0)
b11 B
b11 q
b0 O
b101 k
b101 n
b11 R
b1010011 `
b100 j
b1 i
b1 M
b0 Q
b0 $
0b
b0 f
b0 e
1d
1r
1+
#200000
0+
#205000
1A
b100000 #
b11 >
b10 G
b11 =
b11 p
b101 %
b101 v
b0 6
b0 N
b0 I
b0 s
b0 <
0(
b0 ;
b0 o
b101 J
b101 t
b0 B
b0 q
b1110000 :
b10100001000001111111111100101 .
b10 -
1!
0'
b1000 7
b0 C
b0 l
b101 E
b101 m
b10 ,
b101 P
b101 u
b101 g
b0 ^
b0 ]
0h
b0 j
b100 k
b100 n
b0 R
0c
b100 e
b1101100 [
b1101100 \
b1110100 9
b100000000001010000000000000010 T
1+
#210000
0+
#215000
0A
b100101 #
b110001100 <
b11111111111111111111111111100101 G
1*
b110001100 ;
b110001100 o
b0 >
b11 N
1(
b0 =
b0 p
b1010110 @
b10 %
b10 v
b10 J
b10 t
b1111111111100101 -
0!
1'
b101 7
b1 C
b1 l
b0 E
b0 m
b11111 ?
b11111 F
b100101 ,
b1110100 :
b10101100001001010000000110010000 .
b101 O
b0 k
b0 n
b0 i
b0 M
b101 Q
b101 $
b100000 P
b100000 u
b10 g
b11 ^
b10100001000001111111111100101 T
b1110000 \
b100 9
b1110000 [
1b
b101 f
b0 e
0d
0r
1+
#220000
0+
#225000
b11111111111111111111111111101101 %
b11111111111111111111111111101101 v
b1101011000111100 6
b10 >
b110010000 G
b100000 #
0*
b11 =
b11 p
b0 N
b110001100 I
b110001100 s
0(
b11111111111111111111111111100101 J
b11111111111111111111111111100101 t
b1010011 @
b101 B
b101 q
b0 O
b1000 :
b100000001000011111111111111100 .
b110010000 -
1L
14
0'
b101011 7
b101 E
b101 m
b0 ?
b110 F
b10000 ,
b100101 P
b100101 u
b11111111111111111111111111100101 g
b0 ^
b110001100 ]
b101 j
b11 i
b11 M
b10 Q
b10 $
b101 R
b1010110 `
1c
0b
b11111 _
b0 f
b1 e
b100 [
b1110100 \
b11010110100 9
b10101100001001010000000110010000 T
1+
#230000
0+
#235000
1A
b11111111111111111111111111111100 G
b110101011000000 6
b10 N
b110001100 =
b110001100 p
b10 B
b10 q
b110001100 >
bx @
b1100011100 %
b1100011100 v
b110010000 J
b110010000 t
b1111111111111100 -
0L
04
1!
b1000 7
b1 E
b1 m
b11111 ?
b11111 F
b111100 ,
b1100 :
b10001100001000110000000000000000 .
b101 O
b101 k
b101 n
b10 R
b1010011 `
b0 j
b0 i
b0 M
b11111111111111111111111111101101 Q
b11111111111111111111111111101101 $
b100000 P
b100000 u
b110010000 g
b10 ^
b100000001000011111111111111100 T
b1000 \
b11111111111111111111111111111000 9
b1000 [
1X
b0 _
b101 f
0c
1d
1r
1+
#240000
0+
#245000
1A
b110001100 N
b0 G
b100111 >
b1111100111010000 6
b110001000 %
b110001000 v
b100111 =
b100111 p
b11111111111111111111111111111100 J
b11111111111111111111111111111100 t
b11111111111111111111111111101101 B
b11111111111111111111111111101101 q
b1 O
b10000 :
b101000011001000000000001010101 .
b0 -
10
12
0!
b100011 7
b11 E
b11 m
b0 ?
b0 F
b0 ,
b11111111111111111111111111111100 g
b110001100 ^
b101 j
b10 i
b10 M
b1100011100 Q
b1100011100 $
b0 k
b0 n
b11111111111111111111111111101101 R
bx `
0d
0r
1Y
13
0X
1b
b11111 _
b1 f
b1100 [
b1100 \
b1100 9
b10001100001000110000000000000000 T
1+
#250000
0+
#255000
b100010 #
b1010101 G
b100111 <
b0 >
b110001000 I
b110001000 s
b0 6
b110001000 %
b110001000 v
b100111 N
b100111 ;
b100111 o
b0 =
b0 p
1K
b1100011100 B
b1100011100 q
b0 J
b0 t
b1010101 -
00
02
1H
b1010 7
b11 C
b11 l
b100 E
b100 m
b1 F
b10101 ,
b10100 :
b10100100000000000000000000101 .
11
b11 O
b1011110 @
b101 k
b101 n
b1100011100 R
b1 j
b110001100 i
b110001100 M
b110001000 Q
b110001000 $
b0 g
b100111 ^
b101000011001000000000001010101 T
b10000 \
b101100100 9
b10000 [
1U
b0 _
b11 f
0Y
03
1c
1+
#260000
0+
#265000
b110001000 <
b110001100 %
b110001100 v
0K
b110001100 I
b110001100 s
b110001000 B
b110001000 q
01
b0 O
b11 j
b100111 i
b100111 M
1V
b1 k
b1 n
b110001000 R
b1011110 `
1d
1r
0b
0U
b0 f
b0 e
1+
#270000
0+
#275000
1K
b101 #
1)
b101 G
0*
b0 >
b1111100110110 6
b0 N
b1011110 I
b1011110 s
0A
1(
b0 ;
b0 o
b0 =
b0 p
b1011110 B
b1011110 q
b0 <
b100111 @
b1001 %
b1001 v
b1010101 J
b1010101 t
b101 -
0H
1'
b101 7
b100 C
b100 l
b0 E
b0 m
b0 F
b101 ,
b11000 :
b100000000001010000000000000101 .
b100 O
b11 k
b11 n
1W
b0 j
0V
b110001100 Q
b110001100 $
b100010 P
b100010 u
b1010101 g
b0 ^
b110001000 ]
1h
b10100100000000000000000000101 T
b10100 \
b101000 9
b10100 [
1b
b100 f
b11 e
0c
1+
#280000
0+
#285000
b100110011 %
b100110011 v
b1000001000101000 6
0K
b110001000 I
b110001000 s
0)
b1010011 @
b110001100 B
b110001100 q
b0 O
b100 j
b0 i
b0 M
b0 Q
b0 $
b0 k
b0 n
0W
b110001100 R
b100111 `
0d
0r
1c
0b
b0 f
b0 e
1+
#290000
0+
#295000
1A
b100000 #
b10 >
b0 <
b10 =
b10 p
b101 %
b101 v
b0 6
b0 I
b0 s
0(
b0 ;
b0 o
b0 B
b0 q
b101 J
b101 t
1!
0'
b1000 7
b0 C
b0 l
b101 E
b101 m
b11100 :
b10100001000001111111111111010 .
b100 k
b100 n
b0 R
b1010011 `
b0 j
b101 P
b101 u
b101 g
b0 ]
0h
b100000000001010000000000000101 T
b11000 \
b101100 9
b11000 [
b100 e
0c
1d
1r
1+
#300000
0+
#305000
0A
b111010 #
b110001000 <
b11111111111111111111111111111010 G
1*
b110001000 ;
b110001000 o
b0 >
b10 N
1(
b0 =
b0 p
b1010110 @
b101 O
b100000 :
b10101100001001010000000110010000 .
b1111111111111010 -
0!
1'
b101 7
b1 C
b1 l
b0 E
b0 m
b11111 ?
b11111 F
b111010 ,
b100000 P
b100000 u
b10 ^
b101 Q
b101 $
b0 k
b0 n
0d
0r
1b
b101 f
b0 e
b11100 [
b11100 \
b100 9
b10100001000001111111111111010 T
1+
#310000
0+
#315000
b11111111111111111111111111111010 %
b11111111111111111111111111111010 v
b101 >
b1111011011010000 6
b110010000 G
b100000 #
0*
b10 =
b10 p
b0 N
b110001000 I
b110001000 s
0(
b101 B
b101 q
b11111111111111111111111111111010 J
b11111111111111111111111111111010 t
b110010000 -
1L
14
0'
b101011 7
b101 E
b101 m
b0 ?
b110 F
b10000 ,
b1000 :
b100000001000011111111111111100 .
b0 O
b101 R
b1010110 `
b101 j
b10 i
b10 M
b111010 P
b111010 u
b11111111111111111111111111111010 g
b0 ^
b110001000 ]
b10101100001001010000000110010000 T
b100000 \
b11001100000 9
b100 [
0b
b11111 _
b0 f
b1 e
1c
1+
#320000
0+
#325000
1A
b11111111111111111111111111111100 G
b110010010000000 6
b101 N
b110001000 =
b110001000 p
b1100011000 %
b1100011000 v
b110010000 J
b110010000 t
b110001000 >
bx @
b101 O
b1100 :
b10001100001000110000000000000000 .
b1111111111111100 -
0L
04
1!
b1000 7
b1 E
b1 m
b11111 ?
b11111 F
b111100 ,
b100000 P
b100000 u
b110010000 g
b101 ^
b0 j
b0 i
b0 M
b11111111111111111111111111111010 Q
b11111111111111111111111111111010 $
b101 k
b101 n
1d
1r
0c
1X
b0 _
b101 f
b1000 [
b1000 \
b11111111111111111111111111111000 9
b100000001000011111111111111100 T
1+
#330000
0+
#335000
1A
b0 G
b1011110 >
b110001000 N
b1111100111100000 6
b110000100 %
b110000100 v
b1011110 =
b1011110 p
b11111111111111111111111111111010 B
b11111111111111111111111111111010 q
b11111111111111111111111111111100 J
b11111111111111111111111111111100 t
b0 -
10
12
0!
b100011 7
b11 E
b11 m
b0 ?
b0 F
b0 ,
b10000 :
b101000011001000000000001010101 .
b1 O
b0 k
b0 n
b11111111111111111111111111111010 R
bx `
b101 j
b101 i
b101 M
b1100011000 Q
b1100011000 $
b11111111111111111111111111111100 g
b110001000 ^
b10001100001000110000000000000000 T
b1100 \
b1100 9
b1100 [
0X
1b
b11111 _
b1 f
1Y
13
0d
0r
1+
#340000
0+
#345000
b100010 #
b1010101 G
b1011110 <
b0 >
b0 6
b1011110 N
b110000100 I
b110000100 s
1K
b1011110 ;
b1011110 o
b0 =
b0 p
b0 J
b0 t
b1100011000 B
b1100011000 q
11
b11 O
b10100 :
b10100100000000000000000000101 .
b1010101 -
00
02
1H
b1010 7
b11 C
b11 l
b100 E
b100 m
b1 F
b10101 ,
b0 g
b1011110 ^
b1 j
b110001000 i
b110001000 M
b110000100 Q
b110000100 $
b101 k
b101 n
b1100011000 R
b1010110 @
0Y
03
1c
1U
b0 _
b11 f
b10000 [
b10000 \
b101100100 9
b101000011001000000000001010101 T
1+
#350000
0+
#355000
b110000100 <
b110001000 %
b110001000 v
0K
b110001000 I
b110001000 s
b110000100 B
b110000100 q
01
b0 O
b1 k
b1 n
b110000100 R
b1010110 `
b11 j
b1011110 i
b1011110 M
1V
0b
0U
b0 f
b0 e
1d
1r
1+
#360000
0+
#365000
1K
b101 #
1)
b101 G
0*
b0 >
b1110010001110 6
b0 N
b1010110 I
b1010110 s
0A
1(
b0 ;
b0 o
b0 =
b0 p
b1 %
b1 v
b1010101 J
b1010101 t
b0 <
b1011110 @
b1010110 B
b1010110 q
b100 O
b11000 :
b100000000001010000000000000101 .
b101 -
0H
1'
b101 7
b100 C
b100 l
b0 E
b0 m
b0 F
b101 ,
b100010 P
b100010 u
b1010101 g
b0 ^
b110000100 ]
1h
b0 j
0V
b110001000 Q
b110001000 $
b11 k
b11 n
1W
0c
1b
b100 f
b11 e
b10100 [
b10100 \
b101000 9
b10100100000000000000000000101 T
1+
#370000
0+
#375000
b100101111 %
b100101111 v
0K
b1000000011010100 6
0)
b110000100 I
b110000100 s
b110001000 B
b110001000 q
b1010011 @
b0 O
b0 k
b0 n
0W
b110001000 R
b1011110 `
b100 j
b0 i
b0 M
b0 Q
b0 $
0b
b0 f
b0 e
1c
0d
0r
1+
#380000
0+
#385000
1A
b100000 #
b101 >
b101 =
b101 p
b101 %
b101 v
b0 6
b0 I
b0 s
b0 <
0(
b0 ;
b0 o
b101 J
b101 t
b0 B
b0 q
b11100 :
b10100001000001111111111111010 .
1!
0'
b1000 7
b0 C
b0 l
b101 E
b101 m
b101 P
b101 u
b101 g
b0 ]
0h
b0 j
b100 k
b100 n
b0 R
b1010011 `
1d
1r
0c
b100 e
b11000 [
b11000 \
b101100 9
b100000000001010000000000000101 T
1+
#390000
0+
#395000
0A
b111010 #
b110000100 <
b11111111111111111111111111111010 G
1*
b110000100 ;
b110000100 o
b0 >
b101 N
1(
b0 =
b0 p
b1010110 @
b1111111111111010 -
0!
1'
b101 7
b1 C
b1 l
b0 E
b0 m
b11111 ?
b11111 F
b111010 ,
b100000 :
b10101100001001010000000110010000 .
b101 O
b0 k
b0 n
b101 Q
b101 $
b100000 P
b100000 u
b101 ^
b10100001000001111111111111010 T
b11100 \
b100 9
b11100 [
1b
b101 f
b0 e
0d
0r
1+
#400000
0+
#405000
b11111111111111111111111111111010 %
b11111111111111111111111111111010 v
b1111011011101000 6
b101 >
b110010000 G
b100000 #
0*
b101 =
b101 p
b0 N
b110000100 I
b110000100 s
0(
b11111111111111111111111111111010 J
b11111111111111111111111111111010 t
b101 B
b101 q
b0 O
b1000 :
b100000001000011111111111111100 .
b110010000 -
1L
14
0'
b101011 7
b101 E
b101 m
b0 ?
b110 F
b10000 ,
b111010 P
b111010 u
b11111111111111111111111111111010 g
b0 ^
b110000100 ]
b101 j
b101 i
b101 M
b101 R
b1010110 `
1c
0b
b11111 _
b0 f
b1 e
b100 [
b100000 \
b11001100000 9
b10101100001001010000000110010000 T
1+
#410000
0+
#415000
1A
b11111111111111111111111111111100 G
b110000100 >
b101111001000000 6
b101 N
b110000100 =
b110000100 p
bx @
b1100010100 %
b1100010100 v
b110010000 J
b110010000 t
b1111111111111100 -
0L
04
1!
b1000 7
b1 E
b1 m
b11111 ?
b11111 F
b111100 ,
b1100 :
b10001100001000110000000000000000 .
b101 O
b101 k
b101 n
b0 j
b0 i
b0 M
b11111111111111111111111111111010 Q
b11111111111111111111111111111010 $
b100000 P
b100000 u
b110010000 g
b101 ^
b100000001000011111111111111100 T
b1000 \
b11111111111111111111111111111000 9
b1000 [
1X
b0 _
b101 f
0c
1d
1r
1+
#420000
0+
#425000
1A
b110000100 N
b0 G
b1010110 >
b1111100111110000 6
b110000000 %
b110000000 v
b1010110 =
b1010110 p
b11111111111111111111111111111100 J
b11111111111111111111111111111100 t
b11111111111111111111111111111010 B
b11111111111111111111111111111010 q
b1 O
b10000 :
b101000011001000000000001010101 .
b0 -
10
12
0!
b100011 7
b11 E
b11 m
b0 ?
b0 F
b0 ,
b11111111111111111111111111111100 g
b110000100 ^
b101 j
b101 i
b101 M
b1100010100 Q
b1100010100 $
b0 k
b0 n
b11111111111111111111111111111010 R
bx `
0d
0r
1Y
13
0X
1b
b11111 _
b1 f
b1100 [
b1100 \
b1100 9
b10001100001000110000000000000000 T
1+
#430000
0+
#435000
b100010 #
b1010101 G
b1010110 <
b0 >
b110000000 I
b110000000 s
b0 6
b110000000 %
b110000000 v
b1010110 N
b1010110 ;
b1010110 o
b0 =
b0 p
1K
b1100010100 B
b1100010100 q
b0 J
b0 t
b1010101 -
00
02
1H
b1010 7
b11 C
b11 l
b100 E
b100 m
b1 F
b10101 ,
b10100 :
b10100100000000000000000000101 .
11
b11 O
b11010 @
b101 k
b101 n
b1100010100 R
b1 j
b110000100 i
b110000100 M
b110000000 Q
b110000000 $
b0 g
b1010110 ^
b101000011001000000000001010101 T
b10000 \
b101100100 9
b10000 [
1U
b0 _
b11 f
0Y
03
1c
1+
#440000
0+
#445000
b110000000 <
b110000100 %
b110000100 v
0K
b110000100 I
b110000100 s
b110000000 B
b110000000 q
01
b0 O
b11 j
b1010110 i
b1010110 M
1V
b1 k
b1 n
b110000000 R
b11010 `
1d
1r
0b
0U
b0 f
b0 e
1+
#450000
0+
#455000
1K
b101 #
1)
b101 G
0*
b0 >
b100010100010 6
b0 N
b11010 I
b11010 s
0A
1(
b0 ;
b0 o
b0 =
b0 p
b11010 B
b11010 q
b0 <
b1010110 @
b11111111111111111111111111000101 %
b11111111111111111111111111000101 v
b1010101 J
b1010101 t
b101 -
0H
1'
b101 7
b100 C
b100 l
b0 E
b0 m
b0 F
b101 ,
b11000 :
b100000000001010000000000000101 .
b100 O
b11 k
b11 n
1W
b0 j
0V
b110000100 Q
b110000100 $
b100010 P
b100010 u
b1010101 g
b0 ^
b110000000 ]
1h
b10100100000000000000000000101 T
b10100 \
b101000 9
b10100 [
1b
b100 f
b11 e
0c
1+
#460000
0+
#465000
1*
b100101011 %
b100101011 v
b111111110000000 6
0K
b1 <
b110000000 I
b110000000 s
0)
b1010011 @
b110000100 B
b110000100 q
b0 O
b100 j
b0 i
b0 M
b1 Q
b1 $
b0 k
b0 n
0W
b110000100 R
b1010110 `
0d
0r
1c
0b
b0 f
b0 e
1+
#470000
0+
#475000
1A
b100000 #
b101 >
0*
b101 =
b101 p
b101 %
b101 v
b101 6
b1 I
b1 s
0(
b0 ;
b0 o
b1 B
b1 q
b0 <
b101 J
b101 t
1!
0'
b1000 7
b0 C
b0 l
b101 E
b101 m
b101100 :
b101000011001000000000000111100 .
b100 k
b100 n
b1 R
b1010011 `
b0 j
b0 Q
b0 $
b101 P
b101 u
b101 g
b1 ]
0h
b100000000001010000000000000101 T
b11000 \
b101100 9
b101000 [
b100 e
0c
1d
1r
1+
#480000
0+
#485000
b0 6
b100010 #
b11010 <
b0 I
b0 s
b111100 G
b11010 ;
b11010 o
b1 >
b101 N
b1 =
b1 p
b101 %
b101 v
b1010110 @
b0 B
b0 q
b101 O
b110000 :
b10100100000000000000000000101 .
b111100 -
0!
1H
b1010 7
b11 C
b11 l
b100 E
b100 m
b111100 ,
b100000 P
b100000 u
b101 ^
b0 ]
b101 Q
b101 $
b0 k
b0 n
b0 R
0d
0r
1b
b101 f
b0 e
b101100 [
b101100 \
b100011100 9
b101000011001000000000000111100 T
1+
#490000
0+
