prog_q/mipse.vcd
$date
	Wed Jul 15 18:40:28 2015
$end
$version
	Icarus Verilog
$end
$timescale
	1ps
$end
$scope module test_mipse $end
$scope module mipse_1 $end
$var wire 1 ! addi_opD $end
$var wire 1 " alu_opD $end
$var wire 6 # alucomD [5:0] $end
$var wire 32 $ aluout [31:0] $end
$var wire 32 % aluoutE [31:0] $end
$var wire 1 & beq_opD $end
$var wire 1 ' bne_opD $end
$var wire 1 ( branchD $end
$var wire 1 ) branchstall $end
$var wire 1 * btakenD $end
$var wire 1 + clk $end
$var wire 6 , funcD [5:0] $end
$var wire 16 - immD [15:0] $end
$var wire 32 . instr [31:0] $end
$var wire 1 / lui_opD $end
$var wire 1 0 lw_opD $end
$var wire 1 1 lwstall $end
$var wire 1 2 memtoregD $end
$var wire 1 3 memwrite $end
$var wire 1 4 memwriteD $end
$var wire 6 5 opcodeD [5:0] $end
$var wire 1 6 ori_opD $end
$var wire 32 7 pcbranchD [31:0] $end
$var wire 32 8 pcplus4F [31:0] $end
$var wire 32 9 rd1D [31:0] $end
$var wire 32 : rd1fD [31:0] $end
$var wire 32 ; rd2D [31:0] $end
$var wire 32 < rd2fD [31:0] $end
$var wire 5 = rdD [4:0] $end
$var wire 32 > readdata [31:0] $end
$var wire 1 ? regwriteD $end
$var wire 32 @ resultW [31:0] $end
$var wire 5 A rsD [4:0] $end
$var wire 1 B rst_n $end
$var wire 5 C rtD [4:0] $end
$var wire 5 D shamtD [4:0] $end
$var wire 32 E signimmD [31:0] $end
$var wire 1 F slti_opD $end
$var wire 32 G srcaE [31:0] $end
$var wire 32 H srcbE [31:0] $end
$var wire 1 I stall $end
$var wire 1 J sw_opD $end
$var wire 32 K writedata [31:0] $end
$var wire 32 L writedataE [31:0] $end
$var wire 5 M writeregE [4:0] $end
$var reg 6 N alucomE [5:0] $end
$var reg 32 O aluoutM [31:0] $end
$var reg 32 P aluoutW [31:0] $end
$var reg 1 Q alusrcE $end
$var reg 32 R instrD [31:0] $end
$var reg 1 S memtoregE $end
$var reg 1 T memtoregM $end
$var reg 1 U memtoregW $end
$var reg 1 V memwriteE $end
$var reg 1 W memwriteM $end
$var reg 32 X pc [31:0] $end
$var reg 32 Y pcplus4D [31:0] $end
$var reg 32 Z rd1E [31:0] $end
$var reg 32 [ rd2E [31:0] $end
$var reg 5 \ rdE [4:0] $end
$var reg 32 ] readdataW [31:0] $end
$var reg 1 ^ regdstE $end
$var reg 1 _ regwriteE $end
$var reg 1 ` regwriteM $end
$var reg 1 a regwriteW $end
$var reg 5 b rsE [4:0] $end
$var reg 5 c rtE [4:0] $end
$var reg 32 d signimmE [31:0] $end
$var reg 1 e slti_opE $end
$var reg 32 f writedataM [31:0] $end
$var reg 5 g writeregM [4:0] $end
$var reg 5 h writeregW [4:0] $end
$scope module rfile_1 $end
$var wire 5 i a1 [4:0] $end
$var wire 5 j a2 [4:0] $end
$var wire 5 k a3 [4:0] $end
$var wire 1 + clk $end
$var wire 32 l rd1 [31:0] $end
$var wire 32 m rd2 [31:0] $end
$var wire 32 n wd3 [31:0] $end
$var wire 1 o we3 $end
$upscope $end
$scope module alu_1 $end
$var wire 32 p a [31:0] $end
$var wire 32 q b [31:0] $end
$var wire 6 r s [5:0] $end
$var wire 32 s y [31:0] $end
$var wire 1 t zero $end
$upscope $end
$upscope $end
$upscope $end
$enddefinitions $end
#0
$dumpvars
xt
bx s
bx r
bx q
bx p
0o
bx n
b0 m
b0 l
bx k
b0 j
b0 i
bx h
bx g
bx f
xe
bx d
b0 c
b0 b
0a
0`
0_
x^
bx ]
b0 \
bx [
bx Z
b0 Y
b0 X
0W
0V
xU
xT
0S
b0 R
xQ
bx P
bx O
bx N
b0 M
bx L
bx K
0J
0I
bx H
bx G
0F
b0 E
b0 D
b0 C
0B
b0 A
bx @
0?
bx >
b0 =
b0 <
b0 ;
b0 :
b0 9
b100 8
b0 7
06
b0 5
04
03
02
01
00
0/
b100000000000010000000110010000 .
b0 -
b0 ,
0+
0*
0)
0(
0'
0&
bx %
bx $
b0 #
0"
0!
$end
#5000
b0 L
b0 G
b0 p
1t
b0 %
b0 s
b0 H
b0 q
0^
1Q
b0 N
b0 r
b0 d
b0 [
b0 Z
0e
b0 g
0T
1+
#10000
0+
#12000
1B
#15000
1?
b100000 #
b110010000 E
bx <
bx ;
bx m
b1100111 >
b110010000 -
1!
b1000 5
b1 C
b1 j
b110 D
b10000 ,
b1000 8
b100000001000011111111111111100 .
b0 h
b0 k
0U
b0 f
b0 K
b0 O
b0 $
b100000000000010000000110010000 R
b100 Y
b11001000100 7
b100 X
1+
#20000
0+
#25000
b11111111111111111111111111111100 E
bx :
bx L
bx 9
bx l
0t
b110010000 %
b110010000 s
b110010000 H
b110010000 q
b0 @
b0 n
b1 M
b1100 8
b10001100001000110000000000000000 .
b1111111111111100 -
b1 A
b1 i
b11111 =
b11111 D
b111100 ,
b100000 N
b100000 r
b110010000 d
bx [
b0 P
b1100111 ]
1_
b1 c
b1000 X
b1000 Y
b11111111111111111111111111111000 7
b100000001000011111111111111100 R
1+
#30000
0+
#35000
1?
b110010000 :
b0 E
b110010000 L
b110001100 %
b110001100 s
b110010000 G
b110010000 p
b111110110000000000000000 >
b11111111111111111111111111111100 H
b11111111111111111111111111111100 q
b0 -
10
12
0!
b100011 5
b11 C
b11 j
b0 =
b0 D
b0 ,
b10000 8
b10001100001001000000000110010000 .
b1 g
bx f
bx K
b110010000 O
b110010000 $
b11111111111111111111111111111100 d
bx Z
b10001100001000110000000000000000 R
b1100 Y
b1100 7
b1100 X
b11111 \
b1 b
1`
1+
#40000
0+
#45000
b110010000 E
b0 H
b0 q
b110001100 :
b110001100 G
b110001100 p
bx L
b1000011 >
b110010000 @
b110010000 n
b11 M
b10100 8
b100000110010000000100101 .
b110010000 -
b100 C
b100 j
b110 D
b10000 ,
b0 d
b110010000 Z
b110010000 f
b110010000 K
b110001100 O
b110001100 $
b1 h
b1 k
b110010000 P
b111110110000000000000000 ]
1a
1o
1S
b0 \
b11 c
b10000 X
b10000 Y
b11001010000 7
b10001100001001000000000110010000 R
1+
#50000
b110010000 9
b110010000 l
0+
#55000
1?
b100101 #
b110001100 <
1"
bx :
b10000000100101 E
1I
b110001100 G
b110001100 p
b1100011100 %
b1100011100 s
bx 9
bx l
11
b110001100 @
b110001100 n
b110010000 H
b110010000 q
b10000000100101 -
00
02
b0 5
b100 A
b100 i
b11 C
b11 j
b100 =
b0 D
b100101 ,
b11000 8
b10101100001001000000001100100000 .
b100 M
b110001100 P
b1000011 ]
b11 g
bx f
bx K
1T
b110010000 d
b110001100 Z
b100000110010000000100101 R
b10100 Y
b1000000010101000 7
b10100 X
b100 c
1+
#60000
0+
#65000
b1100011100 :
0I
bx <
b1010010000000000000000 >
b1000011 @
b1000011 n
01
b0 M
b100 g
b1100011100 O
b1100011100 $
b11 h
b11 k
1U
0_
0S
b0 c
b0 b
1+
#70000
b1000011 <
b1000011 ;
b1000011 m
0+
#75000
0?
b1100100000 E
b100000 #
bx <
b1000011 L
b1010010000000000000000 G
b1010010000000000000000 p
0"
b110001100 9
b110001100 l
bx ;
bx m
b110001100 :
b1010010000000000000000 @
b1010010000000000000000 n
b1010010000000001000011 %
b1010010000000001000011 s
b1000011 H
b1000011 q
b1100100000 -
1J
14
b101011 5
b1 A
b1 i
b100 C
b100 j
b0 =
b1100 D
b100000 ,
b11100 8
b10100001000001111111111111010 .
b100 M
b100 h
b100 k
b1100011100 P
b1010010000000000000000 ]
b0 g
0T
1^
0Q
b100101 N
b100101 r
b10000000100101 d
b1000011 [
b1100011100 Z
b10101100001001000000001100100000 R
b11000 Y
b110010011000 7
b11000 X
1_
b100 \
b11 c
b100 b
0`
1+
#80000
b1010010000000000000000 <
b1010010000000000000000 ;
b1010010000000000000000 m
0+
#85000
b111010 #
b110001100 G
b110001100 p
b11111111111111111111111111111010 E
1*
b0 <
b10010101100 %
b10010101100 s
b1010010000000001000011 L
1(
b0 ;
b0 m
b1100100000 H
b1100100000 q
bx >
b1100011100 @
b1100011100 n
b100000 8
b100000 .
b1111111111111010 -
0J
04
1'
b101 5
b0 C
b0 j
b11111 =
b11111 D
b111010 ,
0^
1Q
b100000 N
b100000 r
b1100100000 d
b1010010000000000000000 [
b110001100 Z
b100 g
b1000011 f
b1000011 K
b1010010000000001000011 O
b1010010000000001000011 $
b0 h
b0 k
0U
0a
0o
1`
1V
0_
b0 \
b100 c
b1 b
b11100 X
b11100 Y
b100 7
b10100001000001111111111111010 R
1+
#90000
0+
#95000
1?
b100000 #
1"
b100000 E
0*
b0 :
0(
b0 9
b0 l
b1010010000000001000011 @
b1010010000000001000011 n
b0 L
b11111111111111111111111111111010 %
b11111111111111111111111111111010 s
b11111111111111111111111111111010 H
b11111111111111111111111111111010 q
b100000 -
0'
b0 5
b0 A
b0 i
b0 =
b0 D
b100000 ,
b1000 8
b100000001000011111111111111100 .
b0 M
b100 h
b100 k
b1010010000000001000011 P
bx ]
b1010010000000001000011 f
b1010010000000001000011 K
b10010101100 O
b10010101100 $
b111010 N
b111010 r
b11111111111111111111111111111010 d
b0 [
b100000 R
b100000 Y
b10100000 7
b100 X
0V
b11111 \
b0 c
1W
13
0`
1a
1o
1+
#100000
0+
#105000
1t
b11111111111111111111111111111100 E
b110001100 :
b110001100 <
b0 G
b0 p
0"
b110001100 9
b110001100 l
b110001100 ;
b110001100 m
b0 %
b0 s
b0 H
b0 q
b10010101100 @
b10010101100 n
b1100 8
b10001100001000110000000000000000 .
b1111111111111100 -
1!
b1000 5
b1 A
b1 i
b1 C
b1 j
b11111 =
b11111 D
b111100 ,
1^
0Q
b100000 N
b100000 r
b100000 d
b0 Z
b0 g
b0 f
b0 K
b11111111111111111111111111111010 O
b11111111111111111111111111111010 $
b10010101100 P
bx >
0a
0o
0W
03
1_
b0 \
b0 b
b1000 X
b1000 Y
b11111111111111111111111111111000 7
b100000001000011111111111111100 R
1+
#110000
0+
#115000
1?
b0 E
b1000011 <
0t
b110001000 %
b110001000 s
b110001100 L
b110001100 G
b110001100 p
b1000011 ;
b1000011 m
b11111111111111111111111111111010 @
b11111111111111111111111111111010 n
b1100111 >
b11111111111111111111111111111100 H
b11111111111111111111111111111100 q
b0 -
10
12
0!
b100011 5
b11 C
b11 j
b0 =
b0 D
b0 ,
b10000 8
b10001100001001000000000110010000 .
b1 M
b0 h
b0 k
b11111111111111111111111111111010 P
b0 O
b0 $
0^
1Q
b11111111111111111111111111111100 d
b110001100 [
b110001100 Z
b10001100001000110000000000000000 R
b1100 Y
b1100 7
b1100 X
b11111 \
b1 c
b1 b
1`
1+
#120000
0+
#125000
b110001000 :
b110010000 E
b1010010000000001000011 <
b1000011 L
b110001000 G
b110001000 p
b1010010000000001000011 ;
b1010010000000001000011 m
b0 H
b0 q
b11111110 >
b0 @
b0 n
b11 M
b10100 8
b100000110010000000100101 .
b110010000 -
b100 C
b100 j
b110 D
b10000 ,
b0 d
b1000011 [
b1 g
b110001100 f
b110001100 K
b110001000 O
b110001000 $
b0 P
b1100111 ]
1a
1o
1S
b0 \
b11 c
b10000 X
b10000 Y
b11001010000 7
b10001100001001000000000110010000 R
1+
#130000
0+
#135000
1?
b100101 #
1"
b1010010000000001000011 :
b10000000100101 E
b110001000 <
1I
b1100011000 %
b1100011000 s
b1010010000000001000011 L
b1010010000000001000011 9
b1010010000000001000011 l
b1000011 ;
b1000011 m
11
b110001000 @
b110001000 n
b110010000 H
b110010000 q
b10000000100101 -
00
02
b0 5
b100 A
b100 i
b11 C
b11 j
b100 =
b0 D
b100101 ,
b11000 8
b10101100001001000000001100100000 .
b100 M
b1 h
b1 k
b110001000 P
b11111110 ]
b11 g
b1000011 f
b1000011 K
1T
b110010000 d
b1010010000000001000011 [
b110001000 Z
b100000110010000000100101 R
b10100 Y
b1000000010101000 7
b10100 X
b100 c
1+
#140000
0+
#145000
b1100011000 :
0I
b1000011 <
b111110000000000000000000 >
b11111110 @
b11111110 n
01
b0 M
b100 g
b1010010000000001000011 f
b1010010000000001000011 K
b1100011000 O
b1100011000 $
b11 h
b11 k
1U
0_
0S
b0 c
b0 b
1+
#150000
b11111110 <
b11111110 ;
b11111110 m
0+
#155000
0?
b1100100000 E
b100000 #
b1010010000000001000011 <
b11111110 L
b111110000000000000000000 G
b111110000000000000000000 p
0"
b110001000 9
b110001000 l
b1010010000000001000011 ;
b1010010000000001000011 m
b110001000 :
b111110000000000000000000 @
b111110000000000000000000 n
b111110000000000011111110 %
b111110000000000011111110 s
b11111110 H
b11111110 q
b1100100000 -
1J
14
b101011 5
b1 A
b1 i
b100 C
b100 j
b0 =
b1100 D
b100000 ,
b11100 8
b10100001000001111111111111010 .
b100 M
b100 h
b100 k
b1100011000 P
b111110000000000000000000 ]
b0 g
0T
1^
0Q
b100101 N
b100101 r
b10000000100101 d
b11111110 [
b1100011000 Z
b10101100001001000000001100100000 R
b11000 Y
b110010011000 7
b11000 X
1_
b100 \
b11 c
b100 b
0`
1+
#160000
b111110000000000000000000 <
b111110000000000000000000 ;
b111110000000000000000000 m
0+
#165000
b111010 #
b110001000 G
b110001000 p
b11111111111111111111111111111010 E
1*
b0 <
b10010101000 %
b10010101000 s
b111110000000000011111110 L
1(
b0 ;
b0 m
b1100100000 H
b1100100000 q
b10000111 >
b1100011000 @
b1100011000 n
b100000 8
b100000 .
b1111111111111010 -
0J
04
1'
b101 5
b0 C
b0 j
b11111 =
b11111 D
b111010 ,
0^
1Q
b100000 N
b100000 r
b1100100000 d
b111110000000000000000000 [
b110001000 Z
b100 g
b11111110 f
b11111110 K
b111110000000000011111110 O
b111110000000000011111110 $
b0 h
b0 k
0U
0a
0o
1`
1V
0_
b0 \
b100 c
b1 b
b11100 X
b11100 Y
b100 7
b10100001000001111111111111010 R
1+
#170000
0+
#175000
1?
b100000 #
1"
b100000 E
0*
b0 :
0(
b0 9
b0 l
b111110000000000011111110 @
b111110000000000011111110 n
b0 L
bx >
b11111111111111111111111111111010 %
b11111111111111111111111111111010 s
b11111111111111111111111111111010 H
b11111111111111111111111111111010 q
b100000 -
0'
b0 5
b0 A
b0 i
b0 =
b0 D
b100000 ,
b1000 8
b100000001000011111111111111100 .
b0 M
b100 h
b100 k
b111110000000000011111110 P
b10000111 ]
b111110000000000011111110 f
b111110000000000011111110 K
b10010101000 O
b10010101000 $
b111010 N
b111010 r
b11111111111111111111111111111010 d
b0 [
b100000 R
b100000 Y
b10100000 7
b100 X
0V
b11111 \
b0 c
1W
13
0`
1a
1o
1+
#180000
0+
#185000
1t
b11111111111111111111111111111100 E
b110001000 :
b110001000 <
b0 G
b0 p
0"
b110001000 9
b110001000 l
b110001000 ;
b110001000 m
b0 %
b0 s
b0 H
b0 q
b10010101000 @
b10010101000 n
b1100 8
b10001100001000110000000000000000 .
b1111111111111100 -
1!
b1000 5
b1 A
b1 i
b1 C
b1 j
b11111 =
b11111 D
b111100 ,
1^
0Q
b100000 N
b100000 r
b100000 d
b0 Z
b0 g
b0 f
b0 K
b11111111111111111111111111111010 O
b11111111111111111111111111111010 $
b10010101000 P
bx ]
bx >
0a
0o
0W
03
1_
b0 \
b0 b
b1000 X
b1000 Y
b11111111111111111111111111111000 7
b100000001000011111111111111100 R
1+
#190000
0+
#195000
1?
b0 E
b11111110 <
0t
b110000100 %
b110000100 s
b110001000 L
b110001000 G
b110001000 p
b11111110 ;
b11111110 m
b11111111111111111111111111111010 @
b11111111111111111111111111111010 n
b1100111 >
b11111111111111111111111111111100 H
b11111111111111111111111111111100 q
b0 -
10
12
0!
b100011 5
b11 C
b11 j
b0 =
b0 D
b0 ,
b10000 8
b10001100001001000000000110010000 .
b1 M
b0 h
b0 k
b11111111111111111111111111111010 P
b0 O
b0 $
0^
1Q
b11111111111111111111111111111100 d
b110001000 [
b110001000 Z
b10001100001000110000000000000000 R
b1100 Y
b1100 7
b1100 X
b11111 \
b1 c
b1 b
1`
1+
#200000
0+
#205000
b110000100 :
b110010000 E
b111110000000000011111110 <
b11111110 L
b110000100 G
b110000100 p
b111110000000000011111110 ;
b111110000000000011111110 m
b0 H
b0 q
b11010 >
b0 @
b0 n
b11 M
b10100 8
b100000110010000000100101 .
b110010000 -
b100 C
b100 j
b110 D
b10000 ,
b0 d
b11111110 [
b1 g
b110001000 f
b110001000 K
b110000100 O
b110000100 $
b0 P
b1100111 ]
1a
1o
1S
b0 \
b11 c
b10000 X
b10000 Y
b11001010000 7
b10001100001001000000000110010000 R
1+
#210000
0+
#215000
1?
b100101 #
1"
b111110000000000011111110 :
b10000000100101 E
b110000100 <
1I
b1100010100 %
b1100010100 s
b111110000000000011111110 L
b111110000000000011111110 9
b111110000000000011111110 l
b11111110 ;
b11111110 m
11
b110000100 @
b110000100 n
b110010000 H
b110010000 q
b10000000100101 -
00
02
b0 5
b100 A
b100 i
b11 C
b11 j
b100 =
b0 D
b100101 ,
b11000 8
b10101100001001000000001100100000 .
b100 M
b1 h
b1 k
b110000100 P
b11010 ]
b11 g
b11111110 f
b11111110 K
1T
b110010000 d
b111110000000000011111110 [
b110000100 Z
b100000110010000000100101 R
b10100 Y
b1000000010101000 7
b10100 X
b100 c
1+
#220000
0+
#225000
b1100010100 :
0I
b11111110 <
b1000110000000000000000 >
b11010 @
b11010 n
01
b0 M
b100 g
b111110000000000011111110 f
b111110000000000011111110 K
b1100010100 O
b1100010100 $
b11 h
b11 k
1U
0_
0S
b0 c
b0 b
1+
#230000
b11010 <
b11010 ;
b11010 m
0+
#235000
0?
b1100100000 E
b100000 #
b111110000000000011111110 <
b11010 L
b1000110000000000000000 G
b1000110000000000000000 p
0"
b110000100 9
b110000100 l
b111110000000000011111110 ;
b111110000000000011111110 m
b110000100 :
b1000110000000000000000 @
b1000110000000000000000 n
b1000110000000000011010 %
b1000110000000000011010 s
b11010 H
b11010 q
b1100100000 -
1J
14
b101011 5
b1 A
b1 i
b100 C
b100 j
b0 =
b1100 D
b100000 ,
b11100 8
b10100001000001111111111111010 .
b100 M
b100 h
b100 k
b1100010100 P
b1000110000000000000000 ]
b0 g
0T
1^
0Q
b100101 N
b100101 r
b10000000100101 d
b11010 [
b1100010100 Z
b10101100001001000000001100100000 R
b11000 Y
b110010011000 7
b11000 X
1_
b100 \
b11 c
b100 b
0`
1+
#240000
b1000110000000000000000 <
b1000110000000000000000 ;
b1000110000000000000000 m
0+
#245000
b111010 #
b110000100 G
b110000100 p
b11111111111111111111111111111010 E
1*
b0 <
b10010100100 %
b10010100100 s
b1000110000000000011010 L
1(
b0 ;
b0 m
b1100100000 H
b1100100000 q
bx >
b1100010100 @
b1100010100 n
b100000 8
b100000 .
b1111111111111010 -
0J
04
1'
b101 5
b0 C
b0 j
b11111 =
b11111 D
b111010 ,
0^
1Q
b100000 N
b100000 r
b1100100000 d
b1000110000000000000000 [
b110000100 Z
b100 g
b11010 f
b11010 K
b1000110000000000011010 O
b1000110000000000011010 $
b0 h
b0 k
0U
0a
0o
1`
1V
0_
b0 \
b100 c
b1 b
b11100 X
b11100 Y
b100 7
b10100001000001111111111111010 R
1+
#250000
0+
#255000
1?
b100000 #
1"
b100000 E
0*
b0 :
0(
b0 9
b0 l
b1000110000000000011010 @
b1000110000000000011010 n
b0 L
b11111111111111111111111111111010 %
b11111111111111111111111111111010 s
b11111111111111111111111111111010 H
b11111111111111111111111111111010 q
b100000 -
0'
b0 5
b0 A
b0 i
b0 =
b0 D
b100000 ,
b1000 8
b100000001000011111111111111100 .
b0 M
b100 h
b100 k
b1000110000000000011010 P
bx ]
b1000110000000000011010 f
b1000110000000000011010 K
b10010100100 O
b10010100100 $
b111010 N
b111010 r
b11111111111111111111111111111010 d
b0 [
b100000 R
b100000 Y
b10100000 7
b100 X
0V
b11111 \
b0 c
1W
13
0`
1a
1o
1+
#260000
0+
#265000
1t
b11111111111111111111111111111100 E
b110000100 :
b110000100 <
b0 G
b0 p
0"
b110000100 9
b110000100 l
b110000100 ;
b110000100 m
b0 %
b0 s
b0 H
b0 q
b10010100100 @
b10010100100 n
b1100 8
b10001100001000110000000000000000 .
b1111111111111100 -
1!
b1000 5
b1 A
b1 i
b1 C
b1 j
b11111 =
b11111 D
b111100 ,
1^
0Q
b100000 N
b100000 r
b100000 d
b0 Z
b0 g
b0 f
b0 K
b11111111111111111111111111111010 O
b11111111111111111111111111111010 $
b10010100100 P
bx >
0a
0o
0W
03
1_
b0 \
b0 b
b1000 X
b1000 Y
b11111111111111111111111111111000 7
b100000001000011111111111111100 R
1+
#270000
0+
#275000
1?
b0 E
b11010 <
0t
b110000000 %
b110000000 s
b110000100 L
b110000100 G
b110000100 p
b11010 ;
b11010 m
b11111111111111111111111111111010 @
b11111111111111111111111111111010 n
b1100111 >
b11111111111111111111111111111100 H
b11111111111111111111111111111100 q
b0 -
10
12
0!
b100011 5
b11 C
b11 j
b0 =
b0 D
b0 ,
b10000 8
b10001100001001000000000110010000 .
b1 M
b0 h
b0 k
b11111111111111111111111111111010 P
b0 O
b0 $
0^
1Q
b11111111111111111111111111111100 d
b110000100 [
b110000100 Z
b10001100001000110000000000000000 R
b1100 Y
b1100 7
b1100 X
b11111 \
b1 c
b1 b
1`
1+
#280000
0+
#285000
b110000000 :
b110010000 E
b1000110000000000011010 <
b11010 L
b110000000 G
b110000000 p
b1000110000000000011010 ;
b1000110000000000011010 m
b0 H
b0 q
b10 >
b0 @
b0 n
b11 M
b10100 8
b100000110010000000100101 .
b110010000 -
b100 C
b100 j
b110 D
b10000 ,
b0 d
b11010 [
b1 g
b110000100 f
b110000100 K
b110000000 O
b110000000 $
b0 P
b1100111 ]
1a
1o
1S
b0 \
b11 c
b10000 X
b10000 Y
b11001010000 7
b10001100001001000000000110010000 R
1+
#290000
0+
#295000
1?
b100101 #
1"
b1000110000000000011010 :
b10000000100101 E
b110000000 <
1I
b1100010000 %
b1100010000 s
b1000110000000000011010 L
b1000110000000000011010 9
b1000110000000000011010 l
b11010 ;
b11010 m
11
b110000000 @
b110000000 n
b110010000 H
b110010000 q
b10000000100101 -
00
02
b0 5
b100 A
b100 i
b11 C
b11 j
b100 =
b0 D
b100101 ,
b11000 8
b10101100001001000000001100100000 .
b100 M
b1 h
b1 k
b110000000 P
b10 ]
b11 g
b11010 f
b11010 K
1T
b110010000 d
b1000110000000000011010 [
b110000000 Z
b100000110010000000100101 R
b10100 Y
b1000000010101000 7
b10100 X
b100 c
1+
#300000
0+
#305000
b1100010000 :
0I
b11010 <
b11111110000000000000000 >
b10 @
b10 n
01
b0 M
b100 g
b1000110000000000011010 f
b1000110000000000011010 K
b1100010000 O
b1100010000 $
b11 h
b11 k
1U
0_
0S
b0 c
b0 b
1+
#310000
b10 <
b10 ;
b10 m
0+
#315000
0?
b1100100000 E
b100000 #
b1000110000000000011010 <
b10 L
b11111110000000000000000 G
b11111110000000000000000 p
0"
b110000000 9
b110000000 l
b1000110000000000011010 ;
b1000110000000000011010 m
b110000000 :
b11111110000000000000000 @
b11111110000000000000000 n
b11111110000000000000010 %
b11111110000000000000010 s
b10 H
b10 q
b1100100000 -
1J
14
b101011 5
b1 A
b1 i
b100 C
b100 j
b0 =
b1100 D
b100000 ,
b11100 8
b10100001000001111111111111010 .
b100 M
b100 h
b100 k
b1100010000 P
b11111110000000000000000 ]
b0 g
0T
1^
0Q
b100101 N
b100101 r
b10000000100101 d
b10 [
b1100010000 Z
b10101100001001000000001100100000 R
b11000 Y
b110010011000 7
b11000 X
1_
b100 \
b11 c
b100 b
0`
1+
#320000
b11111110000000000000000 <
b11111110000000000000000 ;
b11111110000000000000000 m
0+
#325000
b111010 #
b110000000 G
b110000000 p
b11111111111111111111111111111010 E
1*
b0 <
b10010100000 %
b10010100000 s
b11111110000000000000010 L
1(
b0 ;
b0 m
b1100100000 H
b1100100000 q
bx >
b1100010000 @
b1100010000 n
b100000 8
b100000 .
b1111111111111010 -
0J
04
1'
b101 5
b0 C
b0 j
b11111 =
b11111 D
b111010 ,
0^
1Q
b100000 N
b100000 r
b1100100000 d
b11111110000000000000000 [
b110000000 Z
b100 g
b10 f
b10 K
b11111110000000000000010 O
b11111110000000000000010 $
b0 h
b0 k
0U
0a
0o
1`
1V
0_
b0 \
b100 c
b1 b
b11100 X
b11100 Y
b100 7
b10100001000001111111111111010 R
1+
#330000
0+
#335000
1?
b100000 #
1"
b100000 E
0*
b0 :
0(
b0 9
b0 l
b11111110000000000000010 @
b11111110000000000000010 n
b0 L
b11111111111111111111111111111010 %
b11111111111111111111111111111010 s
b11111111111111111111111111111010 H
b11111111111111111111111111111010 q
b100000 -
0'
b0 5
b0 A
b0 i
b0 =
b0 D
b100000 ,
b1000 8
b100000001000011111111111111100 .
b0 M
b100 h
b100 k
b11111110000000000000010 P
bx ]
b11111110000000000000010 f
b11111110000000000000010 K
b10010100000 O
b10010100000 $
b111010 N
b111010 r
b11111111111111111111111111111010 d
b0 [
b100000 R
b100000 Y
b10100000 7
b100 X
0V
b11111 \
b0 c
1W
13
0`
1a
1o
1+
#340000
0+
#345000
1t
b11111111111111111111111111111100 E
b110000000 :
b110000000 <
b0 G
b0 p
0"
b110000000 9
b110000000 l
b110000000 ;
b110000000 m
b0 %
b0 s
b0 H
b0 q
b10010100000 @
b10010100000 n
b1100 8
b10001100001000110000000000000000 .
b1111111111111100 -
1!
b1000 5
b1 A
b1 i
b1 C
b1 j
b11111 =
b11111 D
b111100 ,
1^
0Q
b100000 N
b100000 r
b100000 d
b0 Z
b0 g
b0 f
b0 K
b11111111111111111111111111111010 O
b11111111111111111111111111111010 $
b10010100000 P
bx >
0a
0o
0W
03
1_
b0 \
b0 b
b1000 X
b1000 Y
b11111111111111111111111111111000 7
b100000001000011111111111111100 R
1+
#350000
0+
#355000
1?
b0 E
b10 <
0t
b101111100 %
b101111100 s
b110000000 L
b110000000 G
b110000000 p
b10 ;
b10 m
b11111111111111111111111111111010 @
b11111111111111111111111111111010 n
b1100111 >
b11111111111111111111111111111100 H
b11111111111111111111111111111100 q
b0 -
10
12
0!
b100011 5
b11 C
b11 j
b0 =
b0 D
b0 ,
b10000 8
b10001100001001000000000110010000 .
b1 M
b0 h
b0 k
b11111111111111111111111111111010 P
b0 O
b0 $
0^
1Q
b11111111111111111111111111111100 d
b110000000 [
b110000000 Z
b10001100001000110000000000000000 R
b1100 Y
b1100 7
b1100 X
b11111 \
b1 c
b1 b
1`
1+
#360000
0+
#365000
b101111100 :
b110010000 E
b11111110000000000000010 <
b10 L
b101111100 G
b101111100 p
b11111110000000000000010 ;
b11111110000000000000010 m
b0 H
b0 q
b1011100 >
b0 @
b0 n
b11 M
b10100 8
b100000110010000000100101 .
b110010000 -
b100 C
b100 j
b110 D
b10000 ,
b0 d
b10 [
b1 g
b110000000 f
b110000000 K
b101111100 O
b101111100 $
b0 P
b1100111 ]
1a
1o
1S
b0 \
b11 c
b10000 X
b10000 Y
b11001010000 7
b10001100001001000000000110010000 R
1+
#370000
0+
#375000
1?
b100101 #
1"
b11111110000000000000010 :
b10000000100101 E
b101111100 <
1I
b1100001100 %
b1100001100 s
b11111110000000000000010 L
b11111110000000000000010 9
b11111110000000000000010 l
b10 ;
b10 m
11
b101111100 @
b101111100 n
b110010000 H
b110010000 q
b10000000100101 -
00
02
b0 5
b100 A
b100 i
b11 C
b11 j
b100 =
b0 D
b100101 ,
b11000 8
b10101100001001000000001100100000 .
b100 M
b1 h
b1 k
b101111100 P
b1011100 ]
b11 g
b10 f
b10 K
1T
b110010000 d
b11111110000000000000010 [
b101111100 Z
b100000110010000000100101 R
b10100 Y
b1000000010101000 7
b10100 X
b100 c
1+
#380000
0+
#385000
b1100001100 :
0I
b10 <
b111000000000000000000 >
b1011100 @
b1011100 n
01
b0 M
b100 g
b11111110000000000000010 f
b11111110000000000000010 K
b1100001100 O
b1100001100 $
b11 h
b11 k
1U
0_
0S
b0 c
b0 b
1+
#390000
b1011100 <
b1011100 ;
b1011100 m
0+
#395000
0?
b1100100000 E
b100000 #
b11111110000000000000010 <
b1011100 L
b111000000000000000000 G
b111000000000000000000 p
0"
b101111100 9
b101111100 l
b11111110000000000000010 ;
b11111110000000000000010 m
b101111100 :
b111000000000000000000 @
b111000000000000000000 n
b111000000000001011100 %
b111000000000001011100 s
b1011100 H
b1011100 q
b1100100000 -
1J
14
b101011 5
b1 A
b1 i
b100 C
b100 j
b0 =
b1100 D
b100000 ,
b11100 8
b10100001000001111111111111010 .
b100 M
b100 h
b100 k
b1100001100 P
b111000000000000000000 ]
b0 g
0T
1^
0Q
b100101 N
b100101 r
b10000000100101 d
b1011100 [
b1100001100 Z
b10101100001001000000001100100000 R
b11000 Y
b110010011000 7
b11000 X
1_
b100 \
b11 c
b100 b
0`
1+
#400000
b111000000000000000000 <
b111000000000000000000 ;
b111000000000000000000 m
0+
#405000
b111010 #
b101111100 G
b101111100 p
b11111111111111111111111111111010 E
1*
b0 <
b10010011100 %
b10010011100 s
b111000000000001011100 L
1(
b0 ;
b0 m
b1100100000 H
b1100100000 q
b10001101 >
b1100001100 @
b1100001100 n
b100000 8
b100000 .
b1111111111111010 -
0J
04
1'
b101 5
b0 C
b0 j
b11111 =
b11111 D
b111010 ,
0^
1Q
b100000 N
b100000 r
b1100100000 d
b111000000000000000000 [
b101111100 Z
b100 g
b1011100 f
b1011100 K
b111000000000001011100 O
b111000000000001011100 $
b0 h
b0 k
0U
0a
0o
1`
1V
0_
b0 \
b100 c
b1 b
b11100 X
b11100 Y
b100 7
b10100001000001111111111111010 R
1+
#410000
0+
