prog_swap/mipse.vcd
$date
	Tue Aug  2 13:17:47 2016
$end
$version
	Icarus Verilog
$end
$timescale
	1ps
$end
$scope module test_mipse $end
$scope module mipse_1 $end
$var wire 1 ! addi_opD $end
$var wire 1 " alu_opD $end
$var wire 6 # alucomD [5:0] $end
$var wire 32 $ aluout [31:0] $end
$var wire 32 % aluoutE [31:0] $end
$var wire 1 & beq_opD $end
$var wire 1 ' bne_opD $end
$var wire 1 ( branchD $end
$var wire 1 ) branchstall $end
$var wire 1 * btakenD $end
$var wire 1 + clk $end
$var wire 6 , funcD [5:0] $end
$var wire 1 - grade_opD $end
$var wire 3 . gradeoutE [2:0] $end
$var wire 16 / immD [15:0] $end
$var wire 32 0 instr [31:0] $end
$var wire 1 1 lui_opD $end
$var wire 1 2 lw_opD $end
$var wire 1 3 lwstall $end
$var wire 1 4 memtoregD $end
$var wire 1 5 memwrite $end
$var wire 1 6 memwriteD $end
$var wire 1 7 mult_opD $end
$var wire 32 8 multoutE [31:0] $end
$var wire 6 9 opcodeD [5:0] $end
$var wire 1 : ori_opD $end
$var wire 32 ; pcbranchD [31:0] $end
$var wire 32 < pcplus4F [31:0] $end
$var wire 32 = rd1D [31:0] $end
$var wire 32 > rd1fD [31:0] $end
$var wire 32 ? rd2D [31:0] $end
$var wire 32 @ rd2fD [31:0] $end
$var wire 5 A rdD [4:0] $end
$var wire 32 B readdata [31:0] $end
$var wire 1 C regwriteD $end
$var wire 32 D resultW [31:0] $end
$var wire 5 E rsD [4:0] $end
$var wire 1 F rst_n $end
$var wire 5 G rtD [4:0] $end
$var wire 5 H shamtD [4:0] $end
$var wire 32 I signimmD [31:0] $end
$var wire 1 J slti_opD $end
$var wire 32 K srcaE [31:0] $end
$var wire 32 L srcbE [31:0] $end
$var wire 1 M stall $end
$var wire 1 N sw_opD $end
$var wire 32 O writedata [31:0] $end
$var wire 32 P writedataE [31:0] $end
$var wire 5 Q writeregE [4:0] $end
$var reg 6 R alucomE [5:0] $end
$var reg 32 S aluoutM [31:0] $end
$var reg 32 T aluoutW [31:0] $end
$var reg 1 U alusrcE $end
$var reg 1 V grade_opE $end
$var reg 32 W instrD [31:0] $end
$var reg 1 X memtoregE $end
$var reg 1 Y memtoregM $end
$var reg 1 Z memtoregW $end
$var reg 1 [ memwriteE $end
$var reg 1 \ memwriteM $end
$var reg 1 ] mult_opE $end
$var reg 32 ^ pc [31:0] $end
$var reg 32 _ pcplus4D [31:0] $end
$var reg 32 ` rd1E [31:0] $end
$var reg 32 a rd2E [31:0] $end
$var reg 5 b rdE [4:0] $end
$var reg 32 c readdataW [31:0] $end
$var reg 1 d regdstE $end
$var reg 1 e regwriteE $end
$var reg 1 f regwriteM $end
$var reg 1 g regwriteW $end
$var reg 5 h rsE [4:0] $end
$var reg 5 i rtE [4:0] $end
$var reg 32 j signimmE [31:0] $end
$var reg 1 k slti_opE $end
$var reg 32 l writedataM [31:0] $end
$var reg 5 m writeregM [4:0] $end
$var reg 5 n writeregW [4:0] $end
$scope module rfile_1 $end
$var wire 5 o a1 [4:0] $end
$var wire 5 p a2 [4:0] $end
$var wire 5 q a3 [4:0] $end
$var wire 1 + clk $end
$var wire 32 r rd1 [31:0] $end
$var wire 32 s rd2 [31:0] $end
$var wire 32 t wd3 [31:0] $end
$var wire 1 u we3 $end
$upscope $end
$scope module alu_1 $end
$var wire 32 v a [31:0] $end
$var wire 32 w b [31:0] $end
$var wire 6 x s [5:0] $end
$var wire 32 y y [31:0] $end
$var wire 1 z zero $end
$upscope $end
$upscope $end
$upscope $end
$enddefinitions $end
#0
$dumpvars
xz
bx y
bx x
bx w
bx v
0u
bx t
b0 s
b0 r
bx q
b0 p
b0 o
bx n
bx m
bx l
xk
bx j
b0 i
b0 h
0g
0f
0e
xd
bx c
b0 b
bx a
bx `
b0 _
b0 ^
x]
0\
0[
xZ
xY
0X
b0 W
xV
xU
bx T
bx S
bx R
b0 Q
bx P
bx O
0N
0M
bx L
bx K
0J
b0 I
b0 H
b0 G
0F
b0 E
bx D
0C
bx B
b0 A
b0 @
b0 ?
b0 >
b0 =
b100 <
b0 ;
0:
b0 9
bx 8
07
06
05
04
03
02
01
b10001100000000110000000000000000 0
b0 /
bx .
0-
b0 ,
0+
0*
0)
0(
0'
0&
bx %
bx $
b0 #
0"
0!
$end
#5000
b1 .
b0 P
b0 8
b0 K
b0 v
1z
b0 %
b0 y
b0 L
b0 w
0d
1U
b0 R
b0 x
b0 j
b0 a
b0 `
0]
0V
0k
b0 m
0Y
1+
#10000
0+
#12000
1F
#15000
1C
b100000 #
bx @
bx ?
bx s
b1100111 B
12
14
b100011 9
b11 G
b11 p
b1000 <
b10001100000001000000000110010000 0
b0 n
b0 q
0Z
b0 l
b0 O
b0 S
b0 $
b10001100000000110000000000000000 W
b100 _
b100 ;
b100 ^
1+
#20000
0+
#25000
b110010000 I
bx P
b0 D
b0 t
b11 Q
b1100 <
b10101100000000110000000110010000 0
b110010000 /
b100 G
b100 p
b110 H
b10000 ,
b100000 R
b100000 x
bx a
b0 T
b1100111 c
1e
1X
b11 i
b1000 ^
b1000 _
b11001001000 ;
b10001100000001000000000110010000 W
1+
#30000
0+
#35000
0C
b0 @
0M
0z
b110010000 %
b110010000 y
03
b110010000 L
b110010000 w
1N
16
02
04
b101011 9
b11 G
b11 p
b10000 <
b10101100000001000000000000000000 0
b100 Q
b11 m
bx l
bx O
1Y
b110010000 j
b10101100000000110000000110010000 W
b1100 _
b11001001100 ;
b1100 ^
b100 i
1f
1+
#40000
0+
#45000
b0 I
b1100111 P
b110010000 @
b111110110000000000000000 B
b1100111 D
b1100111 t
b11 Q
b10100 <
b10001100000000110000000000000100 0
b0 /
b100 G
b100 p
b0 H
b0 ,
b0 a
b100 m
b110010000 S
b110010000 $
b11 n
b11 q
1Z
1g
1u
1[
0e
0X
b11 i
b10000 ^
b10000 _
b10000 ;
b10101100000001000000000000000000 W
1+
#50000
0+
#55000
1C
b111110110000000000000000 P
b100 I
1z
b0 %
b0 y
b1100111 ?
b1100111 s
b1100111 @
b111110110000000000000000 D
b111110110000000000000000 t
b0 L
b0 w
b100 /
0N
06
12
14
b100011 9
b11 G
b11 p
b100 ,
b11000 <
b10001100000001000000000110010100 0
b100 Q
b100 n
b100 q
b110010000 T
b111110110000000000000000 c
b11 m
b1100111 l
b1100111 O
0Y
b0 j
b110010000 a
b10001100000000110000000000000100 W
b10100 _
b100100 ;
b10100 ^
b100 i
1\
15
0f
1+
#60000
0+
#65000
b1100111 P
b110010100 I
b111110110000000000000000 @
0z
b100 %
b100 y
b111110110000000000000000 ?
b111110110000000000000000 s
b100 L
b100 w
b110010000 D
b110010000 t
b11 Q
b11100 <
b10101100000000110000000110010100 0
b110010100 /
b100 G
b100 p
b110 H
b10100 ,
b100 j
b1100111 a
b100 m
b111110110000000000000000 l
b111110110000000000000000 O
b0 S
b0 $
b11 n
b11 q
0Z
b1100111 B
0g
0u
0[
1e
1X
b11 i
b11000 ^
b11000 _
b11001101000 ;
b10001100000001000000000110010100 W
1+
#70000
0+
#75000
0C
0M
b110010100 %
b110010100 y
b111110110000000000000000 P
b1100111 ?
b1100111 s
03
b100 @
b0 D
b0 t
b110010100 L
b110010100 w
1N
16
02
04
b101011 9
b11 G
b11 p
b100000 <
b10101100000001000000000000000100 0
b100 Q
b11000110 B
b100 n
b100 q
b0 T
b1100111 c
b11 m
b1100111 l
b1100111 O
1Y
b100 S
b100 $
b110010100 j
b111110110000000000000000 a
b10101100000000110000000110010100 W
b11100 _
b11001101100 ;
b11100 ^
b100 i
0\
05
1f
1+
#80000
0+
#85000
b100 I
b11000110 P
b111110110000000000000000 ?
b111110110000000000000000 s
b110010100 @
b111110100000000000000000 B
b11000110 D
b11000110 t
b11 Q
b100100 <
b10001100000000110000000000001000 0
b100 /
b100 G
b100 p
b0 H
b100 ,
b100 a
b100 m
b111110110000000000000000 l
b111110110000000000000000 O
b110010100 S
b110010100 $
b11 n
b11 q
1Z
b100 T
b11000110 c
1g
1u
1[
0e
0X
b11 i
b100000 ^
b100000 _
b110000 ;
b10101100000001000000000000000100 W
1+
#90000
0+
#95000
1C
b111110100000000000000000 P
b1000 I
b100 %
b100 y
b11000110 ?
b11000110 s
b11000110 @
b111110100000000000000000 D
b111110100000000000000000 t
b100 L
b100 w
b1000 /
0N
06
12
14
b100011 9
b11 G
b11 p
b1000 ,
b101000 <
b10001100000001000000000110011000 0
b100 Q
b100 n
b100 q
b110010100 T
b111110100000000000000000 c
b11 m
b11000110 l
b11000110 O
0Y
b100 j
b110010100 a
b10001100000000110000000000001000 W
b100100 _
b1000100 ;
b100100 ^
b100 i
1\
15
0f
1+
#100000
0+
#105000
b11000110 P
b110011000 I
b111110100000000000000000 @
b1000 %
b1000 y
b111110100000000000000000 ?
b111110100000000000000000 s
b1000 L
b1000 w
b110010100 D
b110010100 t
b11 Q
b101100 <
b10101100000000110000000110011000 0
b110011000 /
b100 G
b100 p
b110 H
b11000 ,
b1000 j
b11000110 a
b100 m
b111110100000000000000000 l
b111110100000000000000000 O
b100 S
b100 $
b11 n
b11 q
0Z
b11000110 B
0g
0u
0[
1e
1X
b11 i
b101000 ^
b101000 _
b11010001000 ;
b10001100000001000000000110011000 W
1+
#110000
0+
#115000
0C
0M
b110011000 %
b110011000 y
b111110100000000000000000 P
b11000110 ?
b11000110 s
03
b1000 @
b100 D
b100 t
b110011000 L
b110011000 w
1N
16
02
04
b101011 9
b11 G
b11 p
b110000 <
b10101100000001000000000000001000 0
b100 Q
b1101001 B
b100 n
b100 q
b100 T
b11000110 c
b11 m
b11000110 l
b11000110 O
1Y
b1000 S
b1000 $
b110011000 j
b111110100000000000000000 a
b10101100000000110000000110011000 W
b101100 _
b11010001100 ;
b101100 ^
b100 i
0\
05
1f
1+
#120000
0+
#125000
b1000 I
b1101001 P
b111110100000000000000000 ?
b111110100000000000000000 s
b110011000 @
b101010100000000000000000 B
b1101001 D
b1101001 t
b11 Q
b110100 <
b10001100000000110000000000001100 0
b1000 /
b100 G
b100 p
b0 H
b1000 ,
b1000 a
b100 m
b111110100000000000000000 l
b111110100000000000000000 O
b110011000 S
b110011000 $
b11 n
b11 q
1Z
b1000 T
b1101001 c
1g
1u
1[
0e
0X
b11 i
b110000 ^
b110000 _
b1010000 ;
b10101100000001000000000000001000 W
1+
#130000
0+
#135000
1C
b101010100000000000000000 P
b1100 I
b1000 %
b1000 y
b1101001 ?
b1101001 s
b1101001 @
b101010100000000000000000 D
b101010100000000000000000 t
b1000 L
b1000 w
b1100 /
0N
06
12
14
b100011 9
b11 G
b11 p
b1100 ,
b111000 <
b10001100000001000000000110011100 0
b100 Q
b100 n
b100 q
b110011000 T
b101010100000000000000000 c
b11 m
b1101001 l
b1101001 O
0Y
b1000 j
b110011000 a
b10001100000000110000000000001100 W
b110100 _
b1100100 ;
b110100 ^
b100 i
1\
15
0f
1+
#140000
0+
#145000
b1101001 P
b110011100 I
b101010100000000000000000 @
b1100 %
b1100 y
b101010100000000000000000 ?
b101010100000000000000000 s
b1100 L
b1100 w
b110011000 D
b110011000 t
b11 Q
b111100 <
b10101100000000110000000110011100 0
b110011100 /
b100 G
b100 p
b110 H
b11100 ,
b1100 j
b1101001 a
b100 m
b101010100000000000000000 l
b101010100000000000000000 O
b1000 S
b1000 $
b11 n
b11 q
0Z
b1101001 B
0g
0u
0[
1e
1X
b11 i
b111000 ^
b111000 _
b11010101000 ;
b10001100000001000000000110011100 W
1+
#150000
0+
#155000
0C
0M
b110011100 %
b110011100 y
b101010100000000000000000 P
b1101001 ?
b1101001 s
03
b1100 @
b1000 D
b1000 t
b110011100 L
b110011100 w
1N
16
02
04
b101011 9
b11 G
b11 p
b1000000 <
b10101100000001000000000000001100 0
b100 Q
b1110011 B
b100 n
b100 q
b1000 T
b1101001 c
b11 m
b1101001 l
b1101001 O
1Y
b1100 S
b1100 $
b110011100 j
b101010100000000000000000 a
b10101100000000110000000110011100 W
b111100 _
b11010101100 ;
b111100 ^
b100 i
0\
05
1f
1+
#160000
0+
#165000
b1100 I
b1110011 P
b101010100000000000000000 ?
b101010100000000000000000 s
b110011100 @
b1110100000000000000000 B
b1110011 D
b1110011 t
b11 Q
b1000100 <
b10001100000000110000000000010000 0
b1100 /
b100 G
b100 p
b0 H
b1100 ,
b1100 a
b100 m
b101010100000000000000000 l
b101010100000000000000000 O
b110011100 S
b110011100 $
b11 n
b11 q
1Z
b1100 T
b1110011 c
1g
1u
1[
0e
0X
b11 i
b1000000 ^
b1000000 _
b1110000 ;
b10101100000001000000000000001100 W
1+
#170000
0+
#175000
1C
b1110100000000000000000 P
b10000 I
b1100 %
b1100 y
b1110011 ?
b1110011 s
b1110011 @
b1110100000000000000000 D
b1110100000000000000000 t
b1100 L
b1100 w
b10000 /
0N
06
12
14
b100011 9
b11 G
b11 p
b10000 ,
b1001000 <
b10001100000001000000000110100000 0
b100 Q
b100 n
b100 q
b110011100 T
b1110100000000000000000 c
b11 m
b1110011 l
b1110011 O
0Y
b1100 j
b110011100 a
b10001100000000110000000000010000 W
b1000100 _
b10000100 ;
b1000100 ^
b100 i
1\
15
0f
1+
#180000
0+
#185000
b1110011 P
b110100000 I
b1110100000000000000000 @
b10000 %
b10000 y
b1110100000000000000000 ?
b1110100000000000000000 s
b10000 L
b10000 w
b110011100 D
b110011100 t
b11 Q
b1001100 <
b10101100000000110000000110100000 0
b110100000 /
b100 G
b100 p
b110 H
b100000 ,
b10000 j
b1110011 a
b100 m
b1110100000000000000000 l
b1110100000000000000000 O
b1100 S
b1100 $
b11 n
b11 q
0Z
b1110011 B
0g
0u
0[
1e
1X
b11 i
b1001000 ^
b1001000 _
b11011001000 ;
b10001100000001000000000110100000 W
1+
#190000
0+
#195000
0C
0M
b110100000 %
b110100000 y
b1110100000000000000000 P
b1110011 ?
b1110011 s
03
b10000 @
b1100 D
b1100 t
b110100000 L
b110100000 w
1N
16
02
04
b101011 9
b11 G
b11 p
b1010000 <
b10101100000001000000000000010000 0
b100 Q
b1010001 B
b100 n
b100 q
b1100 T
b1110011 c
b11 m
b1110011 l
b1110011 O
1Y
b10000 S
b10000 $
b110100000 j
b1110100000000000000000 a
b10101100000000110000000110100000 W
b1001100 _
b11011001100 ;
b1001100 ^
b100 i
0\
05
1f
1+
#200000
0+
#205000
b10000 I
b1010001 P
b1110100000000000000000 ?
b1110100000000000000000 s
b110100000 @
b111110110000000000000000 B
b1010001 D
b1010001 t
b11 Q
b1010100 <
b10001100000000110000000000010100 0
b10000 /
b100 G
b100 p
b0 H
b10000 ,
b10000 a
b100 m
b1110100000000000000000 l
b1110100000000000000000 O
b110100000 S
b110100000 $
b11 n
b11 q
1Z
b10000 T
b1010001 c
1g
1u
1[
0e
0X
b11 i
b1010000 ^
b1010000 _
b10010000 ;
b10101100000001000000000000010000 W
1+
#210000
0+
#215000
1C
b111110110000000000000000 P
b10100 I
b10000 %
b10000 y
b1010001 ?
b1010001 s
b1010001 @
b111110110000000000000000 D
b111110110000000000000000 t
b10000 L
b10000 w
b10100 /
0N
06
12
14
b100011 9
b11 G
b11 p
b10100 ,
b1011000 <
b10001100000001000000000110100100 0
b100 Q
b100 n
b100 q
b110100000 T
b111110110000000000000000 c
b11 m
b1010001 l
b1010001 O
0Y
b10000 j
b110100000 a
b10001100000000110000000000010100 W
b1010100 _
b10100100 ;
b1010100 ^
b100 i
1\
15
0f
1+
#220000
0+
#225000
b1010001 P
b110100100 I
b111110110000000000000000 @
b10100 %
b10100 y
b111110110000000000000000 ?
b111110110000000000000000 s
b10100 L
b10100 w
b110100000 D
b110100000 t
b11 Q
b1011100 <
b10101100000000110000000110100100 0
b110100100 /
b100 G
b100 p
b110 H
b100100 ,
b10100 j
b1010001 a
b100 m
b111110110000000000000000 l
b111110110000000000000000 O
b10000 S
b10000 $
b11 n
b11 q
0Z
b1010001 B
0g
0u
0[
1e
1X
b11 i
b1011000 ^
b1011000 _
b11011101000 ;
b10001100000001000000000110100100 W
1+
#230000
0+
#235000
0C
0M
b110100100 %
b110100100 y
b111110110000000000000000 P
b1010001 ?
b1010001 s
03
b10100 @
b10000 D
b10000 t
b110100100 L
b110100100 w
1N
16
02
04
b101011 9
b11 G
b11 p
b1100000 <
b10101100000001000000000000010100 0
b100 Q
b11111111 B
b100 n
b100 q
b10000 T
b1010001 c
b11 m
b1010001 l
b1010001 O
1Y
b10100 S
b10100 $
b110100100 j
b111110110000000000000000 a
b10101100000000110000000110100100 W
b1011100 _
b11011101100 ;
b1011100 ^
b100 i
0\
05
1f
1+
#240000
0+
#245000
b10100 I
b11111111 P
b111110110000000000000000 ?
b111110110000000000000000 s
b110100100 @
b1010010000000000000000 B
b11111111 D
b11111111 t
b11 Q
b1100100 <
b10001100000000110000000000011000 0
b10100 /
b100 G
b100 p
b0 H
b10100 ,
b10100 a
b100 m
b111110110000000000000000 l
b111110110000000000000000 O
b110100100 S
b110100100 $
b11 n
b11 q
1Z
b10100 T
b11111111 c
1g
1u
1[
0e
0X
b11 i
b1100000 ^
b1100000 _
b10110000 ;
b10101100000001000000000000010100 W
1+
#250000
0+
#255000
1C
b1010010000000000000000 P
b11000 I
b10100 %
b10100 y
b11111111 ?
b11111111 s
b11111111 @
b1010010000000000000000 D
b1010010000000000000000 t
b10100 L
b10100 w
b11000 /
0N
06
12
14
b100011 9
b11 G
b11 p
b11000 ,
b1101000 <
b10001100000001000000000110101000 0
b100 Q
b100 n
b100 q
b110100100 T
b1010010000000000000000 c
b11 m
b11111111 l
b11111111 O
0Y
b10100 j
b110100100 a
b10001100000000110000000000011000 W
b1100100 _
b11000100 ;
b1100100 ^
b100 i
1\
15
0f
1+
#260000
0+
#265000
b11111111 P
b110101000 I
b1010010000000000000000 @
b11000 %
b11000 y
b1010010000000000000000 ?
b1010010000000000000000 s
b11000 L
b11000 w
b110100100 D
b110100100 t
b11 Q
b1101100 <
b10101100000000110000000110101000 0
b110101000 /
b100 G
b100 p
b110 H
b101000 ,
b11000 j
b11111111 a
b100 m
b1010010000000000000000 l
b1010010000000000000000 O
b10100 S
b10100 $
b11 n
b11 q
0Z
b11111111 B
0g
0u
0[
1e
1X
b11 i
b1101000 ^
b1101000 _
b11100001000 ;
b10001100000001000000000110101000 W
1+
#270000
0+
#275000
0C
0M
b110101000 %
b110101000 y
b1010010000000000000000 P
b11111111 ?
b11111111 s
03
b11000 @
b10100 D
b10100 t
b110101000 L
b110101000 w
1N
16
02
04
b101011 9
b11 G
b11 p
b1110000 <
b10101100000001000000000000011000 0
b100 Q
b1001010 B
b100 n
b100 q
b10100 T
b11111111 c
b11 m
b11111111 l
b11111111 O
1Y
b11000 S
b11000 $
b110101000 j
b1010010000000000000000 a
b10101100000000110000000110101000 W
b1101100 _
b11100001100 ;
b1101100 ^
b100 i
0\
05
1f
1+
#280000
0+
#285000
b11000 I
b1001010 P
b1010010000000000000000 ?
b1010010000000000000000 s
b110101000 @
b110100010000000000000000 B
b1001010 D
b1001010 t
b11 Q
b1110100 <
b10001100000000110000000000011100 0
b11000 /
b100 G
b100 p
b0 H
b11000 ,
b11000 a
b100 m
b1010010000000000000000 l
b1010010000000000000000 O
b110101000 S
b110101000 $
b11 n
b11 q
1Z
b11000 T
b1001010 c
1g
1u
1[
0e
0X
b11 i
b1110000 ^
b1110000 _
b11010000 ;
b10101100000001000000000000011000 W
1+
#290000
0+
#295000
1C
b110100010000000000000000 P
b11100 I
b11000 %
b11000 y
b1001010 ?
b1001010 s
b1001010 @
b110100010000000000000000 D
b110100010000000000000000 t
b11000 L
b11000 w
b11100 /
0N
06
12
14
b100011 9
b11 G
b11 p
b11100 ,
b1111000 <
b10001100000001000000000110101100 0
b100 Q
b100 n
b100 q
b110101000 T
b110100010000000000000000 c
b11 m
b1001010 l
b1001010 O
0Y
b11000 j
b110101000 a
b10001100000000110000000000011100 W
b1110100 _
b11100100 ;
b1110100 ^
b100 i
1\
15
0f
1+
#300000
0+
#305000
b1001010 P
b110101100 I
b110100010000000000000000 @
b11100 %
b11100 y
b110100010000000000000000 ?
b110100010000000000000000 s
b11100 L
b11100 w
b110101000 D
b110101000 t
b11 Q
b1111100 <
b10101100000000110000000110101100 0
b110101100 /
b100 G
b100 p
b110 H
b101100 ,
b11100 j
b1001010 a
b100 m
b110100010000000000000000 l
b110100010000000000000000 O
b11000 S
b11000 $
b11 n
b11 q
0Z
b1001010 B
0g
0u
0[
1e
1X
b11 i
b1111000 ^
b1111000 _
b11100101000 ;
b10001100000001000000000110101100 W
1+
#310000
0+
#315000
0C
0M
b110101100 %
b110101100 y
b110100010000000000000000 P
b1001010 ?
b1001010 s
03
b11100 @
b11000 D
b11000 t
b110101100 L
b110101100 w
1N
16
02
04
b101011 9
b11 G
b11 p
b10000000 <
b10101100000001000000000000011100 0
b100 Q
b11101100 B
b100 n
b100 q
b11000 T
b1001010 c
b11 m
b1001010 l
b1001010 O
1Y
b11100 S
b11100 $
b110101100 j
b110100010000000000000000 a
b10101100000000110000000110101100 W
b1111100 _
b11100101100 ;
b1111100 ^
b100 i
0\
05
1f
1+
#320000
0+
#325000
b11100 I
b11101100 P
b110100010000000000000000 ?
b110100010000000000000000 s
b110101100 @
b111001100000000000000000 B
b11101100 D
b11101100 t
b11 Q
b10000100 <
b10001100000000110000000000100000 0
b11100 /
b100 G
b100 p
b0 H
b11100 ,
b11100 a
b100 m
b110100010000000000000000 l
b110100010000000000000000 O
b110101100 S
b110101100 $
b11 n
b11 q
1Z
b11100 T
b11101100 c
1g
1u
1[
0e
0X
b11 i
b10000000 ^
b10000000 _
b11110000 ;
b10101100000001000000000000011100 W
1+
#330000
0+
#335000
1C
b111001100000000000000000 P
b100000 I
b11100 %
b11100 y
b11101100 ?
b11101100 s
b11101100 @
b111001100000000000000000 D
b111001100000000000000000 t
b11100 L
b11100 w
b100000 /
0N
06
12
14
b100011 9
b11 G
b11 p
b100000 ,
b10001000 <
b10001100000001000000000110110000 0
b100 Q
b100 n
b100 q
b110101100 T
b111001100000000000000000 c
b11 m
b11101100 l
b11101100 O
0Y
b11100 j
b110101100 a
b10001100000000110000000000100000 W
b10000100 _
b100000100 ;
b10000100 ^
b100 i
1\
15
0f
1+
#340000
0+
#345000
b11101100 P
b110110000 I
b111001100000000000000000 @
b100000 %
b100000 y
b111001100000000000000000 ?
b111001100000000000000000 s
b100000 L
b100000 w
b110101100 D
b110101100 t
b11 Q
b10001100 <
b10101100000000110000000110110000 0
b110110000 /
b100 G
b100 p
b110 H
b110000 ,
b100000 j
b11101100 a
b100 m
b111001100000000000000000 l
b111001100000000000000000 O
b11100 S
b11100 $
b11 n
b11 q
0Z
b11101100 B
0g
0u
0[
1e
1X
b11 i
b10001000 ^
b10001000 _
b11101001000 ;
b10001100000001000000000110110000 W
1+
#350000
0+
#355000
0C
0M
b110110000 %
b110110000 y
b111001100000000000000000 P
b11101100 ?
b11101100 s
03
b100000 @
b11100 D
b11100 t
b110110000 L
b110110000 w
1N
16
02
04
b101011 9
b11 G
b11 p
b10010000 <
b10101100000001000000000000100000 0
b100 Q
b101001 B
b100 n
b100 q
b11100 T
b11101100 c
b11 m
b11101100 l
b11101100 O
1Y
b100000 S
b100000 $
b110110000 j
b111001100000000000000000 a
b10101100000000110000000110110000 W
b10001100 _
b11101001100 ;
b10001100 ^
b100 i
0\
05
1f
1+
#360000
0+
#365000
b100000 I
b101001 P
b111001100000000000000000 ?
b111001100000000000000000 s
b110110000 @
b1010000000000000000 B
b101001 D
b101001 t
b11 Q
b10010100 <
b10001100000000110000000000100100 0
b100000 /
b100 G
b100 p
b0 H
b100000 ,
b100000 a
b100 m
b111001100000000000000000 l
b111001100000000000000000 O
b110110000 S
b110110000 $
b11 n
b11 q
1Z
b100000 T
b101001 c
1g
1u
1[
0e
0X
b11 i
b10010000 ^
b10010000 _
b100010000 ;
b10101100000001000000000000100000 W
1+
#370000
0+
#375000
1C
b1010000000000000000 P
b100100 I
b100000 %
b100000 y
b101001 ?
b101001 s
b101001 @
b1010000000000000000 D
b1010000000000000000 t
b100000 L
b100000 w
b100100 /
0N
06
12
14
b100011 9
b11 G
b11 p
b100100 ,
b10011000 <
b10001100000001000000000110110100 0
b100 Q
b100 n
b100 q
b110110000 T
b1010000000000000000 c
b11 m
b101001 l
b101001 O
0Y
b100000 j
b110110000 a
b10001100000000110000000000100100 W
b10010100 _
b100100100 ;
b10010100 ^
b100 i
1\
15
0f
1+
#380000
0+
#385000
b101001 P
b110110100 I
b1010000000000000000 @
b100100 %
b100100 y
b1010000000000000000 ?
b1010000000000000000 s
b100100 L
b100100 w
b110110000 D
b110110000 t
b11 Q
b10011100 <
b10101100000000110000000110110100 0
b110110100 /
b100 G
b100 p
b110 H
b110100 ,
b100100 j
b101001 a
b100 m
b1010000000000000000 l
b1010000000000000000 O
b100000 S
b100000 $
b11 n
b11 q
0Z
b101001 B
0g
0u
0[
1e
1X
b11 i
b10011000 ^
b10011000 _
b11101101000 ;
b10001100000001000000000110110100 W
1+
#390000
0+
#395000
0C
0M
b110110100 %
b110110100 y
b1010000000000000000 P
b101001 ?
b101001 s
03
b100100 @
b100000 D
b100000 t
b110110100 L
b110110100 w
1N
16
02
04
b101011 9
b11 G
b11 p
b10100000 <
b10101100000001000000000000100100 0
b100 Q
b11001101 B
b100 n
b100 q
b100000 T
b101001 c
b11 m
b101001 l
b101001 O
1Y
b100100 S
b100100 $
b110110100 j
b1010000000000000000 a
b10101100000000110000000110110100 W
b10011100 _
b11101101100 ;
b10011100 ^
b100 i
0\
05
1f
1+
#400000
0+
#405000
b100100 I
b11001101 P
b1010000000000000000 ?
b1010000000000000000 s
b110110100 @
b1111000000000000000000 B
b11001101 D
b11001101 t
b11 Q
b10100100 <
b10001100000000110000000000101000 0
b100100 /
b100 G
b100 p
b0 H
b100100 ,
b100100 a
b100 m
b1010000000000000000 l
b1010000000000000000 O
b110110100 S
b110110100 $
b11 n
b11 q
1Z
b100100 T
b11001101 c
1g
1u
1[
0e
0X
b11 i
b10100000 ^
b10100000 _
b100110000 ;
b10101100000001000000000000100100 W
1+
#410000
0+
#415000
1C
b1111000000000000000000 P
b101000 I
b100100 %
b100100 y
b11001101 ?
b11001101 s
b11001101 @
b1111000000000000000000 D
b1111000000000000000000 t
b100100 L
b100100 w
b101000 /
0N
06
12
14
b100011 9
b11 G
b11 p
b101000 ,
b10101000 <
b10001100000001000000000110111000 0
b100 Q
b100 n
b100 q
b110110100 T
b1111000000000000000000 c
b11 m
b11001101 l
b11001101 O
0Y
b100100 j
b110110100 a
b10001100000000110000000000101000 W
b10100100 _
b101000100 ;
b10100100 ^
b100 i
1\
15
0f
1+
#420000
0+
#425000
b11001101 P
b110111000 I
b1111000000000000000000 @
b101000 %
b101000 y
b1111000000000000000000 ?
b1111000000000000000000 s
b101000 L
b101000 w
b110110100 D
b110110100 t
b11 Q
b10101100 <
b10101100000000110000000110111000 0
b110111000 /
b100 G
b100 p
b110 H
b111000 ,
b101000 j
b11001101 a
b100 m
b1111000000000000000000 l
b1111000000000000000000 O
b100100 S
b100100 $
b11 n
b11 q
0Z
b11001101 B
0g
0u
0[
1e
1X
b11 i
b10101000 ^
b10101000 _
b11110001000 ;
b10001100000001000000000110111000 W
1+
#430000
0+
#435000
0C
0M
b110111000 %
b110111000 y
b1111000000000000000000 P
b11001101 ?
b11001101 s
03
b101000 @
b100100 D
b100100 t
b110111000 L
b110111000 w
1N
16
02
04
b101011 9
b11 G
b11 p
b10110000 <
b10101100000001000000000000101000 0
b100 Q
b10111010 B
b100 n
b100 q
b100100 T
b11001101 c
b11 m
b11001101 l
b11001101 O
1Y
b101000 S
b101000 $
b110111000 j
b1111000000000000000000 a
b10101100000000110000000110111000 W
b10101100 _
b11110001100 ;
b10101100 ^
b100 i
0\
05
1f
1+
#440000
0+
#445000
b101000 I
b10111010 P
b1111000000000000000000 ?
b1111000000000000000000 s
b110111000 @
b11111000000000000000000 B
b10111010 D
b10111010 t
b11 Q
b10110100 <
b10001100000000110000000000101100 0
b101000 /
b100 G
b100 p
b0 H
b101000 ,
b101000 a
b100 m
b1111000000000000000000 l
b1111000000000000000000 O
b110111000 S
b110111000 $
b11 n
b11 q
1Z
b101000 T
b10111010 c
1g
1u
1[
0e
0X
b11 i
b10110000 ^
b10110000 _
b101010000 ;
b10101100000001000000000000101000 W
1+
#450000
0+
#455000
1C
b11111000000000000000000 P
b101100 I
b101000 %
b101000 y
b10111010 ?
b10111010 s
b10111010 @
b11111000000000000000000 D
b11111000000000000000000 t
b101000 L
b101000 w
b101100 /
0N
06
12
14
b100011 9
b11 G
b11 p
b101100 ,
b10111000 <
b10001100000001000000000110111100 0
b100 Q
b100 n
b100 q
b110111000 T
b11111000000000000000000 c
b11 m
b10111010 l
b10111010 O
0Y
b101000 j
b110111000 a
b10001100000000110000000000101100 W
b10110100 _
b101100100 ;
b10110100 ^
b100 i
1\
15
0f
1+
#460000
0+
#465000
b10111010 P
b110111100 I
b11111000000000000000000 @
b101100 %
b101100 y
b11111000000000000000000 ?
b11111000000000000000000 s
b101100 L
b101100 w
b110111000 D
b110111000 t
b11 Q
b10111100 <
b10101100000000110000000110111100 0
b110111100 /
b100 G
b100 p
b110 H
b111100 ,
b101100 j
b10111010 a
b100 m
b11111000000000000000000 l
b11111000000000000000000 O
b101000 S
b101000 $
b11 n
b11 q
0Z
b10111010 B
0g
0u
0[
1e
1X
b11 i
b10111000 ^
b10111000 _
b11110101000 ;
b10001100000001000000000110111100 W
1+
#470000
0+
