prog_swap/mipse.vcd
$date
	Tue Aug  2 00:09:23 2016
$end
$version
	Icarus Verilog
$end
$timescale
	1ps
$end
$scope module test_mipse $end
$scope module mipse_1 $end
$var wire 1 ! addi_opD $end
$var wire 1 " alu_opD $end
$var wire 6 # alucomD [5:0] $end
$var wire 32 $ aluout [31:0] $end
$var wire 32 % aluoutE [31:0] $end
$var wire 1 & beq_opD $end
$var wire 1 ' bne_opD $end
$var wire 1 ( branchD $end
$var wire 1 ) branchstall $end
$var wire 1 * btakenD $end
$var wire 1 + clk $end
$var wire 6 , funcD [5:0] $end
$var wire 16 - immD [15:0] $end
$var wire 32 . instr [31:0] $end
$var wire 1 / lui_opD $end
$var wire 1 0 lw_opD $end
$var wire 1 1 lwstall $end
$var wire 1 2 memtoregD $end
$var wire 1 3 memwrite $end
$var wire 1 4 memwriteD $end
$var wire 1 5 mult_opD $end
$var wire 16 6 multoutE [15:0] $end
$var wire 6 7 opcodeD [5:0] $end
$var wire 1 8 ori_opD $end
$var wire 32 9 pcbranchD [31:0] $end
$var wire 32 : pcplus4F [31:0] $end
$var wire 32 ; rd1D [31:0] $end
$var wire 32 < rd1fD [31:0] $end
$var wire 32 = rd2D [31:0] $end
$var wire 32 > rd2fD [31:0] $end
$var wire 5 ? rdD [4:0] $end
$var wire 32 @ readdata [31:0] $end
$var wire 1 A regwriteD $end
$var wire 32 B resultW [31:0] $end
$var wire 5 C rsD [4:0] $end
$var wire 1 D rst_n $end
$var wire 5 E rtD [4:0] $end
$var wire 5 F shamtD [4:0] $end
$var wire 32 G signimmD [31:0] $end
$var wire 1 H slti_opD $end
$var wire 32 I srcaE [31:0] $end
$var wire 32 J srcbE [31:0] $end
$var wire 1 K stall $end
$var wire 1 L sw_opD $end
$var wire 32 M writedata [31:0] $end
$var wire 32 N writedataE [31:0] $end
$var wire 5 O writeregE [4:0] $end
$var reg 6 P alucomE [5:0] $end
$var reg 32 Q aluoutM [31:0] $end
$var reg 32 R aluoutW [31:0] $end
$var reg 1 S alusrcE $end
$var reg 32 T instrD [31:0] $end
$var reg 1 U memtoregE $end
$var reg 1 V memtoregM $end
$var reg 1 W memtoregW $end
$var reg 1 X memwriteE $end
$var reg 1 Y memwriteM $end
$var reg 1 Z mult_opE $end
$var reg 32 [ pc [31:0] $end
$var reg 32 \ pcplus4D [31:0] $end
$var reg 32 ] rd1E [31:0] $end
$var reg 32 ^ rd2E [31:0] $end
$var reg 5 _ rdE [4:0] $end
$var reg 32 ` readdataW [31:0] $end
$var reg 1 a regdstE $end
$var reg 1 b regwriteE $end
$var reg 1 c regwriteM $end
$var reg 1 d regwriteW $end
$var reg 5 e rsE [4:0] $end
$var reg 5 f rtE [4:0] $end
$var reg 32 g signimmE [31:0] $end
$var reg 1 h slti_opE $end
$var reg 32 i writedataM [31:0] $end
$var reg 5 j writeregM [4:0] $end
$var reg 5 k writeregW [4:0] $end
$scope module rfile_1 $end
$var wire 5 l a1 [4:0] $end
$var wire 5 m a2 [4:0] $end
$var wire 5 n a3 [4:0] $end
$var wire 1 + clk $end
$var wire 32 o rd1 [31:0] $end
$var wire 32 p rd2 [31:0] $end
$var wire 32 q wd3 [31:0] $end
$var wire 1 r we3 $end
$upscope $end
$scope module alu_1 $end
$var wire 32 s a [31:0] $end
$var wire 32 t b [31:0] $end
$var wire 6 u s [5:0] $end
$var wire 32 v y [31:0] $end
$var wire 1 w zero $end
$upscope $end
$upscope $end
$upscope $end
$enddefinitions $end
#0
$dumpvars
xw
bx v
bx u
bx t
bx s
0r
bx q
b0 p
b0 o
bx n
b0 m
b0 l
bx k
bx j
bx i
xh
bx g
b0 f
b0 e
0d
0c
0b
xa
bx `
b0 _
bx ^
bx ]
b0 \
b0 [
xZ
0Y
0X
xW
xV
0U
b0 T
xS
bx R
bx Q
bx P
b0 O
bx N
bx M
0L
0K
bx J
bx I
0H
b0 G
b0 F
b0 E
0D
b0 C
bx B
0A
bx @
b0 ?
b0 >
b0 =
b0 <
b0 ;
b100 :
b0 9
08
b0 7
bx 6
05
04
03
02
01
00
0/
b100000000000010000000110010000 .
b0 -
b0 ,
0+
0*
0)
0(
0'
0&
bx %
bx $
b0 #
0"
0!
$end
#5000
b0 6
b0 N
b0 I
b0 s
1w
b0 %
b0 v
b0 J
b0 t
0a
1S
b0 P
b0 u
b0 g
b0 ^
b0 ]
0Z
0h
b0 j
0V
1+
#10000
0+
#12000
1D
#15000
1A
b100000 #
bx >
b110010000 G
bx =
bx p
b1100111 @
b110010000 -
1!
b1000 7
b1 E
b1 m
b110 F
b10000 ,
b1000 :
b100000001000011111111111111100 .
b0 k
b0 n
0W
b0 i
b0 M
b0 Q
b0 $
b100000000000010000000110010000 T
b100 \
b11001000100 9
b100 [
1+
#20000
0+
#25000
bx <
b11111111111111111111111111111100 G
bx ;
bx o
bx N
0w
b110010000 %
b110010000 v
b110010000 J
b110010000 t
b0 B
b0 q
b1 O
b1100 :
b10001100001000110000000000000000 .
b1111111111111100 -
b1 C
b1 l
b11111 ?
b11111 F
b111100 ,
b100000 P
b100000 u
b110010000 g
bx ^
b0 R
b1100111 `
1b
b1 f
b1000 [
b1000 \
b11111111111111111111111111111000 9
b100000001000011111111111111100 T
1+
#30000
0+
#35000
1A
b110010000 <
b0 G
b1111100111000000 6
b110010000 N
b110001100 %
b110001100 v
b110010000 I
b110010000 s
b111110110000000000000000 @
b11111111111111111111111111111100 J
b11111111111111111111111111111100 t
b0 -
10
12
0!
b100011 7
b11 E
b11 m
b0 ?
b0 F
b0 ,
b10000 :
b10001100001001000000000110010000 .
b1 j
bx i
bx M
b110010000 Q
b110010000 $
b11111111111111111111111111111100 g
bx ]
b10001100001000110000000000000000 T
b1100 \
b1100 9
b1100 [
b11111 _
b1 e
1c
1+
#40000
0+
#45000
b110010000 G
b0 6
b0 J
b0 t
b110001100 <
b110001100 I
b110001100 s
bx N
b1000011 @
b110010000 B
b110010000 q
b11 O
b10100 :
b10101100001001000000000000000000 .
b110010000 -
b100 E
b100 m
b110 F
b10000 ,
b0 g
b110010000 ]
b110010000 i
b110010000 M
b110001100 Q
b110001100 $
b1 k
b1 n
b110010000 R
b111110110000000000000000 `
1d
1r
1U
b0 _
b11 f
b10000 [
b10000 \
b11001010000 9
b10001100001001000000000110010000 T
1+
#50000
b110010000 ;
b110010000 o
0+
#55000
0A
b110010000 <
b0 G
1K
b110001100 I
b110001100 s
b110101011000000 6
b1100011100 %
b1100011100 v
11
b110001100 B
b110001100 q
b110010000 J
b110010000 t
b0 -
1L
14
00
02
b101011 7
b0 F
b0 ,
b11000 :
b10100001000001111111111111011 .
b100 O
b110001100 R
b1000011 `
b11 j
bx i
bx M
1V
b110010000 g
b110001100 ]
b10101100001001000000000000000000 T
b10100 \
b10100 9
b10100 [
b100 f
1+
#60000
b110001100 <
b110001100 ;
b110001100 o
0+
#65000
b1100011100 >
0K
b1010010000000000000000 @
b1000011 B
b1000011 q
01
b0 O
b100 j
b1100011100 Q
b1100011100 $
b11 k
b11 n
1W
0b
0U
b0 f
b0 e
1+
#70000
0+
#75000
b11111111111111111111111111111011 G
b111011 #
1*
b0 =
b0 p
b0 6
b110001100 %
b110001100 v
b1010010000000000000000 N
1(
b0 >
b1010010000000000000000 B
b1010010000000000000000 q
b0 J
b0 t
b1111111111111011 -
0L
04
1'
b101 7
b0 E
b0 m
b11111 ?
b11111 F
b111011 ,
b11100 :
b10101100001000110000000110010000 .
b100 O
b100 k
b100 n
b1100011100 R
b1010010000000000000000 `
b0 j
0V
b0 g
b1100011100 ^
b10100001000001111111111111011 T
b11000 \
b100 9
b11000 [
1X
b100 f
b1 e
0c
1+
#80000
0+
#85000
b1000011 >
b0 N
b110010000 G
b100000 #
0*
b1000011 =
b1000011 p
b1111100001000100 6
0(
0w
b11111111111111111111111111111011 %
b11111111111111111111111111111011 v
b11111111111111111111111111111011 J
b11111111111111111111111111111011 t
b1000011 @
b1100011100 B
b1100011100 q
b0 O
b1000 :
b100000001000011111111111111100 .
b110010000 -
1L
14
0'
b101011 7
b11 E
b11 m
b0 ?
b110 F
b10000 ,
b111011 P
b111011 u
b11111111111111111111111111111011 g
b0 ^
b100 j
b1010010000000000000000 i
b1010010000000000000000 M
b110001100 Q
b110001100 $
b0 k
b0 n
0W
0d
0r
1Y
13
0X
b11111 _
b0 f
b100 [
b11100 \
b11001011100 9
b10101100001000110000000110010000 T
1+
#90000
0+
#95000
1A
b11111111111111111111111111111100 G
b110001100 >
b110101011000000 6
b1000011 N
b110001100 =
b110001100 p
b110001100 B
b110001100 q
b1100011100 %
b1100011100 v
b110010000 J
b110010000 t
b1111111111111100 -
0L
04
1!
b1000 7
b1 E
b1 m
b11111 ?
b11111 F
b111100 ,
b1100 :
b10001100001000110000000000000000 .
b11 O
bx @
b100 k
b100 n
b110001100 R
b1000011 `
b0 j
b0 i
b0 M
b11111111111111111111111111111011 Q
b11111111111111111111111111111011 $
b100000 P
b100000 u
b110010000 g
b1000011 ^
b100000001000011111111111111100 T
b1000 \
b11111111111111111111111111111000 9
b1000 [
1X
b0 _
b11 f
0Y
03
1+
#100000
0+
#105000
1A
b0 G
b1000011 >
b1111100111010000 6
b110001000 %
b110001000 v
b110001100 N
b1000011 =
b1000011 p
b11111111111111111111111111111100 J
b11111111111111111111111111111100 t
b1010010000000000000000 @
b11111111111111111111111111111011 B
b11111111111111111111111111111011 q
b1 O
b10000 :
b10001100001001000000000110010000 .
b0 -
10
12
0!
b100011 7
b11 E
b11 m
b0 ?
b0 F
b0 ,
b11111111111111111111111111111100 g
b110001100 ^
b11 j
b1000011 i
b1000011 M
b1100011100 Q
b1100011100 $
b0 k
b0 n
b11111111111111111111111111111011 R
bx `
1Y
13
0X
1b
b11111 _
b1 f
b1100 [
b1100 \
b1100 9
b10001100001000110000000000000000 T
1+
#110000
0+
#115000
b110001000 <
b110010000 G
b110001000 I
b110001000 s
b0 6
b110001000 %
b110001000 v
b1000011 N
b1010010000000000000000 =
b1010010000000000000000 p
0K
b1010010000000000000000 >
b1100011100 B
b1100011100 q
b0 J
b0 t
b110010000 -
b100 E
b100 m
b110 F
b10000 ,
b10100 :
b10101100001001000000000000000000 .
01
b11 O
b11111110 @
b11 k
b11 n
b1100011100 R
b1010010000000000000000 `
b1 j
b110001100 i
b110001100 M
b110001000 Q
b110001000 $
b0 g
b1000011 ^
b10001100001001000000000110010000 T
b10000 \
b11001010000 9
b10000 [
1U
b0 _
b11 f
0Y
03
1c
1+
#120000
0+
#125000
0A
b110001100 <
1K
b0 G
b110010010000000 6
b1100011000 %
b1100011000 v
b1010010000000000000000 N
11
b110010000 J
b110010000 t
b110001000 B
b110001000 q
b100 O
b11000 :
b10100001000001111111111111011 .
b0 -
1L
14
00
02
b101011 7
b0 F
b0 ,
b110010000 g
b1010010000000000000000 ^
b110001000 ]
b11 j
b1000011 i
b1000011 M
1V
b1 k
b1 n
b110001000 R
b11111110 `
1d
1r
b100 f
b10100 [
b10100 \
b10100 9
b10101100001001000000000000000000 T
1+
#130000
b110001000 <
b110001000 ;
b110001000 o
0+
#135000
b1100011000 >
0K
b11111110 B
b11111110 q
b111110000000000000000000 @
01
b0 O
b11 k
b11 n
1W
b100 j
b1010010000000000000000 i
b1010010000000000000000 M
b1100011000 Q
b1100011000 $
0b
0U
b0 f
b0 e
1+
#140000
0+
#145000
b11111111111111111111111111111011 G
b111011 #
1*
b0 6
b110001000 %
b110001000 v
b111110000000000000000000 N
b0 >
1(
b0 =
b0 p
b0 J
b0 t
b111110000000000000000000 B
b111110000000000000000000 q
b100 O
b11100 :
b10101100001000110000000110010000 .
b1111111111111011 -
0L
04
1'
b101 7
b0 E
b0 m
b11111 ?
b11111 F
b111011 ,
b0 g
b1100011000 ^
b0 j
0V
b100 k
b100 n
b1100011000 R
b111110000000000000000000 `
0c
1X
b100 f
b1 e
b11000 [
b11000 \
b100 9
b10100001000001111111111111011 T
1+
#150000
0+
#155000
b11111110 >
b110010000 G
b100000 #
0*
b11111110 =
b11111110 p
b0 N
b1111100001011000 6
0(
b1100011000 B
b1100011000 q
b11111110 @
0w
b11111111111111111111111111111011 %
b11111111111111111111111111111011 v
b11111111111111111111111111111011 J
b11111111111111111111111111111011 t
b110010000 -
1L
14
0'
b101011 7
b11 E
b11 m
b0 ?
b110 F
b10000 ,
b1000 :
b100000001000011111111111111100 .
b0 O
b0 k
b0 n
0W
b100 j
b111110000000000000000000 i
b111110000000000000000000 M
b110001000 Q
b110001000 $
b111011 P
b111011 u
b11111111111111111111111111111011 g
b0 ^
b10101100001000110000000110010000 T
b11100 \
b11001011100 9
b100 [
0X
b11111 _
b0 f
1Y
13
0d
0r
1+
#160000
0+
#165000
1A
b11111111111111111111111111111100 G
b110001000 >
b110010010000000 6
b11111110 N
b110001000 =
b110001000 p
b1100011000 %
b1100011000 v
b110010000 J
b110010000 t
b110001000 B
b110001000 q
b11 O
b1100 :
b10001100001000110000000000000000 .
b1111111111111100 -
0L
04
1!
b1000 7
b1 E
b1 m
b11111 ?
b11111 F
b111100 ,
b100000 P
b100000 u
b110010000 g
b11111110 ^
b0 j
b0 i
b0 M
b11111111111111111111111111111011 Q
b11111111111111111111111111111011 $
b100 k
b100 n
b110001000 R
b11111110 `
bx @
0Y
03
1X
b0 _
b11 f
b1000 [
b1000 \
b11111111111111111111111111111000 9
b100000001000011111111111111100 T
1+
#170000
0+
#175000
1A
b0 G
b11111110 >
b1111100111100000 6
b110000100 %
b110000100 v
b110001000 N
b11111110 =
b11111110 p
b11111111111111111111111111111011 B
b11111111111111111111111111111011 q
b111110000000000000000000 @
b11111111111111111111111111111100 J
b11111111111111111111111111111100 t
b0 -
10
12
0!
b100011 7
b11 E
b11 m
b0 ?
b0 F
b0 ,
b10000 :
b10001100001001000000000110010000 .
b1 O
b0 k
b0 n
b11111111111111111111111111111011 R
bx `
b11 j
b11111110 i
b11111110 M
b1100011000 Q
b1100011000 $
b11111111111111111111111111111100 g
b110001000 ^
b10001100001000110000000000000000 T
b1100 \
b1100 9
b1100 [
0X
1b
b11111 _
b1 f
1Y
13
1+
#180000
0+
#185000
b110000100 <
b110010000 G
b0 6
b11111110 N
b110000100 I
b110000100 s
b111110000000000000000000 >
b111110000000000000000000 =
b111110000000000000000000 p
b0 J
b0 t
b1100011000 B
b1100011000 q
b11 O
b10100 :
b10101100001001000000000000000000 .
b110010000 -
b100 E
b100 m
b110 F
b10000 ,
b0 g
b11111110 ^
b1 j
b110001000 i
b110001000 M
b110000100 Q
b110000100 $
b11 k
b11 n
b1100011000 R
b111110000000000000000000 `
b11010 @
0Y
03
1c
1U
b0 _
b11 f
b10000 [
b10000 \
b11001010000 9
b10001100001001000000000110010000 T
1+
#190000
0+
#195000
0A
b110001000 <
b0 G
1K
b101111001000000 6
b1100010100 %
b1100010100 v
b111110000000000000000000 N
11
b110000100 B
b110000100 q
b110010000 J
b110010000 t
b0 -
1L
14
00
02
b101011 7
b0 F
b0 ,
b11000 :
b10100001000001111111111111011 .
b100 O
b1 k
b1 n
b110000100 R
b11010 `
b11 j
b11111110 i
b11111110 M
1V
b110010000 g
b111110000000000000000000 ^
b110000100 ]
b10101100001001000000000000000000 T
b10100 \
b10100 9
b10100 [
b100 f
1d
1r
1+
#200000
b110000100 <
b110000100 ;
b110000100 o
0+
#205000
b1100010100 >
0K
b1000110000000000000000 @
b11010 B
b11010 q
01
b0 O
b100 j
b111110000000000000000000 i
b111110000000000000000000 M
b1100010100 Q
b1100010100 $
b11 k
b11 n
1W
0b
0U
b0 f
b0 e
1+
#210000
0+
#215000
b11111111111111111111111111111011 G
b111011 #
1*
b0 6
b110000100 %
b110000100 v
b1000110000000000000000 N
1(
b0 =
b0 p
b0 >
b1000110000000000000000 B
b1000110000000000000000 q
b0 J
b0 t
b1111111111111011 -
0L
04
1'
b101 7
b0 E
b0 m
b11111 ?
b11111 F
b111011 ,
b11100 :
b10101100001000110000000110010000 .
b100 O
b100 k
b100 n
b1100010100 R
b1000110000000000000000 `
b0 j
0V
b0 g
b1100010100 ^
b10100001000001111111111111011 T
b11000 \
b100 9
b11000 [
1X
b100 f
b1 e
0c
1+
#220000
0+
#225000
b11010 >
b0 N
b110010000 G
b100000 #
0*
b11010 =
b11010 p
b1111100001101100 6
0(
0w
b11111111111111111111111111111011 %
b11111111111111111111111111111011 v
b11111111111111111111111111111011 J
b11111111111111111111111111111011 t
b11010 @
b1100010100 B
b1100010100 q
b0 O
b1000 :
b100000001000011111111111111100 .
b110010000 -
1L
14
0'
b101011 7
b11 E
b11 m
b0 ?
b110 F
b10000 ,
b111011 P
b111011 u
b11111111111111111111111111111011 g
b0 ^
b100 j
b1000110000000000000000 i
b1000110000000000000000 M
b110000100 Q
b110000100 $
b0 k
b0 n
0W
0d
0r
1Y
13
0X
b11111 _
b0 f
b100 [
b11100 \
b11001011100 9
b10101100001000110000000110010000 T
1+
#230000
0+
#235000
1A
b11111111111111111111111111111100 G
b110000100 >
b101111001000000 6
b11010 N
b110000100 =
b110000100 p
b110000100 B
b110000100 q
b1100010100 %
b1100010100 v
b110010000 J
b110010000 t
b1111111111111100 -
0L
04
1!
b1000 7
b1 E
b1 m
b11111 ?
b11111 F
b111100 ,
b1100 :
b10001100001000110000000000000000 .
b11 O
bx @
b100 k
b100 n
b110000100 R
b11010 `
b0 j
b0 i
b0 M
b11111111111111111111111111111011 Q
b11111111111111111111111111111011 $
b100000 P
b100000 u
b110010000 g
b11010 ^
b100000001000011111111111111100 T
b1000 \
b11111111111111111111111111111000 9
b1000 [
1X
b0 _
b11 f
0Y
03
1+
#240000
0+
#245000
1A
b0 G
b11010 >
b1111100111110000 6
b110000000 %
b110000000 v
b110000100 N
b11010 =
b11010 p
b11111111111111111111111111111100 J
b11111111111111111111111111111100 t
b1000110000000000000000 @
b11111111111111111111111111111011 B
b11111111111111111111111111111011 q
b1 O
b10000 :
b10001100001001000000000110010000 .
b0 -
10
12
0!
b100011 7
b11 E
b11 m
b0 ?
b0 F
b0 ,
b11111111111111111111111111111100 g
b110000100 ^
b11 j
b11010 i
b11010 M
b1100010100 Q
b1100010100 $
b0 k
b0 n
b11111111111111111111111111111011 R
bx `
1Y
13
0X
1b
b11111 _
b1 f
b1100 [
b1100 \
b1100 9
b10001100001000110000000000000000 T
1+
#250000
0+
#255000
b110000000 <
b110010000 G
b110000000 I
b110000000 s
b0 6
b110000000 %
b110000000 v
b11010 N
b1000110000000000000000 =
b1000110000000000000000 p
0K
b1000110000000000000000 >
b1100010100 B
b1100010100 q
b0 J
b0 t
b110010000 -
b100 E
b100 m
b110 F
b10000 ,
b10100 :
b10101100001001000000000000000000 .
01
b11 O
b10 @
b11 k
b11 n
b1100010100 R
b1000110000000000000000 `
b1 j
b110000100 i
b110000100 M
b110000000 Q
b110000000 $
b0 g
b11010 ^
b10001100001001000000000110010000 T
b10000 \
b11001010000 9
b10000 [
1U
b0 _
b11 f
0Y
03
1c
1+
#260000
0+
#265000
0A
b110000100 <
1K
b0 G
b101100000000000 6
b1100010000 %
b1100010000 v
b1000110000000000000000 N
11
b110010000 J
b110010000 t
b110000000 B
b110000000 q
b100 O
b11000 :
b10100001000001111111111111011 .
b0 -
1L
14
00
02
b101011 7
b0 F
b0 ,
b110010000 g
b1000110000000000000000 ^
b110000000 ]
b11 j
b11010 i
b11010 M
1V
b1 k
b1 n
b110000000 R
b10 `
1d
1r
b100 f
b10100 [
b10100 \
b10100 9
b10101100001001000000000000000000 T
1+
#270000
b110000000 <
b110000000 ;
b110000000 o
0+
#275000
b1100010000 >
0K
b10 B
b10 q
b11111110000000000000000 @
01
b0 O
b11 k
b11 n
1W
b100 j
b1000110000000000000000 i
b1000110000000000000000 M
b1100010000 Q
b1100010000 $
0b
0U
b0 f
b0 e
1+
#280000
0+
#285000
b11111111111111111111111111111011 G
b111011 #
1*
b0 6
b110000000 %
b110000000 v
b11111110000000000000000 N
b0 >
1(
b0 =
b0 p
b0 J
b0 t
b11111110000000000000000 B
b11111110000000000000000 q
b100 O
b11100 :
b10101100001000110000000110010000 .
b1111111111111011 -
0L
04
1'
b101 7
b0 E
b0 m
b11111 ?
b11111 F
b111011 ,
b0 g
b1100010000 ^
b0 j
0V
b100 k
b100 n
b1100010000 R
b11111110000000000000000 `
0c
1X
b100 f
b1 e
b11000 [
b11000 \
b100 9
b10100001000001111111111111011 T
1+
#290000
0+
#295000
b10 >
b110010000 G
b100000 #
0*
b10 =
b10 p
b0 N
b1111100010000000 6
0(
b1100010000 B
b1100010000 q
b10 @
0w
b11111111111111111111111111111011 %
b11111111111111111111111111111011 v
b11111111111111111111111111111011 J
b11111111111111111111111111111011 t
b110010000 -
1L
14
0'
b101011 7
b11 E
b11 m
b0 ?
b110 F
b10000 ,
b1000 :
b100000001000011111111111111100 .
b0 O
b0 k
b0 n
0W
b100 j
b11111110000000000000000 i
b11111110000000000000000 M
b110000000 Q
b110000000 $
b111011 P
b111011 u
b11111111111111111111111111111011 g
b0 ^
b10101100001000110000000110010000 T
b11100 \
b11001011100 9
b100 [
0X
b11111 _
b0 f
1Y
13
0d
0r
1+
#300000
0+
#305000
1A
b11111111111111111111111111111100 G
b110000000 >
b101100000000000 6
b10 N
b110000000 =
b110000000 p
b1100010000 %
b1100010000 v
b110010000 J
b110010000 t
b110000000 B
b110000000 q
b11 O
b1100 :
b10001100001000110000000000000000 .
b1111111111111100 -
0L
04
1!
b1000 7
b1 E
b1 m
b11111 ?
b11111 F
b111100 ,
b100000 P
b100000 u
b110010000 g
b10 ^
b0 j
b0 i
b0 M
b11111111111111111111111111111011 Q
b11111111111111111111111111111011 $
b100 k
b100 n
b110000000 R
b10 `
bx @
0Y
03
1X
b0 _
b11 f
b1000 [
b1000 \
b11111111111111111111111111111000 9
b100000001000011111111111111100 T
1+
#310000
0+
#315000
1A
b0 G
b10 >
b1111101000000000 6
b101111100 %
b101111100 v
b110000000 N
b10 =
b10 p
b11111111111111111111111111111011 B
b11111111111111111111111111111011 q
b11111110000000000000000 @
b11111111111111111111111111111100 J
b11111111111111111111111111111100 t
b0 -
10
12
0!
b100011 7
b11 E
b11 m
b0 ?
b0 F
b0 ,
b10000 :
b10001100001001000000000110010000 .
b1 O
b0 k
b0 n
b11111111111111111111111111111011 R
bx `
b11 j
b10 i
b10 M
b1100010000 Q
b1100010000 $
b11111111111111111111111111111100 g
b110000000 ^
b10001100001000110000000000000000 T
b1100 \
b1100 9
b1100 [
0X
1b
b11111 _
b1 f
1Y
13
1+
#320000
0+
#325000
b101111100 <
b110010000 G
b0 6
b10 N
b101111100 I
b101111100 s
b11111110000000000000000 >
b11111110000000000000000 =
b11111110000000000000000 p
b0 J
b0 t
b1100010000 B
b1100010000 q
b11 O
b10100 :
b10101100001001000000000000000000 .
b110010000 -
b100 E
b100 m
b110 F
b10000 ,
b0 g
b10 ^
b1 j
b110000000 i
b110000000 M
b101111100 Q
b101111100 $
b11 k
b11 n
b1100010000 R
b11111110000000000000000 `
b1011100 @
0Y
03
1c
1U
b0 _
b11 f
b10000 [
b10000 \
b11001010000 9
b10001100001001000000000110010000 T
1+
#330000
0+
#335000
0A
b110000000 <
b0 G
1K
b101000111000000 6
b1100001100 %
b1100001100 v
b11111110000000000000000 N
11
b101111100 B
b101111100 q
b110010000 J
b110010000 t
b0 -
1L
14
00
02
b101011 7
b0 F
b0 ,
b11000 :
b10100001000001111111111111011 .
b100 O
b1 k
b1 n
b101111100 R
b1011100 `
b11 j
b10 i
b10 M
1V
b110010000 g
b11111110000000000000000 ^
b101111100 ]
b10101100001001000000000000000000 T
b10100 \
b10100 9
b10100 [
b100 f
1d
1r
1+
#340000
b101111100 <
b101111100 ;
b101111100 o
0+
#345000
b1100001100 >
0K
b111000000000000000000 @
b1011100 B
b1011100 q
01
b0 O
b100 j
b11111110000000000000000 i
b11111110000000000000000 M
b1100001100 Q
b1100001100 $
b11 k
b11 n
1W
0b
0U
b0 f
b0 e
1+
#350000
0+
#355000
b11111111111111111111111111111011 G
b111011 #
1*
b0 6
b101111100 %
b101111100 v
b111000000000000000000 N
1(
b0 =
b0 p
b0 >
b111000000000000000000 B
b111000000000000000000 q
b0 J
b0 t
b1111111111111011 -
0L
04
1'
b101 7
b0 E
b0 m
b11111 ?
b11111 F
b111011 ,
b11100 :
b10101100001000110000000110010000 .
b100 O
b100 k
b100 n
b1100001100 R
b111000000000000000000 `
b0 j
0V
b0 g
b1100001100 ^
b10100001000001111111111111011 T
b11000 \
b100 9
b11000 [
1X
b100 f
b1 e
0c
1+
#360000
0+
#365000
b1011100 >
b0 N
b110010000 G
b100000 #
0*
b1011100 =
b1011100 p
b1111100010010100 6
0(
0w
b11111111111111111111111111111011 %
b11111111111111111111111111111011 v
b11111111111111111111111111111011 J
b11111111111111111111111111111011 t
b1011100 @
b1100001100 B
b1100001100 q
b0 O
b1000 :
b100000001000011111111111111100 .
b110010000 -
1L
14
0'
b101011 7
b11 E
b11 m
b0 ?
b110 F
b10000 ,
b111011 P
b111011 u
b11111111111111111111111111111011 g
b0 ^
b100 j
b111000000000000000000 i
b111000000000000000000 M
b101111100 Q
b101111100 $
b0 k
b0 n
0W
0d
0r
1Y
13
0X
b11111 _
b0 f
b100 [
b11100 \
b11001011100 9
b10101100001000110000000110010000 T
1+
#370000
0+
#375000
1A
b11111111111111111111111111111100 G
b101111100 >
b101000111000000 6
b1011100 N
b101111100 =
b101111100 p
b101111100 B
b101111100 q
b1100001100 %
b1100001100 v
b110010000 J
b110010000 t
b1111111111111100 -
0L
04
1!
b1000 7
b1 E
b1 m
b11111 ?
b11111 F
b111100 ,
b1100 :
b10001100001000110000000000000000 .
b11 O
bx @
b100 k
b100 n
b101111100 R
b1011100 `
b0 j
b0 i
b0 M
b11111111111111111111111111111011 Q
b11111111111111111111111111111011 $
b100000 P
b100000 u
b110010000 g
b1011100 ^
b100000001000011111111111111100 T
b1000 \
b11111111111111111111111111111000 9
b1000 [
1X
b0 _
b11 f
0Y
03
1+
#380000
0+
#385000
1A
b0 G
b1011100 >
b1111101000010000 6
b101111000 %
b101111000 v
b101111100 N
b1011100 =
b1011100 p
b11111111111111111111111111111100 J
b11111111111111111111111111111100 t
b111000000000000000000 @
b11111111111111111111111111111011 B
b11111111111111111111111111111011 q
b1 O
b10000 :
b10001100001001000000000110010000 .
b0 -
10
12
0!
b100011 7
b11 E
b11 m
b0 ?
b0 F
b0 ,
b11111111111111111111111111111100 g
b101111100 ^
b11 j
b1011100 i
b1011100 M
b1100001100 Q
b1100001100 $
b0 k
b0 n
b11111111111111111111111111111011 R
bx `
1Y
13
0X
1b
b11111 _
b1 f
b1100 [
b1100 \
b1100 9
b10001100001000110000000000000000 T
1+
#390000
0+
#395000
b101111000 <
b110010000 G
b101111000 I
b101111000 s
b0 6
b101111000 %
b101111000 v
b1011100 N
b111000000000000000000 =
b111000000000000000000 p
0K
b111000000000000000000 >
b1100001100 B
b1100001100 q
b0 J
b0 t
b110010000 -
b100 E
b100 m
b110 F
b10000 ,
b10100 :
b10101100001001000000000000000000 .
01
b11 O
b11011011 @
b11 k
b11 n
b1100001100 R
b111000000000000000000 `
b1 j
b101111100 i
b101111100 M
b101111000 Q
b101111000 $
b0 g
b1011100 ^
b10001100001001000000000110010000 T
b10000 \
b11001010000 9
b10000 [
1U
b0 _
b11 f
0Y
03
1c
1+
#400000
0+
#405000
0A
b101111100 <
1K
b0 G
b100101110000000 6
b1100001000 %
b1100001000 v
b111000000000000000000 N
11
b110010000 J
b110010000 t
b101111000 B
b101111000 q
b100 O
b11000 :
b10100001000001111111111111011 .
b0 -
1L
14
00
02
b101011 7
b0 F
b0 ,
b110010000 g
b111000000000000000000 ^
b101111000 ]
b11 j
b1011100 i
b1011100 M
1V
b1 k
b1 n
b101111000 R
b11011011 `
1d
1r
b100 f
b10100 [
b10100 \
b10100 9
b10101100001001000000000000000000 T
1+
#410000
b101111000 <
b101111000 ;
b101111000 o
0+
#415000
b1100001000 >
0K
b11011011 B
b11011011 q
b110100000000000000000 @
01
b0 O
b11 k
b11 n
1W
b100 j
b111000000000000000000 i
b111000000000000000000 M
b1100001000 Q
b1100001000 $
0b
0U
b0 f
b0 e
1+
#420000
0+
#425000
b11111111111111111111111111111011 G
b111011 #
1*
b0 6
b101111000 %
b101111000 v
b110100000000000000000 N
b0 >
1(
b0 =
b0 p
b0 J
b0 t
b110100000000000000000 B
b110100000000000000000 q
b100 O
b11100 :
b10101100001000110000000110010000 .
b1111111111111011 -
0L
04
1'
b101 7
b0 E
b0 m
b11111 ?
b11111 F
b111011 ,
b0 g
b1100001000 ^
b0 j
0V
b100 k
b100 n
b1100001000 R
b110100000000000000000 `
0c
1X
b100 f
b1 e
b11000 [
b11000 \
b100 9
b10100001000001111111111111011 T
1+
#430000
0+
#435000
b11011011 >
b110010000 G
b100000 #
0*
b11011011 =
b11011011 p
b0 N
b1111100010101000 6
0(
b1100001000 B
b1100001000 q
b11011011 @
0w
b11111111111111111111111111111011 %
b11111111111111111111111111111011 v
b11111111111111111111111111111011 J
b11111111111111111111111111111011 t
b110010000 -
1L
14
0'
b101011 7
b11 E
b11 m
b0 ?
b110 F
b10000 ,
b1000 :
b100000001000011111111111111100 .
b0 O
b0 k
b0 n
0W
b100 j
b110100000000000000000 i
b110100000000000000000 M
b101111000 Q
b101111000 $
b111011 P
b111011 u
b11111111111111111111111111111011 g
b0 ^
b10101100001000110000000110010000 T
b11100 \
b11001011100 9
b100 [
0X
b11111 _
b0 f
1Y
13
0d
0r
1+
#440000
0+
