prog_swap/mipse.vcd
$date
	Tue Aug  2 10:14:29 2016
$end
$version
	Icarus Verilog
$end
$timescale
	1ps
$end
$scope module test_mipse $end
$scope module mipse_1 $end
$var wire 1 ! addi_opD $end
$var wire 1 " alu_opD $end
$var wire 6 # alucomD [5:0] $end
$var wire 32 $ aluout [31:0] $end
$var wire 32 % aluoutE [31:0] $end
$var wire 1 & beq_opD $end
$var wire 1 ' bne_opD $end
$var wire 1 ( branchD $end
$var wire 1 ) branchstall $end
$var wire 1 * btakenD $end
$var wire 1 + clk $end
$var wire 6 , funcD [5:0] $end
$var wire 1 - grade_opD $end
$var wire 3 . gradeoutE [2:0] $end
$var wire 16 / immD [15:0] $end
$var wire 32 0 instr [31:0] $end
$var wire 1 1 lui_opD $end
$var wire 1 2 lw_opD $end
$var wire 1 3 lwstall $end
$var wire 1 4 memtoregD $end
$var wire 1 5 memwrite $end
$var wire 1 6 memwriteD $end
$var wire 1 7 mult_opD $end
$var wire 32 8 multoutE [31:0] $end
$var wire 6 9 opcodeD [5:0] $end
$var wire 1 : ori_opD $end
$var wire 32 ; pcbranchD [31:0] $end
$var wire 32 < pcplus4F [31:0] $end
$var wire 32 = rd1D [31:0] $end
$var wire 32 > rd1fD [31:0] $end
$var wire 32 ? rd2D [31:0] $end
$var wire 32 @ rd2fD [31:0] $end
$var wire 5 A rdD [4:0] $end
$var wire 32 B readdata [31:0] $end
$var wire 1 C regwriteD $end
$var wire 32 D resultW [31:0] $end
$var wire 5 E rsD [4:0] $end
$var wire 1 F rst_n $end
$var wire 5 G rtD [4:0] $end
$var wire 5 H shamtD [4:0] $end
$var wire 32 I signimmD [31:0] $end
$var wire 1 J slti_opD $end
$var wire 32 K srcaE [31:0] $end
$var wire 32 L srcbE [31:0] $end
$var wire 1 M stall $end
$var wire 1 N sw_opD $end
$var wire 32 O writedata [31:0] $end
$var wire 32 P writedataE [31:0] $end
$var wire 5 Q writeregE [4:0] $end
$var reg 6 R alucomE [5:0] $end
$var reg 32 S aluoutM [31:0] $end
$var reg 32 T aluoutW [31:0] $end
$var reg 1 U alusrcE $end
$var reg 1 V grade_opE $end
$var reg 32 W instrD [31:0] $end
$var reg 1 X memtoregE $end
$var reg 1 Y memtoregM $end
$var reg 1 Z memtoregW $end
$var reg 1 [ memwriteE $end
$var reg 1 \ memwriteM $end
$var reg 1 ] mult_opE $end
$var reg 32 ^ pc [31:0] $end
$var reg 32 _ pcplus4D [31:0] $end
$var reg 32 ` rd1E [31:0] $end
$var reg 32 a rd2E [31:0] $end
$var reg 5 b rdE [4:0] $end
$var reg 32 c readdataW [31:0] $end
$var reg 1 d regdstE $end
$var reg 1 e regwriteE $end
$var reg 1 f regwriteM $end
$var reg 1 g regwriteW $end
$var reg 5 h rsE [4:0] $end
$var reg 5 i rtE [4:0] $end
$var reg 32 j signimmE [31:0] $end
$var reg 1 k slti_opE $end
$var reg 32 l writedataM [31:0] $end
$var reg 5 m writeregM [4:0] $end
$var reg 5 n writeregW [4:0] $end
$scope module rfile_1 $end
$var wire 5 o a1 [4:0] $end
$var wire 5 p a2 [4:0] $end
$var wire 5 q a3 [4:0] $end
$var wire 1 + clk $end
$var wire 32 r rd1 [31:0] $end
$var wire 32 s rd2 [31:0] $end
$var wire 32 t wd3 [31:0] $end
$var wire 1 u we3 $end
$upscope $end
$scope module alu_1 $end
$var wire 32 v a [31:0] $end
$var wire 32 w b [31:0] $end
$var wire 6 x s [5:0] $end
$var wire 32 y y [31:0] $end
$var wire 1 z zero $end
$upscope $end
$upscope $end
$upscope $end
$enddefinitions $end
#0
$dumpvars
xz
bx y
bx x
bx w
bx v
0u
bx t
b0 s
b0 r
bx q
b0 p
b0 o
bx n
bx m
bx l
xk
bx j
b0 i
b0 h
0g
0f
0e
xd
bx c
b0 b
bx a
bx `
b0 _
b0 ^
x]
0\
0[
xZ
xY
0X
b0 W
xV
xU
bx T
bx S
bx R
b0 Q
bx P
bx O
0N
0M
bx L
bx K
0J
b0 I
b0 H
b0 G
0F
b0 E
bx D
0C
bx B
b0 A
b0 @
b0 ?
b0 >
b0 =
b100 <
b0 ;
0:
b0 9
bx 8
07
06
05
04
03
02
01
b100000000000010000000110010000 0
b0 /
bx .
0-
b0 ,
0+
0*
0)
0(
0'
0&
bx %
bx $
b0 #
0"
0!
$end
#5000
b1 .
b0 P
b0 8
b0 K
b0 v
1z
b0 %
b0 y
b0 L
b0 w
0d
1U
b0 R
b0 x
b0 j
b0 a
b0 `
0]
0V
0k
b0 m
0Y
1+
#10000
0+
#12000
1F
#15000
b100000 #
1C
bx @
b110010000 I
bx ?
bx s
b1100111 B
b110010000 /
1!
b1000 9
b1 G
b1 p
b110 H
b10000 ,
b1000 <
b100000001000011111111111111100 0
b0 n
b0 q
0Z
b0 l
b0 O
b0 S
b0 $
b100000000000010000000110010000 W
b100 _
b11001000100 ;
b100 ^
1+
#20000
0+
#25000
bx >
b11111111111111111111111111111100 I
bx =
bx r
bx P
0z
b110010000 %
b110010000 y
b110010000 L
b110010000 w
b0 D
b0 t
b1 Q
b1100 <
b10001100001001000000000110010000 0
b1111111111111100 /
b1 E
b1 o
b11111 A
b11111 H
b111100 ,
b100000 R
b100000 x
b110010000 j
bx a
b0 T
b1100111 c
1e
b1 i
b1000 ^
b1000 _
b11111111111111111111111111111000 ;
b100000001000011111111111111100 W
1+
#30000
0+
#35000
1C
b110010000 >
b110010000 I
b101 .
b110010000 P
b110001100 %
b110001100 y
b11111111111111111111100111000000 8
b110010000 K
b110010000 v
b111110110000000000000000 B
b11111111111111111111111111111100 L
b11111111111111111111111111111100 w
b110010000 /
12
14
0!
b100011 9
b100 G
b100 p
b0 A
b110 H
b10000 ,
b10000 <
b10001100001000110000000000000000 0
b1 m
bx l
bx O
b110010000 S
b110010000 $
b11111111111111111111111111111100 j
bx `
b10001100001001000000000110010000 W
b1100 _
b11001001100 ;
b1100 ^
b11111 b
b1 h
1f
1+
#40000
0+
#45000
b0 I
b1100011100 %
b1100011100 y
b110010000 L
b110010000 w
b110001100 >
b100110101011000000 8
b110001100 K
b110001100 v
bx P
b1000011 B
b110010000 D
b110010000 t
b100 Q
b10100 <
b10101100001001000000000000000000 0
b0 /
b11 G
b11 p
b0 H
b0 ,
b110010000 j
b110010000 `
b110010000 l
b110010000 O
b110001100 S
b110001100 $
b1 n
b1 q
b110010000 T
b111110110000000000000000 c
1g
1u
1X
b0 b
b100 i
b10000 ^
b10000 _
b10000 ;
b10001100001000110000000000000000 W
1+
#50000
b110010000 =
b110010000 r
0+
#55000
0C
b1100011100 @
b110001100 %
b110001100 y
0M
03
b110001100 D
b110001100 t
b110010000 >
b110001100 K
b110001100 v
b1010010000000000000000 B
b0 8
b0 L
b0 w
1N
16
02
04
b101011 9
b100 G
b100 p
b11000 <
b10100001000001111111111111011 0
b11 Q
b110001100 T
b1000011 c
b100 m
bx l
bx O
1Y
b1100011100 S
b1100011100 $
b0 j
b110001100 `
b10101100001001000000000000000000 W
b10100 _
b10100 ;
b10100 ^
b11 i
1+
#60000
b110001100 >
b110001100 =
b110001100 r
0+
#65000
1*
b111011 #
b11111111111111111111111111111011 I
b0 ?
b0 s
b1010010000000000000000 P
1(
b0 @
b1000011 B
b1010010000000000000000 D
b1010010000000000000000 t
b100 Q
b11100 <
b10101100001000110000000110010000 0
b1111111111111011 /
0N
06
1'
b101 9
b0 G
b0 p
b11111 A
b11111 H
b111011 ,
b1100011100 a
b11 m
b110001100 S
b110001100 $
b100 n
b100 q
1Z
b1100011100 T
b1010010000000000000000 c
1[
0e
0X
b100 i
b11000 ^
b11000 _
b100 ;
b10100001000001111111111111011 W
1+
#70000
0+
#75000
b100000 #
bx @
b110010000 I
0*
bx ?
bx s
b0 P
0(
b1000011 D
b1000011 t
0z
b11111111111111111111111111111011 %
b11111111111111111111111111111011 y
b11111111111111111111100001000100 8
b11111111111111111111111111111011 L
b11111111111111111111111111111011 w
b110010000 /
1N
16
0'
b101011 9
b11 G
b11 p
b0 A
b110 H
b10000 ,
b1000 <
b100000001000011111111111111100 0
b0 Q
b11 n
b11 q
b110001100 T
b1000011 c
b100 m
b1010010000000000000000 l
b1010010000000000000000 O
0Y
b111011 R
b111011 x
b11111111111111111111111111111011 j
b0 a
b10101100001000110000000110010000 W
b11100 _
b11001011100 ;
b100 ^
0[
b11111 b
b0 i
1\
15
0f
1+
#80000
b1000011 @
b1000011 ?
b1000011 s
0+
#85000
1C
b11111111111111111111111111111100 I
b110001100 @
b1000011 P
b110001100 ?
b110001100 s
b1100011100 %
b1100011100 y
b100110101011000000 8
b110010000 L
b110010000 w
b110001100 D
b110001100 t
b11 Q
b1100 <
b10001100001001000000000110010000 0
b1111111111111100 /
0N
06
1!
b1000 9
b1 G
b1 p
b11111 A
b11111 H
b111100 ,
b100000 R
b100000 x
b110010000 j
b1000011 a
b0 m
b0 l
b0 O
b11111111111111111111111111111011 S
b11111111111111111111111111111011 $
b100 n
b100 q
0Z
bx B
0g
0u
0\
05
1[
b0 b
b11 i
b1000 ^
b1000 _
b11111111111111111111111111111000 ;
b100000001000011111111111111100 W
1+
#90000
0+
#95000
1C
b110010000 I
b1010010000000000000000 @
b110001000 %
b110001000 y
b110001100 P
b1010010000000000000000 ?
b1010010000000000000000 s
b11111111111111111111111111111011 D
b11111111111111111111111111111011 t
b1010010000000000000000 B
b11111111111111111111100111010000 8
b11111111111111111111111111111100 L
b11111111111111111111111111111100 w
b110010000 /
12
14
0!
b100011 9
b100 G
b100 p
b0 A
b110 H
b10000 ,
b10000 <
b10001100001000110000000000000000 0
b1 Q
b0 n
b0 q
b11111111111111111111111111111011 T
bx c
b11 m
b1000011 l
b1000011 O
b1100011100 S
b1100011100 $
b11111111111111111111111111111100 j
b110001100 a
b10001100001001000000000110010000 W
b1100 _
b11001001100 ;
b1100 ^
0[
1e
b11111 b
b1 i
1\
15
1+
#100000
0+
#105000
b110001000 >
b0 I
b1000011 @
b1100011000 %
b1100011000 y
b1010010000000000000000 P
b110001000 K
b110001000 v
b1000011 ?
b1000011 s
b100110010010000000 8
b110010000 L
b110010000 w
b1100011100 D
b1100011100 t
b100 Q
b10100 <
b10101100001001000000000000000000 0
b0 /
b11 G
b11 p
b0 H
b0 ,
b110010000 j
b1010010000000000000000 a
b1 m
b110001100 l
b110001100 O
b110001000 S
b110001000 $
b11 n
b11 q
b1100011100 T
b1010010000000000000000 c
b11111110 B
0\
05
1f
1X
b0 b
b100 i
b10000 ^
b10000 _
b10000 ;
b10001100001000110000000000000000 W
1+
#110000
0+
#115000
0C
b110001000 %
b110001000 y
b1100011000 @
0M
b1000011 P
b1010010000000000000000 ?
b1010010000000000000000 s
03
b110001000 D
b110001000 t
b110001100 >
b110001000 K
b110001000 v
b111110000000000000000000 B
b0 8
b0 L
b0 w
1N
16
02
04
b101011 9
b100 G
b100 p
b11000 <
b10100001000001111111111111011 0
b11 Q
b1 n
b1 q
b110001000 T
b11111110 c
b100 m
b1010010000000000000000 l
b1010010000000000000000 O
1Y
b1100011000 S
b1100011000 $
b0 j
b1000011 a
b110001000 `
b10101100001001000000000000000000 W
b10100 _
b10100 ;
b10100 ^
b11 i
1g
1u
1+
#120000
b110001000 >
b110001000 =
b110001000 r
0+
#125000
1*
b111011 #
b11111111111111111111111111111011 I
b111110000000000000000000 P
1(
b0 ?
b0 s
b0 @
b11111110 B
b111110000000000000000000 D
b111110000000000000000000 t
b100 Q
b11100 <
b10101100001000110000000110010000 0
b1111111111111011 /
0N
06
1'
b101 9
b0 G
b0 p
b11111 A
b11111 H
b111011 ,
b1100011000 a
b11 m
b1000011 l
b1000011 O
b110001000 S
b110001000 $
b100 n
b100 q
1Z
b1100011000 T
b111110000000000000000000 c
1[
0e
0X
b100 i
b11000 ^
b11000 _
b100 ;
b10100001000001111111111111011 W
1+
#130000
0+
#135000
b100000 #
b1000011 @
b110010000 I
0*
b1000011 ?
b1000011 s
b0 P
0(
b11111110 D
b11111110 t
0z
b11111111111111111111111111111011 %
b11111111111111111111111111111011 y
b11111111111111111111100001011000 8
b11111111111111111111111111111011 L
b11111111111111111111111111111011 w
b110010000 /
1N
16
0'
b101011 9
b11 G
b11 p
b0 A
b110 H
b10000 ,
b1000 <
b100000001000011111111111111100 0
b0 Q
b11 n
b11 q
b110001000 T
b11111110 c
b100 m
b111110000000000000000000 l
b111110000000000000000000 O
0Y
b111011 R
b111011 x
b11111111111111111111111111111011 j
b0 a
b10101100001000110000000110010000 W
b11100 _
b11001011100 ;
b100 ^
0[
b11111 b
b0 i
1\
15
0f
1+
#140000
b11111110 @
b11111110 ?
b11111110 s
0+
#145000
1C
b11111111111111111111111111111100 I
b110001000 @
b11111110 P
b110001000 ?
b110001000 s
b1100011000 %
b1100011000 y
b100110010010000000 8
b110010000 L
b110010000 w
b110001000 D
b110001000 t
b11 Q
b1100 <
b10001100001001000000000110010000 0
b1111111111111100 /
0N
06
1!
b1000 9
b1 G
b1 p
b11111 A
b11111 H
b111100 ,
b100000 R
b100000 x
b110010000 j
b11111110 a
b0 m
b0 l
b0 O
b11111111111111111111111111111011 S
b11111111111111111111111111111011 $
b100 n
b100 q
0Z
bx B
0g
0u
0\
05
1[
b0 b
b11 i
b1000 ^
b1000 _
b11111111111111111111111111111000 ;
b100000001000011111111111111100 W
1+
#150000
0+
#155000
1C
b110010000 I
b111110000000000000000000 @
b110000100 %
b110000100 y
b110001000 P
b111110000000000000000000 ?
b111110000000000000000000 s
b11111111111111111111111111111011 D
b11111111111111111111111111111011 t
b111110000000000000000000 B
b11111111111111111111100111100000 8
b11111111111111111111111111111100 L
b11111111111111111111111111111100 w
b110010000 /
12
14
0!
b100011 9
b100 G
b100 p
b0 A
b110 H
b10000 ,
b10000 <
b10001100001000110000000000000000 0
b1 Q
b0 n
b0 q
b11111111111111111111111111111011 T
bx c
b11 m
b11111110 l
b11111110 O
b1100011000 S
b1100011000 $
b11111111111111111111111111111100 j
b110001000 a
b10001100001001000000000110010000 W
b1100 _
b11001001100 ;
b1100 ^
0[
1e
b11111 b
b1 i
1\
15
1+
#160000
0+
#165000
b110000100 >
b0 I
b11111110 @
b1100010100 %
b1100010100 y
b111110000000000000000000 P
b110000100 K
b110000100 v
b11111110 ?
b11111110 s
b100101111001000000 8
b110010000 L
b110010000 w
b1100011000 D
b1100011000 t
b100 Q
b10100 <
b10101100001001000000000000000000 0
b0 /
b11 G
b11 p
b0 H
b0 ,
b110010000 j
b111110000000000000000000 a
b1 m
b110001000 l
b110001000 O
b110000100 S
b110000100 $
b11 n
b11 q
b1100011000 T
b111110000000000000000000 c
b11010 B
0\
05
1f
1X
b0 b
b100 i
b10000 ^
b10000 _
b10000 ;
b10001100001000110000000000000000 W
1+
#170000
0+
#175000
0C
b110000100 %
b110000100 y
b1100010100 @
0M
b11111110 P
b111110000000000000000000 ?
b111110000000000000000000 s
03
b110000100 D
b110000100 t
b110001000 >
b110000100 K
b110000100 v
b1000110000000000000000 B
b0 8
b0 L
b0 w
1N
16
02
04
b101011 9
b100 G
b100 p
b11000 <
b10100001000001111111111111011 0
b11 Q
b1 n
b1 q
b110000100 T
b11010 c
b100 m
b111110000000000000000000 l
b111110000000000000000000 O
1Y
b1100010100 S
b1100010100 $
b0 j
b11111110 a
b110000100 `
b10101100001001000000000000000000 W
b10100 _
b10100 ;
b10100 ^
b11 i
1g
1u
1+
#180000
b110000100 >
b110000100 =
b110000100 r
0+
#185000
1*
b111011 #
b11111111111111111111111111111011 I
b1000110000000000000000 P
1(
b0 ?
b0 s
b0 @
b11010 B
b1000110000000000000000 D
b1000110000000000000000 t
b100 Q
b11100 <
b10101100001000110000000110010000 0
b1111111111111011 /
0N
06
1'
b101 9
b0 G
b0 p
b11111 A
b11111 H
b111011 ,
b1100010100 a
b11 m
b11111110 l
b11111110 O
b110000100 S
b110000100 $
b100 n
b100 q
1Z
b1100010100 T
b1000110000000000000000 c
1[
0e
0X
b100 i
b11000 ^
b11000 _
b100 ;
b10100001000001111111111111011 W
1+
#190000
0+
#195000
b100000 #
b11111110 @
b110010000 I
0*
b11111110 ?
b11111110 s
b0 P
0(
b11010 D
b11010 t
0z
b11111111111111111111111111111011 %
b11111111111111111111111111111011 y
b11111111111111111111100001101100 8
b11111111111111111111111111111011 L
b11111111111111111111111111111011 w
b110010000 /
1N
16
0'
b101011 9
b11 G
b11 p
b0 A
b110 H
b10000 ,
b1000 <
b100000001000011111111111111100 0
b0 Q
b11 n
b11 q
b110000100 T
b11010 c
b100 m
b1000110000000000000000 l
b1000110000000000000000 O
0Y
b111011 R
b111011 x
b11111111111111111111111111111011 j
b0 a
b10101100001000110000000110010000 W
b11100 _
b11001011100 ;
b100 ^
0[
b11111 b
b0 i
1\
15
0f
1+
#200000
b11010 @
b11010 ?
b11010 s
0+
#205000
1C
b11111111111111111111111111111100 I
b110000100 @
b11010 P
b110000100 ?
b110000100 s
b1100010100 %
b1100010100 y
b100101111001000000 8
b110010000 L
b110010000 w
b110000100 D
b110000100 t
b11 Q
b1100 <
b10001100001001000000000110010000 0
b1111111111111100 /
0N
06
1!
b1000 9
b1 G
b1 p
b11111 A
b11111 H
b111100 ,
b100000 R
b100000 x
b110010000 j
b11010 a
b0 m
b0 l
b0 O
b11111111111111111111111111111011 S
b11111111111111111111111111111011 $
b100 n
b100 q
0Z
bx B
0g
0u
0\
05
1[
b0 b
b11 i
b1000 ^
b1000 _
b11111111111111111111111111111000 ;
b100000001000011111111111111100 W
1+
#210000
0+
#215000
1C
b110010000 I
b1000110000000000000000 @
b110000000 %
b110000000 y
b110000100 P
b1000110000000000000000 ?
b1000110000000000000000 s
b11111111111111111111111111111011 D
b11111111111111111111111111111011 t
b1000110000000000000000 B
b11111111111111111111100111110000 8
b11111111111111111111111111111100 L
b11111111111111111111111111111100 w
b110010000 /
12
14
0!
b100011 9
b100 G
b100 p
b0 A
b110 H
b10000 ,
b10000 <
b10001100001000110000000000000000 0
b1 Q
b0 n
b0 q
b11111111111111111111111111111011 T
bx c
b11 m
b11010 l
b11010 O
b1100010100 S
b1100010100 $
b11111111111111111111111111111100 j
b110000100 a
b10001100001001000000000110010000 W
b1100 _
b11001001100 ;
b1100 ^
0[
1e
b11111 b
b1 i
1\
15
1+
#220000
0+
#225000
b110000000 >
b0 I
b11010 @
b1100010000 %
b1100010000 y
b1000110000000000000000 P
b110000000 K
b110000000 v
b11010 ?
b11010 s
b100101100000000000 8
b110010000 L
b110010000 w
b1100010100 D
b1100010100 t
b100 Q
b10100 <
b10101100001001000000000000000000 0
b0 /
b11 G
b11 p
b0 H
b0 ,
b110010000 j
b1000110000000000000000 a
b1 m
b110000100 l
b110000100 O
b110000000 S
b110000000 $
b11 n
b11 q
b1100010100 T
b1000110000000000000000 c
b10 B
0\
05
1f
1X
b0 b
b100 i
b10000 ^
b10000 _
b10000 ;
b10001100001000110000000000000000 W
1+
#230000
0+
#235000
0C
b110000000 %
b110000000 y
b1100010000 @
0M
b11010 P
b1000110000000000000000 ?
b1000110000000000000000 s
03
b110000000 D
b110000000 t
b110000100 >
b110000000 K
b110000000 v
b11111110000000000000000 B
b0 8
b0 L
b0 w
1N
16
02
04
b101011 9
b100 G
b100 p
b11000 <
b10100001000001111111111111011 0
b11 Q
b1 n
b1 q
b110000000 T
b10 c
b100 m
b1000110000000000000000 l
b1000110000000000000000 O
1Y
b1100010000 S
b1100010000 $
b0 j
b11010 a
b110000000 `
b10101100001001000000000000000000 W
b10100 _
b10100 ;
b10100 ^
b11 i
1g
1u
1+
#240000
b110000000 >
b110000000 =
b110000000 r
0+
#245000
1*
b111011 #
b11111111111111111111111111111011 I
b11111110000000000000000 P
1(
b0 ?
b0 s
b0 @
b10 B
b11111110000000000000000 D
b11111110000000000000000 t
b100 Q
b11100 <
b10101100001000110000000110010000 0
b1111111111111011 /
0N
06
1'
b101 9
b0 G
b0 p
b11111 A
b11111 H
b111011 ,
b1100010000 a
b11 m
b11010 l
b11010 O
b110000000 S
b110000000 $
b100 n
b100 q
1Z
b1100010000 T
b11111110000000000000000 c
1[
0e
0X
b100 i
b11000 ^
b11000 _
b100 ;
b10100001000001111111111111011 W
1+
#250000
0+
#255000
b100000 #
b11010 @
b110010000 I
0*
b11010 ?
b11010 s
b0 P
0(
b10 D
b10 t
0z
b11111111111111111111111111111011 %
b11111111111111111111111111111011 y
b11111111111111111111100010000000 8
b11111111111111111111111111111011 L
b11111111111111111111111111111011 w
b110010000 /
1N
16
0'
b101011 9
b11 G
b11 p
b0 A
b110 H
b10000 ,
b1000 <
b100000001000011111111111111100 0
b0 Q
b11 n
b11 q
b110000000 T
b10 c
b100 m
b11111110000000000000000 l
b11111110000000000000000 O
0Y
b111011 R
b111011 x
b11111111111111111111111111111011 j
b0 a
b10101100001000110000000110010000 W
b11100 _
b11001011100 ;
b100 ^
0[
b11111 b
b0 i
1\
15
0f
1+
#260000
b10 @
b10 ?
b10 s
0+
#265000
1C
b11111111111111111111111111111100 I
b110000000 @
b10 P
b110000000 ?
b110000000 s
b1100010000 %
b1100010000 y
b100101100000000000 8
b110010000 L
b110010000 w
b110000000 D
b110000000 t
b11 Q
b1100 <
b10001100001001000000000110010000 0
b1111111111111100 /
0N
06
1!
b1000 9
b1 G
b1 p
b11111 A
b11111 H
b111100 ,
b100000 R
b100000 x
b110010000 j
b10 a
b0 m
b0 l
b0 O
b11111111111111111111111111111011 S
b11111111111111111111111111111011 $
b100 n
b100 q
0Z
bx B
0g
0u
0\
05
1[
b0 b
b11 i
b1000 ^
b1000 _
b11111111111111111111111111111000 ;
b100000001000011111111111111100 W
1+
#270000
0+
#275000
1C
b110010000 I
b11111110000000000000000 @
b101111100 %
b101111100 y
b110000000 P
b11111110000000000000000 ?
b11111110000000000000000 s
b11111111111111111111111111111011 D
b11111111111111111111111111111011 t
b11111110000000000000000 B
b11111111111111111111101000000000 8
b11111111111111111111111111111100 L
b11111111111111111111111111111100 w
b110010000 /
12
14
0!
b100011 9
b100 G
b100 p
b0 A
b110 H
b10000 ,
b10000 <
b10001100001000110000000000000000 0
b1 Q
b0 n
b0 q
b11111111111111111111111111111011 T
bx c
b11 m
b10 l
b10 O
b1100010000 S
b1100010000 $
b11111111111111111111111111111100 j
b110000000 a
b10001100001001000000000110010000 W
b1100 _
b11001001100 ;
b1100 ^
0[
1e
b11111 b
b1 i
1\
15
1+
#280000
0+
#285000
b101111100 >
b0 I
b10 @
b1100001100 %
b1100001100 y
b11111110000000000000000 P
b101111100 K
b101111100 v
b10 ?
b10 s
b100101000111000000 8
b110010000 L
b110010000 w
b1100010000 D
b1100010000 t
b100 Q
b10100 <
b10101100001001000000000000000000 0
b0 /
b11 G
b11 p
b0 H
b0 ,
b110010000 j
b11111110000000000000000 a
b1 m
b110000000 l
b110000000 O
b101111100 S
b101111100 $
b11 n
b11 q
b1100010000 T
b11111110000000000000000 c
b1011100 B
0\
05
1f
1X
b0 b
b100 i
b10000 ^
b10000 _
b10000 ;
b10001100001000110000000000000000 W
1+
#290000
0+
#295000
0C
b101111100 %
b101111100 y
b1100001100 @
0M
b10 P
b11111110000000000000000 ?
b11111110000000000000000 s
03
b101111100 D
b101111100 t
b110000000 >
b101111100 K
b101111100 v
b111000000000000000000 B
b0 8
b0 L
b0 w
1N
16
02
04
b101011 9
b100 G
b100 p
b11000 <
b10100001000001111111111111011 0
b11 Q
b1 n
b1 q
b101111100 T
b1011100 c
b100 m
b11111110000000000000000 l
b11111110000000000000000 O
1Y
b1100001100 S
b1100001100 $
b0 j
b10 a
b101111100 `
b10101100001001000000000000000000 W
b10100 _
b10100 ;
b10100 ^
b11 i
1g
1u
1+
#300000
b101111100 >
b101111100 =
b101111100 r
0+
#305000
1*
b111011 #
b11111111111111111111111111111011 I
b111000000000000000000 P
1(
b0 ?
b0 s
b0 @
b1011100 B
b111000000000000000000 D
b111000000000000000000 t
b100 Q
b11100 <
b10101100001000110000000110010000 0
b1111111111111011 /
0N
06
1'
b101 9
b0 G
b0 p
b11111 A
b11111 H
b111011 ,
b1100001100 a
b11 m
b10 l
b10 O
b101111100 S
b101111100 $
b100 n
b100 q
1Z
b1100001100 T
b111000000000000000000 c
1[
0e
0X
b100 i
b11000 ^
b11000 _
b100 ;
b10100001000001111111111111011 W
1+
#310000
0+
#315000
b100000 #
b10 @
b110010000 I
0*
b10 ?
b10 s
b0 P
0(
b1011100 D
b1011100 t
0z
b11111111111111111111111111111011 %
b11111111111111111111111111111011 y
b11111111111111111111100010010100 8
b11111111111111111111111111111011 L
b11111111111111111111111111111011 w
b110010000 /
1N
16
0'
b101011 9
b11 G
b11 p
b0 A
b110 H
b10000 ,
b1000 <
b100000001000011111111111111100 0
b0 Q
b11 n
b11 q
b101111100 T
b1011100 c
b100 m
b111000000000000000000 l
b111000000000000000000 O
0Y
b111011 R
b111011 x
b11111111111111111111111111111011 j
b0 a
b10101100001000110000000110010000 W
b11100 _
b11001011100 ;
b100 ^
0[
b11111 b
b0 i
1\
15
0f
1+
#320000
b1011100 @
b1011100 ?
b1011100 s
0+
#325000
1C
b11111111111111111111111111111100 I
b101111100 @
b1011100 P
b101111100 ?
b101111100 s
b1100001100 %
b1100001100 y
b100101000111000000 8
b110010000 L
b110010000 w
b101111100 D
b101111100 t
b11 Q
b1100 <
b10001100001001000000000110010000 0
b1111111111111100 /
0N
06
1!
b1000 9
b1 G
b1 p
b11111 A
b11111 H
b111100 ,
b100000 R
b100000 x
b110010000 j
b1011100 a
b0 m
b0 l
b0 O
b11111111111111111111111111111011 S
b11111111111111111111111111111011 $
b100 n
b100 q
0Z
bx B
0g
0u
0\
05
1[
b0 b
b11 i
b1000 ^
b1000 _
b11111111111111111111111111111000 ;
b100000001000011111111111111100 W
1+
#330000
0+
#335000
1C
b110010000 I
b111000000000000000000 @
b101111000 %
b101111000 y
b101111100 P
b111000000000000000000 ?
b111000000000000000000 s
b11111111111111111111111111111011 D
b11111111111111111111111111111011 t
b111000000000000000000 B
b11111111111111111111101000010000 8
b11111111111111111111111111111100 L
b11111111111111111111111111111100 w
b110010000 /
12
14
0!
b100011 9
b100 G
b100 p
b0 A
b110 H
b10000 ,
b10000 <
b10001100001000110000000000000000 0
b1 Q
b0 n
b0 q
b11111111111111111111111111111011 T
bx c
b11 m
b1011100 l
b1011100 O
b1100001100 S
b1100001100 $
b11111111111111111111111111111100 j
b101111100 a
b10001100001001000000000110010000 W
b1100 _
b11001001100 ;
b1100 ^
0[
1e
b11111 b
b1 i
1\
15
1+
#340000
0+
#345000
b101111000 >
b0 I
b1011100 @
b1100001000 %
b1100001000 y
b111000000000000000000 P
b101111000 K
b101111000 v
b1011100 ?
b1011100 s
b100100101110000000 8
b110010000 L
b110010000 w
b1100001100 D
b1100001100 t
b100 Q
b10100 <
b10101100001001000000000000000000 0
b0 /
b11 G
b11 p
b0 H
b0 ,
b110010000 j
b111000000000000000000 a
b1 m
b101111100 l
b101111100 O
b101111000 S
b101111000 $
b11 n
b11 q
b1100001100 T
b111000000000000000000 c
b11011011 B
0\
05
1f
1X
b0 b
b100 i
b10000 ^
b10000 _
b10000 ;
b10001100001000110000000000000000 W
1+
#350000
0+
#355000
0C
b101111000 %
b101111000 y
b1100001000 @
0M
b1011100 P
b111000000000000000000 ?
b111000000000000000000 s
03
b101111000 D
b101111000 t
b101111100 >
b101111000 K
b101111000 v
b110100000000000000000 B
b0 8
b0 L
b0 w
1N
16
02
04
b101011 9
b100 G
b100 p
b11000 <
b10100001000001111111111111011 0
b11 Q
b1 n
b1 q
b101111000 T
b11011011 c
b100 m
b111000000000000000000 l
b111000000000000000000 O
1Y
b1100001000 S
b1100001000 $
b0 j
b1011100 a
b101111000 `
b10101100001001000000000000000000 W
b10100 _
b10100 ;
b10100 ^
b11 i
1g
1u
1+
#360000
b101111000 >
b101111000 =
b101111000 r
0+
#365000
1*
b111011 #
b11111111111111111111111111111011 I
b110100000000000000000 P
1(
b0 ?
b0 s
b0 @
b11011011 B
b110100000000000000000 D
b110100000000000000000 t
b100 Q
b11100 <
b10101100001000110000000110010000 0
b1111111111111011 /
0N
06
1'
b101 9
b0 G
b0 p
b11111 A
b11111 H
b111011 ,
b1100001000 a
b11 m
b1011100 l
b1011100 O
b101111000 S
b101111000 $
b100 n
b100 q
1Z
b1100001000 T
b110100000000000000000 c
1[
0e
0X
b100 i
b11000 ^
b11000 _
b100 ;
b10100001000001111111111111011 W
1+
#370000
0+
#375000
b100000 #
b1011100 @
b110010000 I
0*
b1011100 ?
b1011100 s
b0 P
0(
b11011011 D
b11011011 t
0z
b11111111111111111111111111111011 %
b11111111111111111111111111111011 y
b11111111111111111111100010101000 8
b11111111111111111111111111111011 L
b11111111111111111111111111111011 w
b110010000 /
1N
16
0'
b101011 9
b11 G
b11 p
b0 A
b110 H
b10000 ,
b1000 <
b100000001000011111111111111100 0
b0 Q
b11 n
b11 q
b101111000 T
b11011011 c
b100 m
b110100000000000000000 l
b110100000000000000000 O
0Y
b111011 R
b111011 x
b11111111111111111111111111111011 j
b0 a
b10101100001000110000000110010000 W
b11100 _
b11001011100 ;
b100 ^
0[
b11111 b
b0 i
1\
15
0f
1+
#380000
b11011011 @
b11011011 ?
b11011011 s
0+
