prog_swap/mipse.vcd
$date
	Mon Aug  1 18:33:28 2016
$end
$version
	Icarus Verilog
$end
$timescale
	1ps
$end
$scope module test_mipse $end
$scope module mipse_1 $end
$var wire 1 ! addi_opD $end
$var wire 1 " alu_opD $end
$var wire 6 # alucomD [5:0] $end
$var wire 32 $ aluout [31:0] $end
$var wire 32 % aluoutE [31:0] $end
$var wire 1 & beq_opD $end
$var wire 1 ' bne_opD $end
$var wire 1 ( branchD $end
$var wire 1 ) branchstall $end
$var wire 1 * btakenD $end
$var wire 1 + clk $end
$var wire 6 , funcD [5:0] $end
$var wire 16 - immD [15:0] $end
$var wire 32 . instr [31:0] $end
$var wire 1 / lui_opD $end
$var wire 1 0 lw_opD $end
$var wire 1 1 lwstall $end
$var wire 1 2 memtoregD $end
$var wire 1 3 memwrite $end
$var wire 1 4 memwriteD $end
$var wire 6 5 opcodeD [5:0] $end
$var wire 1 6 ori_opD $end
$var wire 32 7 pcbranchD [31:0] $end
$var wire 32 8 pcplus4F [31:0] $end
$var wire 32 9 rd1D [31:0] $end
$var wire 32 : rd1fD [31:0] $end
$var wire 32 ; rd2D [31:0] $end
$var wire 32 < rd2fD [31:0] $end
$var wire 5 = rdD [4:0] $end
$var wire 32 > readdata [31:0] $end
$var wire 1 ? regwriteD $end
$var wire 32 @ resultW [31:0] $end
$var wire 5 A rsD [4:0] $end
$var wire 1 B rst_n $end
$var wire 5 C rtD [4:0] $end
$var wire 5 D shamtD [4:0] $end
$var wire 32 E signimmD [31:0] $end
$var wire 1 F slti_opD $end
$var wire 32 G srcaE [31:0] $end
$var wire 32 H srcbE [31:0] $end
$var wire 1 I stall $end
$var wire 1 J sw_opD $end
$var wire 32 K writedata [31:0] $end
$var wire 32 L writedataE [31:0] $end
$var wire 5 M writeregE [4:0] $end
$var reg 6 N alucomE [5:0] $end
$var reg 32 O aluoutM [31:0] $end
$var reg 32 P aluoutW [31:0] $end
$var reg 1 Q alusrcE $end
$var reg 32 R instrD [31:0] $end
$var reg 1 S memtoregE $end
$var reg 1 T memtoregM $end
$var reg 1 U memtoregW $end
$var reg 1 V memwriteE $end
$var reg 1 W memwriteM $end
$var reg 32 X pc [31:0] $end
$var reg 32 Y pcplus4D [31:0] $end
$var reg 32 Z rd1E [31:0] $end
$var reg 32 [ rd2E [31:0] $end
$var reg 5 \ rdE [4:0] $end
$var reg 32 ] readdataW [31:0] $end
$var reg 1 ^ regdstE $end
$var reg 1 _ regwriteE $end
$var reg 1 ` regwriteM $end
$var reg 1 a regwriteW $end
$var reg 5 b rsE [4:0] $end
$var reg 5 c rtE [4:0] $end
$var reg 32 d signimmE [31:0] $end
$var reg 1 e slti_opE $end
$var reg 32 f writedataM [31:0] $end
$var reg 5 g writeregM [4:0] $end
$var reg 5 h writeregW [4:0] $end
$scope module rfile_1 $end
$var wire 5 i a1 [4:0] $end
$var wire 5 j a2 [4:0] $end
$var wire 5 k a3 [4:0] $end
$var wire 1 + clk $end
$var wire 32 l rd1 [31:0] $end
$var wire 32 m rd2 [31:0] $end
$var wire 32 n wd3 [31:0] $end
$var wire 1 o we3 $end
$upscope $end
$scope module alu_1 $end
$var wire 32 p a [31:0] $end
$var wire 32 q b [31:0] $end
$var wire 6 r s [5:0] $end
$var wire 32 s y [31:0] $end
$var wire 1 t zero $end
$upscope $end
$upscope $end
$upscope $end
$enddefinitions $end
#0
$dumpvars
xt
bx s
bx r
bx q
bx p
0o
bx n
b0 m
b0 l
bx k
b0 j
b0 i
bx h
bx g
bx f
xe
bx d
b0 c
b0 b
0a
0`
0_
x^
bx ]
b0 \
bx [
bx Z
b0 Y
b0 X
0W
0V
xU
xT
0S
b0 R
xQ
bx P
bx O
bx N
b0 M
bx L
bx K
0J
0I
bx H
bx G
0F
b0 E
b0 D
b0 C
0B
b0 A
bx @
0?
bx >
b0 =
b0 <
b0 ;
b0 :
b0 9
b100 8
b0 7
06
b0 5
04
03
02
01
00
0/
b100000000000010000000110010000 .
b0 -
b0 ,
0+
0*
0)
0(
0'
0&
bx %
bx $
b0 #
0"
0!
$end
#5000
b0 L
b0 G
b0 p
1t
b0 %
b0 s
b0 H
b0 q
0^
1Q
b0 N
b0 r
b0 d
b0 [
b0 Z
0e
b0 g
0T
1+
#10000
0+
#12000
1B
#15000
1?
b100000 #
bx <
b110010000 E
bx ;
bx m
b1100111 >
b110010000 -
1!
b1000 5
b1 C
b1 j
b110 D
b10000 ,
b1000 8
b100000001000011111111111111100 .
b0 h
b0 k
0U
b0 f
b0 K
b0 O
b0 $
b100000000000010000000110010000 R
b100 Y
b11001000100 7
b100 X
1+
#20000
0+
#25000
bx :
b11111111111111111111111111111100 E
bx 9
bx l
bx L
0t
b110010000 %
b110010000 s
b110010000 H
b110010000 q
b0 @
b0 n
b1 M
b1100 8
b10001100001000110000000000000000 .
b1111111111111100 -
b1 A
b1 i
b11111 =
b11111 D
b111100 ,
b100000 N
b100000 r
b110010000 d
bx [
b0 P
b1100111 ]
1_
b1 c
b1000 X
b1000 Y
b11111111111111111111111111111000 7
b100000001000011111111111111100 R
1+
#30000
0+
#35000
1?
b110010000 :
b0 E
b110010000 L
b110001100 %
b110001100 s
b110010000 G
b110010000 p
b111110110000000000000000 >
b11111111111111111111111111111100 H
b11111111111111111111111111111100 q
b0 -
10
12
0!
b100011 5
b11 C
b11 j
b0 =
b0 D
b0 ,
b10000 8
b10001100001001000000000110010000 .
b1 g
bx f
bx K
b110010000 O
b110010000 $
b11111111111111111111111111111100 d
bx Z
b10001100001000110000000000000000 R
b1100 Y
b1100 7
b1100 X
b11111 \
b1 b
1`
1+
#40000
0+
#45000
b110010000 E
b0 H
b0 q
b110001100 :
b110001100 G
b110001100 p
bx L
b1000011 >
b110010000 @
b110010000 n
b11 M
b10100 8
b10101100001001000000000000000000 .
b110010000 -
b100 C
b100 j
b110 D
b10000 ,
b0 d
b110010000 Z
b110010000 f
b110010000 K
b110001100 O
b110001100 $
b1 h
b1 k
b110010000 P
b111110110000000000000000 ]
1a
1o
1S
b0 \
b11 c
b10000 X
b10000 Y
b11001010000 7
b10001100001001000000000110010000 R
1+
#50000
b110010000 9
b110010000 l
0+
#55000
0?
b110010000 :
b0 E
1I
b110001100 G
b110001100 p
b1100011100 %
b1100011100 s
11
b110001100 @
b110001100 n
b110010000 H
b110010000 q
b0 -
1J
14
00
02
b101011 5
b0 D
b0 ,
b11000 8
b10100001000001111111111111011 .
b100 M
b110001100 P
b1000011 ]
b11 g
bx f
bx K
1T
b110010000 d
b110001100 Z
b10101100001001000000000000000000 R
b10100 Y
b10100 7
b10100 X
b100 c
1+
#60000
b110001100 :
b110001100 9
b110001100 l
0+
#65000
b1100011100 <
0I
b1010010000000000000000 >
b1000011 @
b1000011 n
01
b0 M
b100 g
b1100011100 O
b1100011100 $
b11 h
b11 k
1U
0_
0S
b0 c
b0 b
1+
#70000
0+
#75000
b11111111111111111111111111111011 E
b111011 #
1*
b0 ;
b0 m
b110001100 %
b110001100 s
b1010010000000000000000 L
1(
b0 <
b1010010000000000000000 @
b1010010000000000000000 n
b0 H
b0 q
b1111111111111011 -
0J
04
1'
b101 5
b0 C
b0 j
b11111 =
b11111 D
b111011 ,
b11100 8
b10101100001000110000000110010000 .
b100 M
b100 h
b100 k
b1100011100 P
b1010010000000000000000 ]
b0 g
0T
b0 d
b1100011100 [
b10100001000001111111111111011 R
b11000 Y
b100 7
b11000 X
1V
b100 c
b1 b
0`
1+
#80000
0+
#85000
b1000011 <
b0 L
b110010000 E
b100000 #
0*
b1000011 ;
b1000011 m
0(
0t
b11111111111111111111111111111011 %
b11111111111111111111111111111011 s
b11111111111111111111111111111011 H
b11111111111111111111111111111011 q
b1000011 >
b1100011100 @
b1100011100 n
b0 M
b1000 8
b100000001000011111111111111100 .
b110010000 -
1J
14
0'
b101011 5
b11 C
b11 j
b0 =
b110 D
b10000 ,
b111011 N
b111011 r
b11111111111111111111111111111011 d
b0 [
b100 g
b1010010000000000000000 f
b1010010000000000000000 K
b110001100 O
b110001100 $
b0 h
b0 k
0U
0a
0o
1W
13
0V
b11111 \
b0 c
b100 X
b11100 Y
b11001011100 7
b10101100001000110000000110010000 R
1+
#90000
0+
#95000
1?
b11111111111111111111111111111100 E
b110001100 <
b1000011 L
b110001100 ;
b110001100 m
b110001100 @
b110001100 n
b1100011100 %
b1100011100 s
b110010000 H
b110010000 q
b1111111111111100 -
0J
04
1!
b1000 5
b1 C
b1 j
b11111 =
b11111 D
b111100 ,
b1100 8
b10001100001000110000000000000000 .
b11 M
bx >
b100 h
b100 k
b110001100 P
b1000011 ]
b0 g
b0 f
b0 K
b11111111111111111111111111111011 O
b11111111111111111111111111111011 $
b100000 N
b100000 r
b110010000 d
b1000011 [
b100000001000011111111111111100 R
b1000 Y
b11111111111111111111111111111000 7
b1000 X
1V
b0 \
b11 c
0W
03
1+
#100000
0+
#105000
1?
b0 E
b1000011 <
b110001000 %
b110001000 s
b110001100 L
b1000011 ;
b1000011 m
b11111111111111111111111111111100 H
b11111111111111111111111111111100 q
b1010010000000000000000 >
b11111111111111111111111111111011 @
b11111111111111111111111111111011 n
b1 M
b10000 8
b10001100001001000000000110010000 .
b0 -
10
12
0!
b100011 5
b11 C
b11 j
b0 =
b0 D
b0 ,
b11111111111111111111111111111100 d
b110001100 [
b11 g
b1000011 f
b1000011 K
b1100011100 O
b1100011100 $
b0 h
b0 k
b11111111111111111111111111111011 P
bx ]
1W
13
0V
1_
b11111 \
b1 c
b1100 X
b1100 Y
b1100 7
b10001100001000110000000000000000 R
1+
#110000
0+
#115000
b110001000 :
b110010000 E
b110001000 G
b110001000 p
b110001000 %
b110001000 s
b1000011 L
b1010010000000000000000 ;
b1010010000000000000000 m
0I
b1010010000000000000000 <
b1100011100 @
b1100011100 n
b0 H
b0 q
b110010000 -
b100 C
b100 j
b110 D
b10000 ,
b10100 8
b10101100001001000000000000000000 .
01
b11 M
b11111110 >
b11 h
b11 k
b1100011100 P
b1010010000000000000000 ]
b1 g
b110001100 f
b110001100 K
b110001000 O
b110001000 $
b0 d
b1000011 [
b10001100001001000000000110010000 R
b10000 Y
b11001010000 7
b10000 X
1S
b0 \
b11 c
0W
03
1`
1+
#120000
0+
#125000
0?
b110001100 :
1I
b0 E
b1100011000 %
b1100011000 s
b1010010000000000000000 L
11
b110010000 H
b110010000 q
b110001000 @
b110001000 n
b100 M
b11000 8
b10100001000001111111111111011 .
b0 -
1J
14
00
02
b101011 5
b0 D
b0 ,
b110010000 d
b1010010000000000000000 [
b110001000 Z
b11 g
b1000011 f
b1000011 K
1T
b1 h
b1 k
b110001000 P
b11111110 ]
1a
1o
b100 c
b10100 X
b10100 Y
b10100 7
b10101100001001000000000000000000 R
1+
#130000
b110001000 :
b110001000 9
b110001000 l
0+
#135000
b1100011000 <
0I
b11111110 @
b11111110 n
b111110000000000000000000 >
01
b0 M
b11 h
b11 k
1U
b100 g
b1010010000000000000000 f
b1010010000000000000000 K
b1100011000 O
b1100011000 $
0_
0S
b0 c
b0 b
1+
#140000
0+
#145000
b11111111111111111111111111111011 E
b111011 #
1*
b110001000 %
b110001000 s
b111110000000000000000000 L
b0 <
1(
b0 ;
b0 m
b0 H
b0 q
b111110000000000000000000 @
b111110000000000000000000 n
b100 M
b11100 8
b10101100001000110000000110010000 .
b1111111111111011 -
0J
04
1'
b101 5
b0 C
b0 j
b11111 =
b11111 D
b111011 ,
b0 d
b1100011000 [
b0 g
0T
b100 h
b100 k
b1100011000 P
b111110000000000000000000 ]
0`
1V
b100 c
b1 b
b11000 X
b11000 Y
b100 7
b10100001000001111111111111011 R
1+
#150000
0+
#155000
b11111110 <
b110010000 E
b100000 #
0*
b11111110 ;
b11111110 m
b0 L
0(
b1100011000 @
b1100011000 n
b11111110 >
0t
b11111111111111111111111111111011 %
b11111111111111111111111111111011 s
b11111111111111111111111111111011 H
b11111111111111111111111111111011 q
b110010000 -
1J
14
0'
b101011 5
b11 C
b11 j
b0 =
b110 D
b10000 ,
b1000 8
b100000001000011111111111111100 .
b0 M
b0 h
b0 k
0U
b100 g
b111110000000000000000000 f
b111110000000000000000000 K
b110001000 O
b110001000 $
b111011 N
b111011 r
b11111111111111111111111111111011 d
b0 [
b10101100001000110000000110010000 R
b11100 Y
b11001011100 7
b100 X
0V
b11111 \
b0 c
1W
13
0a
0o
1+
#160000
0+
#165000
1?
b11111111111111111111111111111100 E
b110001000 <
b11111110 L
b110001000 ;
b110001000 m
b1100011000 %
b1100011000 s
b110010000 H
b110010000 q
b110001000 @
b110001000 n
b11 M
b1100 8
b10001100001000110000000000000000 .
b1111111111111100 -
0J
04
1!
b1000 5
b1 C
b1 j
b11111 =
b11111 D
b111100 ,
b100000 N
b100000 r
b110010000 d
b11111110 [
b0 g
b0 f
b0 K
b11111111111111111111111111111011 O
b11111111111111111111111111111011 $
b100 h
b100 k
b110001000 P
b11111110 ]
bx >
0W
03
1V
b0 \
b11 c
b1000 X
b1000 Y
b11111111111111111111111111111000 7
b100000001000011111111111111100 R
1+
#170000
0+
#175000
1?
b0 E
b11111110 <
b110000100 %
b110000100 s
b110001000 L
b11111110 ;
b11111110 m
b11111111111111111111111111111011 @
b11111111111111111111111111111011 n
b111110000000000000000000 >
b11111111111111111111111111111100 H
b11111111111111111111111111111100 q
b0 -
10
12
0!
b100011 5
b11 C
b11 j
b0 =
b0 D
b0 ,
b10000 8
b10001100001001000000000110010000 .
b1 M
b0 h
b0 k
b11111111111111111111111111111011 P
bx ]
b11 g
b11111110 f
b11111110 K
b1100011000 O
b1100011000 $
b11111111111111111111111111111100 d
b110001000 [
b10001100001000110000000000000000 R
b1100 Y
b1100 7
b1100 X
0V
1_
b11111 \
b1 c
1W
13
1+
#180000
0+
#185000
b110000100 :
b110010000 E
b11111110 L
b110000100 G
b110000100 p
b111110000000000000000000 <
b111110000000000000000000 ;
b111110000000000000000000 m
b0 H
b0 q
b1100011000 @
b1100011000 n
b11 M
b10100 8
b10101100001001000000000000000000 .
b110010000 -
b100 C
b100 j
b110 D
b10000 ,
b0 d
b11111110 [
b1 g
b110001000 f
b110001000 K
b110000100 O
b110000100 $
b11 h
b11 k
b1100011000 P
b111110000000000000000000 ]
b11010 >
0W
03
1`
1S
b0 \
b11 c
b10000 X
b10000 Y
b11001010000 7
b10001100001001000000000110010000 R
1+
#190000
0+
#195000
0?
b110001000 :
b0 E
1I
b1100010100 %
b1100010100 s
b111110000000000000000000 L
11
b110000100 @
b110000100 n
b110010000 H
b110010000 q
b0 -
1J
14
00
02
b101011 5
b0 D
b0 ,
b11000 8
b10100001000001111111111111011 .
b100 M
b1 h
b1 k
b110000100 P
b11010 ]
b11 g
b11111110 f
b11111110 K
1T
b110010000 d
b111110000000000000000000 [
b110000100 Z
b10101100001001000000000000000000 R
b10100 Y
b10100 7
b10100 X
b100 c
1a
1o
1+
#200000
b110000100 :
b110000100 9
b110000100 l
0+
#205000
b1100010100 <
0I
b1000110000000000000000 >
b11010 @
b11010 n
01
b0 M
b100 g
b111110000000000000000000 f
b111110000000000000000000 K
b1100010100 O
b1100010100 $
b11 h
b11 k
1U
0_
0S
b0 c
b0 b
1+
#210000
0+
#215000
b11111111111111111111111111111011 E
b111011 #
1*
b110000100 %
b110000100 s
b1000110000000000000000 L
1(
b0 ;
b0 m
b0 <
b1000110000000000000000 @
b1000110000000000000000 n
b0 H
b0 q
b1111111111111011 -
0J
04
1'
b101 5
b0 C
b0 j
b11111 =
b11111 D
b111011 ,
b11100 8
b10101100001000110000000110010000 .
b100 M
b100 h
b100 k
b1100010100 P
b1000110000000000000000 ]
b0 g
0T
b0 d
b1100010100 [
b10100001000001111111111111011 R
b11000 Y
b100 7
b11000 X
1V
b100 c
b1 b
0`
1+
#220000
0+
#225000
b11010 <
b0 L
b110010000 E
b100000 #
0*
b11010 ;
b11010 m
0(
0t
b11111111111111111111111111111011 %
b11111111111111111111111111111011 s
b11111111111111111111111111111011 H
b11111111111111111111111111111011 q
b11010 >
b1100010100 @
b1100010100 n
b0 M
b1000 8
b100000001000011111111111111100 .
b110010000 -
1J
14
0'
b101011 5
b11 C
b11 j
b0 =
b110 D
b10000 ,
b111011 N
b111011 r
b11111111111111111111111111111011 d
b0 [
b100 g
b1000110000000000000000 f
b1000110000000000000000 K
b110000100 O
b110000100 $
b0 h
b0 k
0U
0a
0o
1W
13
0V
b11111 \
b0 c
b100 X
b11100 Y
b11001011100 7
b10101100001000110000000110010000 R
1+
#230000
0+
#235000
1?
b11111111111111111111111111111100 E
b110000100 <
b11010 L
b110000100 ;
b110000100 m
b110000100 @
b110000100 n
b1100010100 %
b1100010100 s
b110010000 H
b110010000 q
b1111111111111100 -
0J
04
1!
b1000 5
b1 C
b1 j
b11111 =
b11111 D
b111100 ,
b1100 8
b10001100001000110000000000000000 .
b11 M
bx >
b100 h
b100 k
b110000100 P
b11010 ]
b0 g
b0 f
b0 K
b11111111111111111111111111111011 O
b11111111111111111111111111111011 $
b100000 N
b100000 r
b110010000 d
b11010 [
b100000001000011111111111111100 R
b1000 Y
b11111111111111111111111111111000 7
b1000 X
1V
b0 \
b11 c
0W
03
1+
#240000
0+
#245000
1?
b0 E
b11010 <
b110000000 %
b110000000 s
b110000100 L
b11010 ;
b11010 m
b11111111111111111111111111111100 H
b11111111111111111111111111111100 q
b1000110000000000000000 >
b11111111111111111111111111111011 @
b11111111111111111111111111111011 n
b1 M
b10000 8
b10001100001001000000000110010000 .
b0 -
10
12
0!
b100011 5
b11 C
b11 j
b0 =
b0 D
b0 ,
b11111111111111111111111111111100 d
b110000100 [
b11 g
b11010 f
b11010 K
b1100010100 O
b1100010100 $
b0 h
b0 k
b11111111111111111111111111111011 P
bx ]
1W
13
0V
1_
b11111 \
b1 c
b1100 X
b1100 Y
b1100 7
b10001100001000110000000000000000 R
1+
#250000
0+
#255000
b110000000 :
b110010000 E
b110000000 G
b110000000 p
b110000000 %
b110000000 s
b11010 L
b1000110000000000000000 ;
b1000110000000000000000 m
0I
b1000110000000000000000 <
b1100010100 @
b1100010100 n
b0 H
b0 q
b110010000 -
b100 C
b100 j
b110 D
b10000 ,
b10100 8
b10101100001001000000000000000000 .
01
b11 M
b10 >
b11 h
b11 k
b1100010100 P
b1000110000000000000000 ]
b1 g
b110000100 f
b110000100 K
b110000000 O
b110000000 $
b0 d
b11010 [
b10001100001001000000000110010000 R
b10000 Y
b11001010000 7
b10000 X
1S
b0 \
b11 c
0W
03
1`
1+
#260000
0+
#265000
0?
b110000100 :
1I
b0 E
b1100010000 %
b1100010000 s
b1000110000000000000000 L
11
b110010000 H
b110010000 q
b110000000 @
b110000000 n
b100 M
b11000 8
b10100001000001111111111111011 .
b0 -
1J
14
00
02
b101011 5
b0 D
b0 ,
b110010000 d
b1000110000000000000000 [
b110000000 Z
b11 g
b11010 f
b11010 K
1T
b1 h
b1 k
b110000000 P
b10 ]
1a
1o
b100 c
b10100 X
b10100 Y
b10100 7
b10101100001001000000000000000000 R
1+
#270000
b110000000 :
b110000000 9
b110000000 l
0+
#275000
b1100010000 <
0I
b10 @
b10 n
b11111110000000000000000 >
01
b0 M
b11 h
b11 k
1U
b100 g
b1000110000000000000000 f
b1000110000000000000000 K
b1100010000 O
b1100010000 $
0_
0S
b0 c
b0 b
1+
#280000
0+
#285000
b11111111111111111111111111111011 E
b111011 #
1*
b110000000 %
b110000000 s
b11111110000000000000000 L
b0 <
1(
b0 ;
b0 m
b0 H
b0 q
b11111110000000000000000 @
b11111110000000000000000 n
b100 M
b11100 8
b10101100001000110000000110010000 .
b1111111111111011 -
0J
04
1'
b101 5
b0 C
b0 j
b11111 =
b11111 D
b111011 ,
b0 d
b1100010000 [
b0 g
0T
b100 h
b100 k
b1100010000 P
b11111110000000000000000 ]
0`
1V
b100 c
b1 b
b11000 X
b11000 Y
b100 7
b10100001000001111111111111011 R
1+
#290000
0+
#295000
b10 <
b110010000 E
b100000 #
0*
b10 ;
b10 m
b0 L
0(
b1100010000 @
b1100010000 n
b10 >
0t
b11111111111111111111111111111011 %
b11111111111111111111111111111011 s
b11111111111111111111111111111011 H
b11111111111111111111111111111011 q
b110010000 -
1J
14
0'
b101011 5
b11 C
b11 j
b0 =
b110 D
b10000 ,
b1000 8
b100000001000011111111111111100 .
b0 M
b0 h
b0 k
0U
b100 g
b11111110000000000000000 f
b11111110000000000000000 K
b110000000 O
b110000000 $
b111011 N
b111011 r
b11111111111111111111111111111011 d
b0 [
b10101100001000110000000110010000 R
b11100 Y
b11001011100 7
b100 X
0V
b11111 \
b0 c
1W
13
0a
0o
1+
#300000
0+
#305000
1?
b11111111111111111111111111111100 E
b110000000 <
b10 L
b110000000 ;
b110000000 m
b1100010000 %
b1100010000 s
b110010000 H
b110010000 q
b110000000 @
b110000000 n
b11 M
b1100 8
b10001100001000110000000000000000 .
b1111111111111100 -
0J
04
1!
b1000 5
b1 C
b1 j
b11111 =
b11111 D
b111100 ,
b100000 N
b100000 r
b110010000 d
b10 [
b0 g
b0 f
b0 K
b11111111111111111111111111111011 O
b11111111111111111111111111111011 $
b100 h
b100 k
b110000000 P
b10 ]
bx >
0W
03
1V
b0 \
b11 c
b1000 X
b1000 Y
b11111111111111111111111111111000 7
b100000001000011111111111111100 R
1+
#310000
0+
#315000
1?
b0 E
b10 <
b101111100 %
b101111100 s
b110000000 L
b10 ;
b10 m
b11111111111111111111111111111011 @
b11111111111111111111111111111011 n
b11111110000000000000000 >
b11111111111111111111111111111100 H
b11111111111111111111111111111100 q
b0 -
10
12
0!
b100011 5
b11 C
b11 j
b0 =
b0 D
b0 ,
b10000 8
b10001100001001000000000110010000 .
b1 M
b0 h
b0 k
b11111111111111111111111111111011 P
bx ]
b11 g
b10 f
b10 K
b1100010000 O
b1100010000 $
b11111111111111111111111111111100 d
b110000000 [
b10001100001000110000000000000000 R
b1100 Y
b1100 7
b1100 X
0V
1_
b11111 \
b1 c
1W
13
1+
#320000
0+
#325000
b101111100 :
b110010000 E
b10 L
b101111100 G
b101111100 p
b11111110000000000000000 <
b11111110000000000000000 ;
b11111110000000000000000 m
b0 H
b0 q
b1100010000 @
b1100010000 n
b11 M
b10100 8
b10101100001001000000000000000000 .
b110010000 -
b100 C
b100 j
b110 D
b10000 ,
b0 d
b10 [
b1 g
b110000000 f
b110000000 K
b101111100 O
b101111100 $
b11 h
b11 k
b1100010000 P
b11111110000000000000000 ]
b1011100 >
0W
03
1`
1S
b0 \
b11 c
b10000 X
b10000 Y
b11001010000 7
b10001100001001000000000110010000 R
1+
#330000
0+
#335000
0?
b110000000 :
b0 E
1I
b1100001100 %
b1100001100 s
b11111110000000000000000 L
11
b101111100 @
b101111100 n
b110010000 H
b110010000 q
b0 -
1J
14
00
02
b101011 5
b0 D
b0 ,
b11000 8
b10100001000001111111111111011 .
b100 M
b1 h
b1 k
b101111100 P
b1011100 ]
b11 g
b10 f
b10 K
1T
b110010000 d
b11111110000000000000000 [
b101111100 Z
b10101100001001000000000000000000 R
b10100 Y
b10100 7
b10100 X
b100 c
1a
1o
1+
#340000
b101111100 :
b101111100 9
b101111100 l
0+
#345000
b1100001100 <
0I
b111000000000000000000 >
b1011100 @
b1011100 n
01
b0 M
b100 g
b11111110000000000000000 f
b11111110000000000000000 K
b1100001100 O
b1100001100 $
b11 h
b11 k
1U
0_
0S
b0 c
b0 b
1+
#350000
0+
#355000
b11111111111111111111111111111011 E
b111011 #
1*
b101111100 %
b101111100 s
b111000000000000000000 L
1(
b0 ;
b0 m
b0 <
b111000000000000000000 @
b111000000000000000000 n
b0 H
b0 q
b1111111111111011 -
0J
04
1'
b101 5
b0 C
b0 j
b11111 =
b11111 D
b111011 ,
b11100 8
b10101100001000110000000110010000 .
b100 M
b100 h
b100 k
b1100001100 P
b111000000000000000000 ]
b0 g
0T
b0 d
b1100001100 [
b10100001000001111111111111011 R
b11000 Y
b100 7
b11000 X
1V
b100 c
b1 b
0`
1+
#360000
0+
#365000
b1011100 <
b0 L
b110010000 E
b100000 #
0*
b1011100 ;
b1011100 m
0(
0t
b11111111111111111111111111111011 %
b11111111111111111111111111111011 s
b11111111111111111111111111111011 H
b11111111111111111111111111111011 q
b1011100 >
b1100001100 @
b1100001100 n
b0 M
b1000 8
b100000001000011111111111111100 .
b110010000 -
1J
14
0'
b101011 5
b11 C
b11 j
b0 =
b110 D
b10000 ,
b111011 N
b111011 r
b11111111111111111111111111111011 d
b0 [
b100 g
b111000000000000000000 f
b111000000000000000000 K
b101111100 O
b101111100 $
b0 h
b0 k
0U
0a
0o
1W
13
0V
b11111 \
b0 c
b100 X
b11100 Y
b11001011100 7
b10101100001000110000000110010000 R
1+
#370000
0+
#375000
1?
b11111111111111111111111111111100 E
b101111100 <
b1011100 L
b101111100 ;
b101111100 m
b101111100 @
b101111100 n
b1100001100 %
b1100001100 s
b110010000 H
b110010000 q
b1111111111111100 -
0J
04
1!
b1000 5
b1 C
b1 j
b11111 =
b11111 D
b111100 ,
b1100 8
b10001100001000110000000000000000 .
b11 M
bx >
b100 h
b100 k
b101111100 P
b1011100 ]
b0 g
b0 f
b0 K
b11111111111111111111111111111011 O
b11111111111111111111111111111011 $
b100000 N
b100000 r
b110010000 d
b1011100 [
b100000001000011111111111111100 R
b1000 Y
b11111111111111111111111111111000 7
b1000 X
1V
b0 \
b11 c
0W
03
1+
#380000
0+
#385000
1?
b0 E
b1011100 <
b101111000 %
b101111000 s
b101111100 L
b1011100 ;
b1011100 m
b11111111111111111111111111111100 H
b11111111111111111111111111111100 q
b111000000000000000000 >
b11111111111111111111111111111011 @
b11111111111111111111111111111011 n
b1 M
b10000 8
b10001100001001000000000110010000 .
b0 -
10
12
0!
b100011 5
b11 C
b11 j
b0 =
b0 D
b0 ,
b11111111111111111111111111111100 d
b101111100 [
b11 g
b1011100 f
b1011100 K
b1100001100 O
b1100001100 $
b0 h
b0 k
b11111111111111111111111111111011 P
bx ]
1W
13
0V
1_
b11111 \
b1 c
b1100 X
b1100 Y
b1100 7
b10001100001000110000000000000000 R
1+
#390000
0+
#395000
b101111000 :
b110010000 E
b101111000 G
b101111000 p
b101111000 %
b101111000 s
b1011100 L
b111000000000000000000 ;
b111000000000000000000 m
0I
b111000000000000000000 <
b1100001100 @
b1100001100 n
b0 H
b0 q
b110010000 -
b100 C
b100 j
b110 D
b10000 ,
b10100 8
b10101100001001000000000000000000 .
01
b11 M
b11011011 >
b11 h
b11 k
b1100001100 P
b111000000000000000000 ]
b1 g
b101111100 f
b101111100 K
b101111000 O
b101111000 $
b0 d
b1011100 [
b10001100001001000000000110010000 R
b10000 Y
b11001010000 7
b10000 X
1S
b0 \
b11 c
0W
03
1`
1+
#400000
0+
#405000
0?
b101111100 :
1I
b0 E
b1100001000 %
b1100001000 s
b111000000000000000000 L
11
b110010000 H
b110010000 q
b101111000 @
b101111000 n
b100 M
b11000 8
b10100001000001111111111111011 .
b0 -
1J
14
00
02
b101011 5
b0 D
b0 ,
b110010000 d
b111000000000000000000 [
b101111000 Z
b11 g
b1011100 f
b1011100 K
1T
b1 h
b1 k
b101111000 P
b11011011 ]
1a
1o
b100 c
b10100 X
b10100 Y
b10100 7
b10101100001001000000000000000000 R
1+
#410000
b101111000 :
b101111000 9
b101111000 l
0+
#415000
b1100001000 <
0I
b11011011 @
b11011011 n
b110100000000000000000 >
01
b0 M
b11 h
b11 k
1U
b100 g
b111000000000000000000 f
b111000000000000000000 K
b1100001000 O
b1100001000 $
0_
0S
b0 c
b0 b
1+
#420000
0+
#425000
b11111111111111111111111111111011 E
b111011 #
1*
b101111000 %
b101111000 s
b110100000000000000000 L
b0 <
1(
b0 ;
b0 m
b0 H
b0 q
b110100000000000000000 @
b110100000000000000000 n
b100 M
b11100 8
b10101100001000110000000110010000 .
b1111111111111011 -
0J
04
1'
b101 5
b0 C
b0 j
b11111 =
b11111 D
b111011 ,
b0 d
b1100001000 [
b0 g
0T
b100 h
b100 k
b1100001000 P
b110100000000000000000 ]
0`
1V
b100 c
b1 b
b11000 X
b11000 Y
b100 7
b10100001000001111111111111011 R
1+
#430000
0+
#435000
b11011011 <
b110010000 E
b100000 #
0*
b11011011 ;
b11011011 m
b0 L
0(
b1100001000 @
b1100001000 n
b11011011 >
0t
b11111111111111111111111111111011 %
b11111111111111111111111111111011 s
b11111111111111111111111111111011 H
b11111111111111111111111111111011 q
b110010000 -
1J
14
0'
b101011 5
b11 C
b11 j
b0 =
b110 D
b10000 ,
b1000 8
b100000001000011111111111111100 .
b0 M
b0 h
b0 k
0U
b100 g
b110100000000000000000 f
b110100000000000000000 K
b101111000 O
b101111000 $
b111011 N
b111011 r
b11111111111111111111111111111011 d
b0 [
b10101100001000110000000110010000 R
b11100 Y
b11001011100 7
b100 X
0V
b11111 \
b0 c
1W
13
0a
0o
1+
#440000
0+
#445000
1?
b11111111111111111111111111111100 E
b101111000 <
b11011011 L
b101111000 ;
b101111000 m
b1100001000 %
b1100001000 s
b110010000 H
b110010000 q
b101111000 @
b101111000 n
b11 M
b1100 8
b10001100001000110000000000000000 .
b1111111111111100 -
0J
04
1!
b1000 5
b1 C
b1 j
b11111 =
b11111 D
b111100 ,
b100000 N
b100000 r
b110010000 d
b11011011 [
b0 g
b0 f
b0 K
b11111111111111111111111111111011 O
b11111111111111111111111111111011 $
b100 h
b100 k
b101111000 P
b11011011 ]
bx >
0W
03
1V
b0 \
b11 c
b1000 X
b1000 Y
b11111111111111111111111111111000 7
b100000001000011111111111111100 R
1+
#450000
0+
